estate_nobles_land_rights = {
	icon = privilege_grant_autonomy
	land_share = 5
	max_absolutism = -5
	conditional_modifier = { trigger = { has_absolutism_reduction_for_estate_privileges = yes } modifier = { max_absolutism = 1 } }
	loyalty = 0.05
	influence = 0.05
	is_valid = {
		NOT = { OR = { religion = gods_of_the_taychend religion = oren_nayiru } } 
		NOT = { has_country_flag = active_tree }
	}
	can_select = {
		not = { has_estate_privilege = estate_ghulams_land_rights }
		not = { has_estate_privilege = estate_qizilbash_land_rights }
	}
	on_granted = {
	}
	penalties = {
	}
	conditional_modifier = {
		trigger = { has_country_flag = mng_increased_land_rights_flag }
		modifier = {
			stability_cost_modifier = -0.05
		}
	}
	# conditional_modifier = {
	# 	trigger = { has_government_attribute = BYZ_buff_dynatoi_land_grants  }
	# 	modifier = {
	# 		land_forcelimit_modifier = 0.1
	# 		max_absolutism = 5
	# 	}
	# }

	benefits = {
		governing_capacity = 100
	}
	conditional_modifier = {
		trigger = { has_government_mechanic = russian_modernization_mechanic }
		modifier = { monthly_russian_modernization = -0.05 }
	}
	#conditional_modifier = {
	#	trigger = { has_government_mechanic = ottoman_decadence_mechanic }
	#	modifier = { monthly_ottoman_decadence = 0.02 }
	#}
	ai_will_do = {
		factor = 5
		modifier = {
			factor = 1.4
			num_of_territories = 5
		}
		modifier = {
			factor = 1.5
			num_of_territories = 10
		}
		modifier = {
			factor = 1.5
			num_of_territories = 15
		}
		modifier = {
			factor = 0
			OR = {
				NOT = { crown_land_share = 25 }
				estate_influence = {
					estate = estate_nobles
					influence = 75
				}
			}
			NOT = { has_estate_privilege = estate_nobles_land_rights }
		}
		modifier = {
			factor = 3
			OR = {
				AND = {
					governing_capacity_percentage = 0.9
					NOT = { has_estate_privilege = estate_nobles_land_rights }
				}
				#The trigger below should make sure that the AI actually keeps this privilege when enacting it early game
				AND = {
					governing_capacity_percentage = 0.6
					has_estate_privilege = estate_nobles_land_rights
				}
			}
		}
		modifier = {
			factor = 0
			NOT = { governing_capacity_percentage = 0.5 }
		}
		modifier = {
			factor = 0.8
			OR = {
				NOT = { crown_land_share = 40 }
				AND = {
					is_absolutism_active = yes
					NOT = { crown_land_share = 60 }
				}
			}
			NOT = { has_estate_privilege = estate_nobles_land_rights }
		}
		modifier = {
			factor = 0.8
			OR = {
				NOT = { crown_land_share = 30 }
				AND = {
					is_absolutism_active = yes
					NOT = { crown_land_share = 50 }
				}
			}
			NOT = { has_estate_privilege = estate_nobles_land_rights }
		}
		modifier = {
			factor = 0.8
			is_absolutism_active = yes
		}
		modifier = {
			factor = 2
			governing_capacity_percentage = 0.9
		}
		modifier = {
			factor = 3
			governing_capacity_percentage = 1
		}
		modifier = {
			factor = 10
			governing_capacity_percentage = 1.2
		}
		modifier = {
			factor = 8
			NOT = { adm_tech = 12 }
			governing_capacity_percentage = 0.8
		}
		modifier = {
			factor = 5
			NOT = { adm_tech = 12 }
			NOT = { government_rank = 1 }
			governing_capacity_percentage = 0.65
		}
		#Anbennar
		#Tag specific convincement - after tech 17 (+250 governing capacity) it should not play a role anymore
		# modifier = {
			# factor = 1.25
			# tag = MOS
			# NOT = { adm_tech = 17 }
		# }
		# modifier = {
			# factor = 1.25
			# tag = RUS
			# NOT = { adm_tech = 17 }
		# }
		# modifier = {
			# factor = 1.25
			# tag = TUR
			# NOT = { adm_tech = 17 }
		# }
		# modifier = {
			# factor = 1.25
			# tag = MNG
			# NOT = { adm_tech = 17 }
		# }
		# modifier = {
			# factor = 1.25
			# tag = FRA
			# NOT = { adm_tech = 17 }
		# }
		# modifier = {
			# factor = 1.25
			# tag = SPA
			# NOT = { adm_tech = 17 }
		# }
		# modifier = {
			# factor = 1.25
			# tag = PLC
			# NOT = { adm_tech = 17 }
		# }
		#Has already a similar privilege active
		modifier = {
			factor = 0.75
			has_estate_privilege = estate_brahmins_land_rights
		}
		modifier = {
			factor = 0.75
			has_estate_privilege = estate_church_land_rights
		}
		modifier = {
			factor = 0.75
			has_estate_privilege = estate_maratha_land_rights
		}
		modifier = {
			factor = 0.75
			has_estate_privilege = estate_burghers_land_rights
		}
		modifier = {
			factor = 0.75
			has_estate_privilege = estate_vaisyas_land_rights
		}
		modifier = {
			factor = 0.75
			has_estate_privilege = estate_cossacks_land_rights
		}
		modifier = {
			factor = 0.75
			has_estate_privilege = estate_nomadic_tribes_land_rights
		}
		modifier = {
			factor = 0.75
			has_estate_privilege = estate_dhimmi_land_rights
		}
		modifier = {
			factor = 0.75
			has_estate_privilege = estate_jains_land_rights
		}
		modifier = {
			factor = 0.75
			has_estate_privilege = estate_rajput_land_rights
		}
		#Anbennar ones
		modifier = {
			factor = 0.75
			has_estate_privilege = estate_adventurers_ennoblement_of_adventurers
		}
		modifier = {
			factor = 0.75
			has_estate_privilege = estate_monstrous_tribes_land_rights
		}
		modifier = {
			factor = 0.75
			has_estate_privilege = estate_raj_ministries_land_rights
		}
	}
}

estate_nobles_nobility_primacy = {
	icon = privilege_military_power
	land_share = 10
	max_absolutism = -5
	conditional_modifier = { trigger = { has_absolutism_reduction_for_estate_privileges = yes } modifier = { max_absolutism = 1 } }
	loyalty = -0.05
	is_valid = {
		NOT = { has_country_flag = active_dragon }
	}
	can_select = {
		can_select_monarch_power_privilege = {
			estate = estate_nobles
			type = mil
		}
	}
	on_granted = {
	}
	penalties = {
	}
	benefits = {
		country_military_power = 1
	}
	conditional_modifier = {
		trigger = { has_government_mechanic = russian_modernization_mechanic }
		modifier = { monthly_russian_modernization = -0.05 }
	}
	#conditional_modifier = {
	#	trigger = { has_government_mechanic = ottoman_decadence_mechanic }
	#	modifier = { monthly_ottoman_decadence = 0.02 }
	#}
	ai_will_do = {
		factor = 100
		modifier = {
			factor = 0
			OR = {
				NOT = { crown_land_share = 30 }
				estate_influence = {
					estate = estate_nobles
					influence = 95
				}
			}
			NOT = { has_estate_privilege = estate_nobles_nobility_primacy }
		}
		modifier = {
			factor = 0.8
			OR = {
				NOT = { crown_land_share = 35 }
				AND = {
					is_absolutism_active = yes
					NOT = { crown_land_share = 55 }
				}
			}
			NOT = { has_estate_privilege = estate_nobles_nobility_primacy }
		}
		modifier = {
			factor = 0.8
			is_absolutism_active = yes
		}
		modifier = {
			factor = 1.25
			NOT = { mil = 2 }
		}
		# modifier = {
			# factor = 1000
			# has_mission = kon_reform_army
			# NOT = { mission_completed = kon_reform_army }
		# }
	}
}

estate_nobles_officer_corp = {
	icon = privilege_promote_purbias
	max_absolutism = -5
	conditional_modifier = { trigger = { has_absolutism_reduction_for_estate_privileges = yes } modifier = { max_absolutism = 1 } }
	influence = 0.05
	is_valid = {
		NOT = { has_country_flag = no_noble_military } # Anbennar
		NOT = { has_country_flag = active_sword }
		NOT = { 
			has_estate_privilege = estate_eunuchs_anb_generals # Anbennar
			has_estate_privilege = estate_uppercastes_officer_corp # Anbennar
			has_estate_privilege = estate_nomadic_tribes_guaranteed_leadgership_in_host
			has_estate_privilege = estate_nobles_jiangdu_officer_corp # Anbennar
			has_estate_privilege = estate_lion_command_ninyu_kikun_officers
			has_estate_privilege = estate_artificers_artificer_generals
			has_estate_privilege = estate_nobles_sunijalla_triunic_nobles 
		}
	}
	can_select = {
		army_tradition = 30
		NOT = { 
			has_estate_privilege = estate_eunuchs_anb_generals # Anbennar
			has_estate_privilege = estate_uppercastes_officer_corp # Anbennar
			has_estate_privilege = estate_nomadic_tribes_guaranteed_leadgership_in_host
			has_estate_privilege = estate_nobles_jiangdu_officer_corp # Anbennar
			has_estate_privilege = estate_lion_command_ninyu_kikun_officers
			has_estate_privilege = estate_artificers_artificer_generals
		}
	}
	on_granted = {
		add_army_tradition = -5
	}
	penalties = {
	}
	benefits = {
		general_cost = -0.1
		army_tradition_decay = -0.005
	}
	conditional_modifier = {
		trigger = { has_government_mechanic = russian_modernization_mechanic }
		modifier = { monthly_russian_modernization = -0.05 }
	}
	#conditional_modifier = {
	#	trigger = { has_government_mechanic = ottoman_decadence_mechanic }
	#	modifier = { monthly_ottoman_decadence = 0.02 }
	#}
	ai_will_do = {
		factor = 0
	}
}

estate_nobles_levies = {
	icon = privilege_demand_more_troops
	max_absolutism = -5
	conditional_modifier = { trigger = { has_absolutism_reduction_for_estate_privileges = yes NOT = { has_government_attribute = free_noble_levies } } modifier = { max_absolutism = 1 } }
	influence = 0.1
	loyalty = 0.1
	is_valid = {
		NOT = { has_estate_privilege = estate_nobles_golden_liberty }
		NOT = { has_estate_privilege = estate_nobles_orldhum_platinum_liberty } #Anbennar
		NOT = { has_estate_privilege = estate_nobles_orldhum_platinum_control } #Anbennar
		NOT = { tag = I08 } #Anbennar
	}
	can_select = {
		NOT = { has_estate_privilege = estate_nobles_golden_liberty }
		NOT = { has_estate_privilege = estate_nobles_orldhum_platinum_liberty } #Anbennar
		NOT = { has_estate_privilege = estate_nobles_orldhum_platinum_control } #Anbennar
		if = {
			limit = {
				has_estate = estate_maratha
			}
			NOT = { has_estate_privilege = estate_maratha_levies }
		}
		if = {
			limit = {
				has_estate = estate_maratha
			}
			NOT = { has_estate_privilege = estate_maratha_levies_for_muslims }
		}
	}
	can_revoke = { #Anbennar
		if = {
			limit = { has_ruler_modifier = G52_destiny }
			NOT = { has_ruler_modifier = G52_destiny }
		}
		else_if = {
			limit = { has_country_modifier = G52_laskaris_legacy }
			NOT = { has_country_modifier = G52_laskaris_legacy }
		}
	}
	modifier_by_land_ownership = {
		global_tax_modifier = -0.10
		global_manpower_modifier = 0.5
	}
	penalties = {
	}
	mechanics = {
		exempt_from_seize_land
	}
	conditional_modifier = {
		trigger = {
			has_government_attribute = free_noble_levies
		}
		modifier = {
			max_absolutism = 5
			nobles_influence_modifier = -0.1
		}
	}
	conditional_modifier = {
		trigger = { has_government_mechanic = russian_modernization_mechanic }
		modifier = { monthly_russian_modernization = -0.05 }
	}
	#conditional_modifier = {
	#	trigger = { has_government_mechanic = ottoman_decadence_mechanic }
	#	modifier = { monthly_ottoman_decadence = 0.02 }
	#}
	ai_will_do = {
		factor = 5
		modifier = {
			factor = 1.5
			any_rival_country = {
				army_strength = {
					who = root
					value = 1.5
				}
			}
		}
		modifier = {
			factor = 1.5
			has_idea_group = quantity_ideas
		}
		modifier = {
			factor = 0.5
			max_manpower = 200
		}
		modifier = {
			factor = 0.75
			NOT = {
				estate_territory = {
					estate = estate_nobles
					territory = 15
				}
			}
		}
		modifier = {
			factor = 0.75
			NOT = {
				estate_territory = {
					estate = estate_nobles
					territory = 10
				}
			}
		}
		modifier = {
			factor = 0.75
			NOT = {
				estate_territory = {
					estate = estate_nobles
					territory = 5
				}
			}
		}
		modifier = {
			factor = 0.5
			NOT = { current_income_balance = 5 }
		}
		modifier = {
			factor = 0.5
			NOT = { current_income_balance = 0 }
		}
		modifier = {
			factor = 0.5
			is_absolutism_active = yes
		}
	}
}

estate_nobles_advisors = {
	icon = privilege_recruit_minister
	max_absolutism = -5
	conditional_modifier = { trigger = { has_absolutism_reduction_for_estate_privileges = yes } modifier = { max_absolutism = 1 } }
	influence = 0.05
	loyalty = 0.05
	penalties = {
		stability_cost_modifier = 0.1
	}
	is_valid = {
		NOT = { has_country_flag = active_reliquary }
	}
	can_select = { 
		NOT = { has_estate_privilege = estate_maratha_advisor }
		NOT = { has_estate_privilege = estate_rajput_advisor }
		NOT = { has_estate_privilege = estate_eunuchs_anb_advisors }	#Anbennar
	}
	benefits = {
		mil_advisor_cost = -0.15
	}
	conditional_modifier = {
		trigger = { has_government_mechanic = russian_modernization_mechanic }
		modifier = { monthly_russian_modernization = -0.05 }
	}
	#conditional_modifier = {
	#	trigger = { has_government_mechanic = ottoman_decadence_mechanic }
	#	modifier = { monthly_ottoman_decadence = 0.02 }
	#}
	ai_will_do = {
		factor = 9
		modifier = {
			factor = 0.5
			is_absolutism_active = yes
		}
		modifier = {
			factor = 3
			uses_meritocracy = yes
		}
	}
}

estate_nobles_right_of_counsel = {
	icon = privilege_royal_authority
	max_absolutism = -10
	conditional_modifier = { trigger = { has_absolutism_reduction_for_estate_privileges = yes } modifier = { max_absolutism = 2 } }
	loyalty = 0.1
	influence = 0.1
	is_valid = {
		NOT = { has_country_flag = active_chain }
	}
	penalties = {
	}
	benefits = {
	}
	conditional_modifier = {
		trigger = { has_government_mechanic = russian_modernization_mechanic }
		modifier = { monthly_russian_modernization = -0.05 }
	}
	#conditional_modifier = {
	#	trigger = { has_government_mechanic = ottoman_decadence_mechanic }
	#	modifier = { monthly_ottoman_decadence = 0.02 }
	#}
	ai_will_do = {
		factor = 10
		modifier = {
			factor = 0
			is_absolutism_active = yes
		}
	}
}

# estate_nobles_french_strong_duchies = {
	# icon = privilege_french_strong_duchies
	# max_absolutism = -10
	# conditional_modifier = { trigger = { has_absolutism_reduction_for_estate_privileges = yes } modifier = { max_absolutism = 2 } }
	# loyalty = 0.1
	# influence = 0.1
	# is_valid = {
		# OR = {
			# has_estate_privilege = estate_nobles_french_strong_duchies
			# AND = {
				# tag = FRA
				# NOT = { has_estate_privilege = estate_nobles_strong_duchies }
			# }
		# }
		# any_subject_country = {
			# OR = {
				# is_subject_of_type = appanage
				# is_subject_of_type = vassal
				# is_subject_of_type = march
				# is_subject_of_type = client_march
				# is_subject_of_type = client_vassal
				# is_subject_of_type = personal_union
			# }
			# capital_scope = { region = france_region }
			# culture_group = french
		# }
	# }
	# can_select = {
		# custom_trigger_tooltip = {
			# tooltip = estate_nobles_strong_duchies_trigger_tooltip
			# calc_true_if = {
				# amount = 2
				# all_subject_country = {
					# OR = {
						# is_subject_of_type = appanage
						# is_subject_of_type = vassal
						# is_subject_of_type = march
						# is_subject_of_type = client_march
						# is_subject_of_type = client_vassal
						# is_subject_of_type = personal_union
					# }
				# }
			# }
		# }
		# NOT = { has_estate_privilege = estate_eunuchs_delegate_subject_diplomacy_privilege }
	# }
	# penalties = {
	# }
	# benefits = {
		# diplomatic_upkeep = 3
		# reduced_liberty_desire_on_same_continent = 10
	# }
	# conditional_modifier = {
		# trigger = { has_government_attribute = buffed_strong_duchies }
		# modifier = {
			# nobles_loyalty_modifier = 0.05
		# }
	# }
	# ai_will_do = {
		# factor = 2
		# modifier = {
			# factor = 3
			# calc_true_if = {
				# amount = 1
				# all_subject_country = {
					# OR = {
						# is_march = yes
						# is_vassal = yes
					# }
				# }
			# }
		# }
		# modifier = {
			# factor = 2
			# calc_true_if = {
				# amount = 2
				# all_subject_country = {
					# OR = {
						# is_march = yes
						# is_vassal = yes
					# }
				# }
			# }
		# }
	# }
# }


#DLC Privileges

estate_nobles_supremacy_over_crown = {
	icon = privilege_empty_throne
	max_absolutism = -5
	conditional_modifier = { trigger = { has_absolutism_reduction_for_estate_privileges = yes } modifier = { max_absolutism = 1 } }
	influence = 0.1
	loyalty = 0.1
	is_valid = {
		has_dlc = "Emperor"
		NOT = { has_government_attribute = blocked_call_diet }
	}
	can_select = { 
		NOT = { has_estate_privilege = estate_eunuchs_supremacy_over_crown_privilege }
		NOT = {
			has_country_flag = vf_lownobles_flg
		}
	}
	penalties = {
	}
	benefits = {
		burghers_loyalty_modifier = 0.1
		church_loyalty_modifier = 0.1
		#dhimmi_loyalty_modifier = 0.1
		cossacks_loyalty_modifier = 0.1
		#rajput_loyalty_modifier = 0.1
		#brahmins_hindu_loyalty_modifier = 0.1
		#brahmins_muslim_loyalty_modifier = 0.1
		#brahmins_other_loyalty_modifier = 0.1
		#maratha_loyalty_modifier = 0.1
		#jains_loyalty_modifier = 0.1
		#vaisyas_loyalty_modifier = 0.1
		nomadic_tribes_loyalty_modifier = 0.1
		#janissaries_loyalty_modifier = 0.1
		#eunuchs_loyalty_modifier = 0.1
		#qizilbash_loyalty_modifier = 0.1
		#ghulams_loyalty_modifier = 0.1
		burghers_influence_modifier = 0.1
		church_influence_modifier = 0.1
		#dhimmi_influence_modifier = 0.1
		cossacks_influence_modifier = 0.1
		#rajput_influence_modifier = 0.1
		#brahmins_hindu_influence_modifier = 0.1
		#brahmins_muslim_influence_modifier = 0.1
		#brahmins_other_influence_modifier = 0.1
		#maratha_influence_modifier = 0.1
		#jains_influence_modifier = 0.1
		#vaisyas_influence_modifier = 0.1
		nomadic_tribes_influence_modifier = 0.1
		#janissaries_influence_modifier = 0.1

		#Anbennar
		mages_loyalty_modifier = 0.1
		mages_influence_modifier = 0.1
		adventurers_loyalty_modifier = 0.1
		adventurers_influence_modifier = 0.1
		artificers_loyalty_modifier = 0.1
		artificers_influence_modifier = 0.1
		monstrous_tribes_loyalty_modifier = 0.1
		monstrous_tribes_influence_modifier = 0.1
		raj_ministries_loyalty_modifier = 0.1
		raj_ministries_influence_modifier = 0.1
		castonath_patricians_loyalty_modifier = 0.1
		castonath_patricians_influence_modifier = 0.1
		eunuchs_anb_loyalty_modifier = 0.1
		eunuchs_anb_influence_modifier = 0.1
	}
	mechanics = {
		can_give_agendas_without_interaction
	}
	conditional_modifier = {
		trigger = { has_government_mechanic = russian_modernization_mechanic }
		modifier = { monthly_russian_modernization = -0.05 }
	}
	#conditional_modifier = {
	#	trigger = { has_government_mechanic = ottoman_decadence_mechanic }
	#	modifier = { monthly_ottoman_decadence = 0.02 }
	#}
	ai_will_do = {
		factor = 10
	}
}

estate_nobles_monopoly_of_metals = {
	icon = privilege_monopoly_of_goods_iron
	max_absolutism = -10
	conditional_modifier = { trigger = { has_absolutism_reduction_for_estate_privileges = yes } modifier = { max_absolutism = 2 } }
	loyalty = 0.05
	is_valid = {
		OR = {
			has_dlc = "Emperor"
			has_country_flag = buffed_monopolies
		}
		any_owned_province = {
			OR = {
				trade_goods = iron
				trade_goods = copper
				trade_goods = mithril
			}
		}
	}
	can_select = {
		custom_trigger_tooltip = {
			tooltip = unavailable_during_revolution_disaster
			NOT = { has_disaster = revolution }
			NOT = {
				has_disaster_progress = {
					disaster = revolution
					value = 1
				}
			}
			tooltip = JY_LF_not_trading #Anbennar
			NOT = { has_country_modifier = JY_LF_recent_trade }
			# NOT = { has_disaster = french_revolution }
			# NOT = {
				# has_disaster_progress = {
					# disaster = french_revolution
					# value = 1
				# }
			# }
		}
	}
	on_granted = {
		if = {
			limit = {
				OR = {
					iron = 1
					copper = 1
					mithril = 1
				}
			}
			add_mercantilism = 1
		}
		add_years_of_owned_provinces_production_income = {
			years = 8
			trigger = {
				OR = {
					trade_goods = iron
					trade_goods = copper
					trade_goods = mithril
				}
			}
			custom_tooltip = MONOPOLY_INCOME_IRON_AND_COPPER_DESC
		}
		custom_tooltip = estate_nobles_monopoly_of_metals_effect_tooltip
	}
	on_granted_province = {
		if = {
			limit = {
				OR = {
					trade_goods = iron
					trade_goods = copper
					trade_goods = mithril
				}
			}
			add_province_modifier = {
				name = estate_nobles_monopoly_of_metals_mod
				duration = -1
			}
		}
		else_if = {
			limit = {
				has_province_modifier = estate_nobles_monopoly_of_metals_mod
			}
			remove_province_modifier = estate_nobles_monopoly_of_metals_mod
		}
	}
	on_revoked = {
		custom_tooltip = estate_nobles_monopoly_of_metals_revoke_tooltip
	}
	on_revoked_province = {
		if = {
			limit = {
				has_province_modifier = estate_nobles_monopoly_of_metals_mod
			}
			remove_province_modifier = estate_nobles_monopoly_of_metals_mod
		}
	}
	on_invalid = {
		custom_tooltip = estate_nobles_monopoly_of_metals_revoke_tooltip
	}
	on_invalid_province = {
		if = {
			limit = {
				has_province_modifier = estate_nobles_monopoly_of_metals_mod
			}
			remove_province_modifier = estate_nobles_monopoly_of_metals_mod
		}
	}
	penalties = {
	}
	benefits = {
	}

	cooldown_years = 10
	conditional_modifier = {
		trigger = {
			has_country_flag = buffed_monopolies
		}
		modifier = {
			max_absolutism = 10
			nobles_privilege_slots = 1
		}
	}
	on_cooldown_expires = {
		country_event = { id = monopoly_privileges.5 }
	}
	ai_will_do = {
		factor = 0
	}
}

estate_nobles_monopoly_of_livestock = {
	icon = privilege_monopoly_of_goods_livestock
	max_absolutism = -10
	conditional_modifier = { trigger = { has_absolutism_reduction_for_estate_privileges = yes } modifier = { max_absolutism = 2 } }
	loyalty = 0.05
	is_valid = {
		OR = {
			has_dlc = "Emperor"
			has_country_flag = buffed_monopolies
		}
		any_owned_province = {
			trade_goods = livestock
		}
	}
	can_select = {
		custom_trigger_tooltip = {
			tooltip = unavailable_during_revolution_disaster
			NOT = { has_disaster = revolution }
			NOT = {
				has_disaster_progress = {
					disaster = revolution
					value = 1
				}
			}
			tooltip = JY_LF_not_trading #Anbennar
			NOT = { has_country_modifier = JY_LF_recent_trade }
			# NOT = { has_disaster = french_revolution }
			# NOT = {
				# has_disaster_progress = {
					# disaster = french_revolution
					# value = 1
				# }
			# }
		}
	}
	on_granted = {
		if = {
			limit = {
				livestock = 1
			}
			add_mercantilism = 1
		}
		add_years_of_owned_provinces_production_income = {
			years = 8
			trigger = {
				trade_goods = livestock
			}
			custom_tooltip = MONOPOLY_INCOME_LIVESTOCK_DESC
		}
		custom_tooltip = estate_nobles_monopoly_of_livestock_effect_tooltip
		if = {
			limit = {  
				has_country_flag = L08_monopoly_of_livestock_upgrade
			}
			capital_scope = {
				cavalry = ROOT
				cavalry = ROOT
				cavalry = ROOT
				cavalry = ROOT
				cavalry = ROOT
			}
		}
	}
	on_granted_province = {
		if = {
			limit = {
				trade_goods = livestock
			}
			add_province_modifier = {
				name = estate_nobles_monopoly_of_livestock_mod
				duration = -1
			}
		}
		else_if = {
			limit = {
				has_province_modifier = estate_nobles_monopoly_of_livestock_mod
			}
			remove_province_modifier = estate_nobles_monopoly_of_livestock_mod
		}
	}
	on_revoked = {
		custom_tooltip = estate_nobles_monopoly_of_livestock_revoke_tooltip
	}
	on_revoked_province = {
		if = {
			limit = {
				has_province_modifier = estate_nobles_monopoly_of_livestock_mod
			}
			remove_province_modifier = estate_nobles_monopoly_of_livestock_mod
		}
	}
	on_invalid = {
		custom_tooltip = estate_nobles_monopoly_of_livestock_revoke_tooltip
	}
	on_invalid_province = {
		if = {
			limit = {
				has_province_modifier = estate_nobles_monopoly_of_livestock_mod
			}
			remove_province_modifier = estate_nobles_monopoly_of_livestock_mod
		}
	}
	penalties = {
	}
	benefits = {
	}
	cooldown_years = 10
	conditional_modifier = {
		trigger = {
			has_country_flag = buffed_monopolies
		}
		modifier = {
			max_absolutism = 10
			nobles_privilege_slots = 1
		}
	}
	conditional_modifier = {
		trigger = {
			has_country_flag = L08_monopoly_of_livestock_upgrade
			has_country_flag = L08_cav_cost
		}
		modifier = {
			cavalry_power = 0.1
			cavalry_cost = -0.15
		}
	}
	conditional_modifier = {
		trigger = {
			has_country_flag = L08_monopoly_of_livestock_upgrade
			has_country_flag = L08_land_attrition
		}
		modifier = {
			cavalry_power = 0.1
			land_attrition = -0.1
		}
	}
	conditional_modifier = {
		trigger = {
			has_country_flag = L08_livestock_construction_cost
		}

		modifier = {
			build_cost = -0.1
		}
	}
	on_cooldown_expires = {
		country_event = { id = monopoly_privileges.6 }
	}
	ai_will_do = {
		factor = 0
	}
}

estate_nobles_monopoly_of_gems = {
	icon = privilege_monopoly_of_goods_gems
	max_absolutism = -10
	conditional_modifier = { trigger = { has_absolutism_reduction_for_estate_privileges = yes } modifier = { max_absolutism = 2 } }
	loyalty = 0.05
	is_valid = {
		OR = {
			has_dlc = "Emperor"
			has_country_flag = buffed_monopolies
		}
		any_owned_province = {
			trade_goods = gems
		}
	}
	can_select = {
		custom_trigger_tooltip = {
			tooltip = unavailable_during_revolution_disaster
			NOT = { has_disaster = revolution }
			NOT = {
				has_disaster_progress = {
					disaster = revolution
					value = 1
				}
			}
			tooltip = JY_LF_not_trading #Anbennar
			NOT = { has_country_modifier = JY_LF_recent_trade }
			# NOT = { has_disaster = french_revolution }
			# NOT = {
				# has_disaster_progress = {
					# disaster = french_revolution
					# value = 1
				# }
			# }
		}
	}
	on_granted = {
		if = {
			limit = {
				gems = 1
			}
			add_mercantilism = 1
		}
		add_years_of_owned_provinces_production_income = {
			years = 8
			trigger = {
				trade_goods = gems
			}
			custom_tooltip = MONOPOLY_INCOME_GEMS_DESC
		}
		custom_tooltip = estate_nobles_monopoly_of_gems_effect_tooltip
	}
	on_granted_province = {
		if = {
			limit = {
				trade_goods = gems
			}
			add_province_modifier = {
				name = estate_nobles_monopoly_of_gems_mod
				duration = -1
			}
		}
		else_if = {
			limit = {
				has_province_modifier = estate_nobles_monopoly_of_gems_mod
			}
			remove_province_modifier = estate_nobles_monopoly_of_gems_mod
		}
	}
	on_revoked = {
		custom_tooltip = estate_nobles_monopoly_of_gems_revoke_tooltip
	}
	on_revoked_province = {
		if = {
			limit = {
				has_province_modifier = estate_nobles_monopoly_of_gems_mod
			}
			remove_province_modifier = estate_nobles_monopoly_of_gems_mod
		}
	}
	on_invalid = {
		custom_tooltip = estate_nobles_monopoly_of_gems_revoke_tooltip
	}
	on_invalid_province = {
		if = {
			limit = {
				has_province_modifier = estate_nobles_monopoly_of_gems_mod
			}
			remove_province_modifier = estate_nobles_monopoly_of_gems_mod
		}
	}
	penalties = {
	}
	benefits = {
	}

	cooldown_years = 10
	conditional_modifier = {
		trigger = {
			has_country_flag = buffed_monopolies
		}
		modifier = {
			max_absolutism = 10
			nobles_privilege_slots = 1
		}
	}
	on_cooldown_expires = {
		country_event = { id = monopoly_privileges.7 }
	}
	ai_will_do = {
		factor = 0
	}
}

# estate_nobles_junker_primacy = {
	# icon = privilege_royal_authority
	# max_absolutism = -5
	# conditional_modifier = { trigger = { has_absolutism_reduction_for_estate_privileges = yes } modifier = { max_absolutism = 1 } }
	# loyalty = 0.05
	# is_valid = {
		# has_dlc = "Emperor"
		# OR = {
			# has_reform = prussian_monarchy
			# has_reform = prussian_monarchy_base
			# has_reform = prussian_republic_reform
		# }
	# }
	# penalties = {
		# #all_power_cost = 0.05
	# }
	# benefits = {
		# monthly_militarized_society = 0.03
		# monthly_prussian_militarized_society_1 = 0.02
		# monthly_prussian_militarized_society_2 = 0.05
		# monthly_prussian_militarized_society_3 = 0.075
	# }
	# ai_will_do = {
		# factor = 1
		# modifier = {
			# factor = 10
			# has_dlc = "Rights of Man"
		# }
		# modifier = {
			# factor = 0.5
			# is_absolutism_active = yes
		# }
	# }
# }

estate_nobles_strong_duchies = {
	icon = privilege_royal_authority
	max_absolutism = -10
	conditional_modifier = { trigger = { has_absolutism_reduction_for_estate_privileges = yes } modifier = { max_absolutism = 2 } }
	influence = 0.1
	loyalty = 0.05
	check_valid_when_tag_switching = no
	is_valid = {
		NOT = { has_country_flag = estate_nobles_castanor_upgraded_strong_duchies_unlocked }
		NOT = { has_estate_privilege = estate_nobles_sunijalla_council_of_lords }
		any_subject_country = {
			OR = {
				is_subject_of_type = vassal
				is_subject_of_type = client_vassal
				is_subject_of_type = march
				is_subject_of_type = client_march
				is_subject_of_type = personal_union
				#Anbennar
				is_subject_of_type = autonomous_vassal
				is_subject_of_type = patronate
			}
		}
	}
	can_select = {
		is_emperor_of_china = no #Anbennar
		NOT = { has_country_modifier = ynn_diplo }
		NOT = { has_estate_privilege = estate_nobles_entrenched_lorentish_nobility }
		custom_trigger_tooltip = {
			tooltip = estate_nobles_strong_duchies_trigger_tooltip
			calc_true_if = {
				amount = 2
				all_subject_country = {
					OR = {
						is_subject_of_type = vassal
						is_subject_of_type = client_vassal
						is_subject_of_type = march
						is_subject_of_type = client_march
						is_subject_of_type = personal_union
						#Anbennar
						is_subject_of_type = autonomous_vassal
						is_subject_of_type = patronate
					}
				}
			}
		}
	}
	penalties = {
	}
	benefits = {
		diplomatic_upkeep = 2
		reduced_liberty_desire = 10
	}
	conditional_modifier = {
		trigger = { has_government_attribute = buffed_strong_duchies }
		modifier = {
			nobles_loyalty_modifier = 0.05
		}
	}
	ai_will_do = {
		factor = 2
		modifier = {
			factor = 3
			calc_true_if = {
				amount = 1
				all_subject_country = {
					OR = {
						is_march = yes
						is_vassal = yes
					}
				}
			}
		}
		modifier = {
			factor = 2
			calc_true_if = {
				amount = 2
				all_subject_country = {
					OR = {
						is_march = yes
						is_vassal = yes
					}
				}
			}
		}
	}
}

estate_nobles_golden_liberty = {
	icon = privilege_golden_liberty
	max_absolutism = -15
	conditional_modifier = { trigger = { has_absolutism_reduction_for_estate_privileges = yes } modifier = { max_absolutism = 3 } }
	influence = 0.1
	loyalty = 0.05
	is_valid = {
		OR = {
			has_estate_privilege = estate_nobles_golden_liberty #Poland starts with it
			has_reform = elective_monarchy
			has_reform = polish_elective_monarchy 
		}
	}
	can_revoke = {
		# if = {
			# limit = {
				# OR = {
					# tag = PLC
					# AND = {
						# tag = POL
						# NOT = { exists = PLC }
					# }
				# }
			# }
			# OR = {
				# AND = { 
					# NOT = { has_reform = polish_elective_monarchy } 
					# NOT = { has_reform = elective_monarchy }
				# }
				# has_reform = polish_autocratic_monarchy
				# mission_completed = plc_golden_liberty
				# absolutism = 70
				# AND = {
					# is_year = 1615
					# crown_land_share = 90
				# }
			# }
		# }
		stability = 3
		has_regency = no
	}
	on_revoked = {
		if = {
			limit = { has_estate = estate_nobles }
			add_stability = -3
		}
		# if = {
			# limit = {
				# OR = {
					# tag = PLC
					# AND = {
						# tag = POL
						# NOT = { exists = PLC }
					# }
				# }
			# }
			# if = {
				# limit = {
					# has_estate_privilege = estate_nobles_nieszawa_privileges
				# }
				# remove_estate_privilege = estate_nobles_nieszawa_privileges
			# }
			# if = {
				# limit = {
					# has_estate_privilege = estate_nobles_pacta_conventa
				# }
				# remove_estate_privilege = estate_nobles_pacta_conventa
			# }
			# if = {
				# limit = {
					# NOT = { has_country_flag = pol_zebrzydowski_rebellion_flag }
					# is_year = 1600
					# government = monarchy
				# }
				# set_country_flag = pol_pact_conventa_flag
			# }
		# }
		if = {
			limit = {
				OR = { 
					has_reform = elective_monarchy
					has_reform = polish_elective_monarchy
				}
				has_estate = estate_nobles
			}
			country_event = { id = estate_privileges_and_agendas_events.1 }
		}
	}
	penalties = {
	}
	benefits = {
		global_manpower_modifier = 0.33
	}
	mechanics = {
		exempt_from_seize_land
	}
	ai_will_do = {
		factor = 0
	}
}

estate_nobles_nieszawa_privileges = {
	icon = privilege_royal_authority
	max_absolutism = -5
	conditional_modifier = { trigger = { has_absolutism_reduction_for_estate_privileges = yes } modifier = { max_absolutism = 1 } }
	influence = 0.05
	loyalty = 0.05
	is_valid = {
		has_estate_privilege = estate_nobles_nieszawa_privileges #event privilege for Poland
	}
	can_revoke = {
		custom_trigger_tooltip = { #revoke Golden Liberty or do it via event
			tooltip = estate_privilege_cannot_be_revoked
			always = no
		}
	}
	penalties = {
		technology_cost = 0.05
	}
	benefits = {
		stability_cost_modifier = -0.2
	}
	ai_will_do = {
		factor = 0
	}
}

estate_nobles_pacta_conventa = {
	icon = privilege_royal_authority
	max_absolutism = -5
	conditional_modifier = { trigger = { has_absolutism_reduction_for_estate_privileges = yes } modifier = { max_absolutism = 1 } }
	influence = 0.05
	loyalty = 0.05
	is_valid = {
		has_estate_privilege = estate_nobles_pacta_conventa #event privilege for Poland
	}
	can_revoke = {
		custom_trigger_tooltip = { #revoke Golden Liberty or do it via event
			tooltip = estate_privilege_cannot_be_revoked
			always = no
		}
	}
	penalties = {
		war_exhaustion_cost = 0.5
		inflation_action_cost = 0.5
	}
	benefits = {
	}
	ai_will_do = {
		factor = 0
	}
}

estate_nobles_veto_heir_apparent = {
	icon = privilege_royal_authority
	max_absolutism = -5
	conditional_modifier = { trigger = { has_absolutism_reduction_for_estate_privileges = yes } modifier = { max_absolutism = 1 } }
	loyalty = -0.05
	is_valid = {
		has_dlc = "Emperor"
		OR = { 
			has_reform = polish_elective_monarchy
			has_reform = elective_monarchy
		}
	}
	penalties = {
	}
	benefits = {
		monthly_support_heir_gain = 0.33
	}
	ai_will_do = {
		factor = 0
	}
}

estate_nobles_statutory_rights = {
	icon = privilege_grant_autonomy
	max_absolutism = -5
	conditional_modifier = { trigger = { has_absolutism_reduction_for_estate_privileges = yes } modifier = { max_absolutism = 1 } }
	influence = 0.1
	is_valid = {
		has_estate_privilege = estate_nobles_statutory_rights
	}
	on_granted = {
		change_estate_land_share = {
			estate = all
			share = -30
		}
	}
	penalties = {
		min_autonomy = 25
	}
	benefits = {
	}
	conditional_modifier = {
		trigger = { has_government_mechanic = russian_modernization_mechanic }
		modifier = { monthly_russian_modernization = -0.05 }
	}
	#conditional_modifier = {
	#	trigger = { has_government_mechanic = ottoman_decadence_mechanic }
	#	modifier = { monthly_ottoman_decadence = 0.02 }
	#}
	ai_will_do = {
		factor = 0
	}

	cooldown_years = 20
}

estate_nobles_command_of_the_military = {
	icon = privilege_promote_purbias
	land_share = 10
	max_absolutism = -10
	conditional_modifier = { trigger = { has_absolutism_reduction_for_estate_privileges = yes } modifier = { max_absolutism = 2 } }
	influence = 0.3
	is_valid = {
		NOT = { has_country_flag = no_noble_military } # Anbennar
		NOT = { has_estate_privilege = estate_nobles_isagumze_kulugi_abe_generals }
		NOT = { has_country_flag = active_sword }
	}
	can_select = {
		NOT = {
			has_country_flag = vf_lownobles_flg
		}
		NOT = { has_estate_privilege = estate_nobles_isagumze_kulugi_abe_generals }
	}
	on_granted = {
		custom_tooltip = estate_nobles_command_of_the_military_tt
	}
	on_revoked = {
		custom_tooltip = estate_nobles_command_of_the_military_tt
	}
	penalties = {
		leader_cost = 0.2
	}
	benefits = {
		army_tradition = 1
	}
	ai_will_do = {
		factor = 0
	}
}

estate_nobles_better_integration = {
	icon = privilege_better_integration
	max_absolutism = -10
	conditional_modifier = { trigger = { has_absolutism_reduction_for_estate_privileges = yes } modifier = { max_absolutism = 2 } }
	influence = 0.05
	loyalty = 0
	check_valid_when_tag_switching = no
	is_valid = {
		any_subject_country = {
			OR = {
				is_subject_of_type = vassal
				is_subject_of_type = client_vassal
				is_subject_of_type = daimyo_vassal
				is_subject_of_type = personal_union
				is_subject_of_type = appanage
				AND = {
					is_subject_of_type = ynnic_iosahar
					ROOT = {
						NOT = {
							has_country_modifier = ynn_diplo
						}
					}
				}
			}
		}
	}
	can_select = {
	}
	on_granted = {
		disable_annexation_penalty = yes
	}
	on_revoked = {
		enable_annexation_penalty = yes
	}
	on_invalid = {
		enable_annexation_penalty = yes
	}
	penalties = {
		reduced_liberty_desire = -15
	}
	benefits = {
		diplomatic_annexation_cost = -0.05
	}
	cooldown_years = 10
	conditional_modifier = {
		trigger = { has_government_mechanic = russian_modernization_mechanic }
		modifier = { monthly_russian_modernization = -0.05 }
	}
	#conditional_modifier = {
	#	trigger = { has_government_mechanic = ottoman_decadence_mechanic }
	#	modifier = { monthly_ottoman_decadence = 0.02 }
	#}
	ai_will_do = {
		factor = 10
	}
}

estate_nobles_neighbor_raids = {
	icon = privilege_demand_more_troops
	max_absolutism = -10
	conditional_modifier = { trigger = { has_absolutism_reduction_for_estate_privileges = yes } modifier = { max_absolutism = 2 } }
	influence = 0.05
	loyalty = 0
	is_valid = {
		NOT = { has_country_modifier = the_abolish_slavery_act }
		has_dlc = "Origins"
		OR = {
			#Anbennar
			#technology_group = east_african
			#technology_group = central_african
			#technology_group = sub_saharan
			has_country_modifier = monstrous_nation
			has_reform = steppe_horde
			#has_reform = great_mongol_state_reform
		}
	}
	can_select = {
		NOT = { has_country_modifier = the_abolish_slavery_act }
	}
	on_granted = {
		enable_capital_slave_raid = yes
	}
	on_revoked = {
		disable_capital_slave_raid = yes
	}
	on_invalid = {
		disable_capital_slave_raid = yes
	}
	penalties = {
	}
	benefits = {
	}
	ai_will_do = {
		factor = 0
	}
}

#Mission tree rewards

estate_nobles_cawa_peace_keepers = {
	icon = privilege_cawa_peacekeeper
	max_absolutism = 0
	influence = 0
	loyalty = 0.05
	is_valid = {
		has_unlocked_estate_privilege = { estate_privilege = estate_nobles_cawa_peace_keepers }
	}
	can_select = {
		custom_trigger_tooltip = {
			tooltip = eth_estate_did_not_have_cawa_privilege_for_five_years
			OR = {
				NOT = { has_country_flag = picked_cawa_privilege }
				had_country_flag = {
					flag = picked_cawa_privilege
					days = 1825
				}
			}
		}
	}
	on_granted = {
		remove_estate_privilege = estate_nobles_cawa_offensive_fighters
		hidden_effect = {
			clr_country_flag = picked_cawa_privilege
			set_country_flag = picked_cawa_privilege
		}
		add_country_modifier = {
			name = estate_nobles_cawa_peace_keepers_modifier
			duration = -1
		}
	}
	on_revoked = {
		remove_country_modifier = estate_nobles_cawa_peace_keepers_modifier
	}
	on_invalid = {
		remove_country_modifier = estate_nobles_cawa_peace_keepers_modifier
	}
	penalties = {
	}
	benefits = {
		nobles_privilege_slots = 1
	}
	cooldown_years = 5
	ai_will_do = {
		factor = 4
		modifier = {
			factor = 0
			NOT = { num_of_cawa = 10 }
		}
		modifier = {
			factor = 2
			is_at_war = no
		}
		modifier = {
			factor = 2
			is_in_important_war = no
		}
		modifier = {
			factor = 4
			num_of_rebel_armies = 3
		}
		modifier = {
			factor = 4
			num_of_rebel_controlled_provinces = 3
		}
		modifier = {
			factor = 4
			NOT = { stability = 0 }
		}
		modifier = {
			factor = 0.5
			is_absolutism_active = yes
		}
	}
}

estate_nobles_cawa_offensive_fighters = {
	icon = privilege_cawa_offensive_fighters
	max_absolutism = 0
	influence = 0
	loyalty = 0.05
	is_valid = {
		has_unlocked_estate_privilege = { estate_privilege = estate_nobles_cawa_offensive_fighters }
	}
	can_select = {
		custom_trigger_tooltip = {
			tooltip = eth_estate_did_not_have_cawa_privilege_for_five_years
			OR = {
				NOT = { has_country_flag = picked_cawa_privilege }
				had_country_flag = {
					flag = picked_cawa_privilege
					days = 1825
				}
			}
		}
	}
	on_granted = {
		remove_estate_privilege = estate_nobles_cawa_peace_keepers
		hidden_effect = {
			clr_country_flag = picked_cawa_privilege
			set_country_flag = picked_cawa_privilege
		}
		add_country_modifier = {
			name = estate_nobles_cawa_offensive_fighters_modifier
			duration = -1
		}
	}
	on_revoked = {
		remove_country_modifier = estate_nobles_cawa_offensive_fighters_modifier
	}
	on_invalid = {
		remove_country_modifier = estate_nobles_cawa_offensive_fighters_modifier
	}
	penalties = {
	}
	benefits = {
		nobles_privilege_slots = 1
	}
	cooldown_years = 5
	ai_will_do = {
		factor = 4
		modifier = {
			factor = 0
			NOT = { num_of_cawa = 10 }
		}
		modifier = {
			factor = 5
			is_at_war = yes
		}
		modifier = {
			factor = 10
			is_in_important_war = yes
		}
		modifier = {
			factor = 0.5
			is_absolutism_active = yes
		}
	}
}

# estate_nobles_grant_power_to_the_bashorun = {
# 	icon = privilege_royal_authority
# 	max_absolutism = -15
# 	conditional_modifier = { trigger = { has_absolutism_reduction_for_estate_privileges = yes } modifier = { max_absolutism = 3 } }
# 	influence = 0.05
# 	loyalty = 0.1
# 	is_valid = {
# 		has_unlocked_estate_privilege = { estate_privilege = estate_nobles_grant_power_to_the_bashorun }
# 	}
# 	can_select = {
# 		custom_trigger_tooltip = {
# 			tooltip = can_not_have_tributaries
# 			NOT = { is_emperor_of_china = yes }
# 			NOT = { has_government_attribute = has_tributaries }
# 			NOT = { has_country_flag = can_create_tributaries_flag }
# 			NOT = { is_nomad = yes }
# 			NOT = { religion_group = eastern }
# 			NOT = { technology_group = chinese }
# 			NOT = { technology_group = polynesian_tech }
# 		}
# 	}
# 	on_granted = {
# 		enable_tributary_state_use_estate = yes
# 	}
# 	on_invalid = {
# 		disable_tributary_state_use_estate = yes
# 	}
# 	on_revoked = {
# 		disable_tributary_state_use_estate = yes
# 	}
# 	penalties = {
# 	}
# 	benefits = {
# 		stability_cost_modifier = -0.1
# 	}
# 	ai_will_do = {
# 		factor = 25
# 		modifier = {
# 			factor = 0
# 			is_absolutism_active = yes
# 		}
# 	}
# }

estate_nobles_carolean_march = {
	icon = privilege_carolean_march
	max_absolutism = 0
	influence = 0
	loyalty = 0.05
	is_valid = {
		has_unlocked_estate_privilege = { estate_privilege = estate_nobles_carolean_march }
	}
	can_select = {
		custom_trigger_tooltip = {
			tooltip = estate_did_not_have_carolean_privilege_for_five_years
			OR = {
				NOT = { has_country_flag = picked_carolean_privilege }
				had_country_flag = {
					flag = picked_carolean_privilege
					days = 1825
				}
			}
		}
		if = {
			limit = { has_dlc = "Cradle of Civilization" }
			army_professionalism = 0.4
		}
		army_tradition = 30
	}
	on_granted = {
		if = {
			limit = { has_estate_privilege = estate_nobles_carolean_charge }
			remove_estate_privilege = estate_nobles_carolean_charge
		}
		hidden_effect = {
			clr_country_flag = picked_carolean_privilege
			set_country_flag = picked_carolean_privilege
		}
		add_country_modifier = {
			name = estate_nobles_carolean_march_modifier
			duration = -1
		}
	}
	on_revoked = {
		remove_country_modifier = estate_nobles_carolean_march_modifier
	}
	on_invalid = {
		remove_country_modifier = estate_nobles_carolean_march_modifier
	}
	penalties = {
		amount_of_carolean = -0.1
	}
	benefits = {
		nobles_privilege_slots = 1
	}
	cooldown_years = 5
	ai_will_do = {
		factor = 4
		modifier = {
			factor = 0
			NOT = { num_of_carolean = 10 }
		}
	}
}

estate_nobles_carolean_charge = {
	icon = privilege_carolean_charge
	max_absolutism = 0
	influence = 0
	loyalty = 0.05
	is_valid = {
		has_unlocked_estate_privilege = { estate_privilege = estate_nobles_carolean_charge }
	}
	can_select = {
		custom_trigger_tooltip = {
			tooltip = estate_did_not_have_carolean_privilege_for_five_years
			OR = {
				NOT = { has_country_flag = picked_carolean_privilege }
				had_country_flag = {
					flag = picked_carolean_privilege
					days = 1825
				}
			}
		}
		if = {
			limit = { has_dlc = "Cradle of Civilization" }
			army_professionalism = 0.4
		}
		army_tradition = 30
	}
	on_granted = {
		if = {
			limit = { has_estate_privilege = estate_nobles_carolean_march }
			remove_estate_privilege = estate_nobles_carolean_march
		}
		hidden_effect = {
			clr_country_flag = picked_carolean_privilege
			set_country_flag = picked_carolean_privilege
		}
		add_country_modifier = {
			name = estate_nobles_carolean_charge_modifier
			duration = -1
		}
	}
	on_revoked = {
		remove_country_modifier = estate_nobles_carolean_charge_modifier
	}
	on_invalid = {
		remove_country_modifier = estate_nobles_carolean_charge_modifier
	}
	penalties = {
		amount_of_carolean = -0.1
	}
	benefits = {
		nobles_privilege_slots = 1
	}
	cooldown_years = 5
	ai_will_do = {
		factor = 4
		modifier = {
			factor = 0
			NOT = { num_of_carolean = 10 }
		}
	}
}

estate_nobles_leidang_conscription = {
	icon = privilege_sailors
	max_absolutism = -5
	conditional_modifier = { trigger = { has_absolutism_reduction_for_estate_privileges = yes } modifier = { max_absolutism = 1 } }
	influence = 0.05
	loyalty = 0.05
	is_valid = {
		has_unlocked_estate_privilege = { estate_privilege = estate_nobles_leidang_conscription }
	}
	can_select = {
		num_of_ports = 1
	}
	penalties = {
		manpower_recovery_speed = -0.1
	}
	benefits = {
		sailors_recovery_speed = 0.25
		allowed_marine_fraction = 0.5
		burghers_loyalty_modifier = 0.05
		burghers_influence_modifier = 0.05
		nobles_privilege_slots = 1
	}
	ai_will_do = {
		factor = 1
		modifier = {
			factor = 0
			is_absolutism_active = yes
		}
	}
}

estate_nobles_leidang_mass_conscription = {
	icon = privilege_marines
	max_absolutism = 0
	influence = 0
	loyalty = 0.05
	cooldown_years = 5
	is_valid = {
		has_unlocked_estate_privilege = { estate_privilege = estate_nobles_leidang_mass_conscription }
		OR = {
			has_dlc = "Rule Britannia"
			has_dlc = "Golden Century"
			has_dlc = "Lions of the North"
		}
	}
	can_select = {
		has_estate_privilege = estate_nobles_leidang_conscription
	}
	penalties = {
		
	}
	benefits = {
		nobles_privilege_slots = 1
		allowed_marine_fraction = 0.25
		global_sailors_modifier = 0.2
	}
	on_granted = {
		add_country_modifier = {
			name = estate_nobles_leidang_mass_conscription_mod
			duration = -1
		}
		if = {
			limit = {
				has_estate_privilege = estate_nobles_leidang_elite_conscription
			}
			remove_estate_privilege = estate_nobles_leidang_elite_conscription
		}
		else = {
			custom_tooltip = has_no_effects_on_granted
		}
	}
	on_invalid = {
		remove_country_modifier = estate_nobles_leidang_mass_conscription_mod
	}
	on_revoked = {
		remove_country_modifier = estate_nobles_leidang_mass_conscription_mod
	}
	ai_will_do = {
		factor = 0
	}
}
estate_nobles_leidang_elite_conscription = {
	icon = privilege_marines
	max_absolutism = 0
	influence = 0
	loyalty = 0.05
	cooldown_years = 5
	is_valid = {
		has_unlocked_estate_privilege = { estate_privilege = estate_nobles_leidang_elite_conscription }
		OR = {
			has_dlc = "Rule Britannia"
			has_dlc = "Golden Century"
			has_dlc = "Lions of the North"
		}
	}
	can_select = {
		has_estate_privilege = estate_nobles_leidang_conscription
	}
	penalties = {
		allowed_marine_fraction = -0.25
		global_sailors_modifier = -0.2
	}
	benefits = {
		nobles_privilege_slots = 1
	}
	on_granted = {
		add_country_modifier = {
			name = estate_nobles_leidang_elite_conscription_mod
			duration = -1
		}
		if = {
			limit = {
				has_estate_privilege = estate_nobles_leidang_mass_conscription
			}
			remove_estate_privilege = estate_nobles_leidang_mass_conscription
		}
	}
	on_invalid = {
		remove_country_modifier = estate_nobles_leidang_elite_conscription_mod
	}
	on_revoked = {
		remove_country_modifier = estate_nobles_leidang_elite_conscription_mod
	}
	ai_will_do = {
		factor = 0
	}
}

estate_nobles_religious_conscription = {
	icon = privilege_manpower_of_true_faith
	max_absolutism = -10
	conditional_modifier = { trigger = { has_absolutism_reduction_for_estate_privileges = yes } modifier = { max_absolutism = 2 } }
	loyalty = 0.05
	influence = 0.1
	is_valid = {
		has_unlocked_estate_privilege = { estate_privilege = estate_nobles_religious_conscription }
		has_estate = estate_church
	}
	can_select = {
		has_estate = estate_church
	}
	can_revoke = {
		estate_loyalty = {
			estate = estate_church
			higher_than_influence = yes
		}
	}
	on_granted = {
		custom_tooltip = estate_nobles_religious_conscription_effect_tooltip
		hidden_effect = {
			set_country_flag = gets_manpower_from_tax_buildings
		}
	}
	on_granted_province = {
		if = {
			limit = {
				religion = ROOT
			}
			if = {
				limit = { has_building = cathedral }
				add_province_modifier = {
					name = estate_nobles_religious_conscription_cathedral
					duration = -1
				}
			}
			else_if = {
				limit = { has_building = temple }
				add_province_modifier = {
					name = estate_nobles_religious_conscription_temple
					duration = -1
				}
			}
		}
		else_if = {
			limit = {
				OR = {
					has_province_modifier = estate_nobles_religious_conscription_cathedral
					has_province_modifier = estate_nobles_religious_conscription_temple
				}
			}
			remove_province_modifier = estate_nobles_religious_conscription_cathedral
			remove_province_modifier = estate_nobles_religious_conscription_temple
		}
	}
	on_revoked = {
		custom_tooltip = estate_nobles_religious_conscription_revoke_effect_tooltip
		hidden_effect = {
			clr_country_flag = gets_manpower_from_tax_buildings
		}
		add_estate_loyalty = {
			estate = estate_church
			loyalty = -20
		}
	}
	on_revoked_province = {
		if = {
			limit = {
				OR = {
					has_province_modifier = estate_nobles_religious_conscription_cathedral
					has_province_modifier = estate_nobles_religious_conscription_temple
				}
			}
			remove_province_modifier = estate_nobles_religious_conscription_cathedral
			remove_province_modifier = estate_nobles_religious_conscription_temple
		}
	}
	on_invalid = {
		custom_tooltip = estate_nobles_religious_conscription_revoke_effect_tooltip
		hidden_effect = {
			clr_country_flag = gets_manpower_from_tax_buildings
		}
	}
	on_invalid_province = {
		if = {
			limit = {
				OR = {
					has_province_modifier = estate_nobles_religious_conscription_cathedral
					has_province_modifier = estate_nobles_religious_conscription_temple
				}
			}
			remove_province_modifier = estate_nobles_religious_conscription_cathedral
			remove_province_modifier = estate_nobles_religious_conscription_temple
		}
	}
	penalties = {
	}
	benefits = {
		church_loyalty_modifier = 0.05
		church_influence_modifier = 0.15
	}
	ai_will_do = {
		factor = 10
	}
}

#Government reform specific
estate_nobles_decentralized_tribe = {
	icon = privilege_decentralized
	max_absolutism = -20
	conditional_modifier = { trigger = { has_absolutism_reduction_for_estate_privileges = yes } modifier = { max_absolutism = 4 } }
	influence = 0.1
	land_share = 5
	loyalty = 0.05
	is_valid = {
		has_government_attribute = has_internal_tribes
		NOT = { has_country_flag = centralized_tribes_level_2 }
	}
	can_select = {
		NOT = { has_estate_privilege = estate_nobles_tribe_unification }
		NOT = { has_estate_privilege = estate_nobles_tribe_centralization }
	}
	can_revoke = {
		custom_trigger_tooltip = {
			tooltip = estate_nobles_decentralized_tribe_tt
			has_country_flag = centralized_tribes_level_2
		}
	}
	modifier_by_land_ownership = {
		nobles_loyalty_modifier = 0.2
		land_forcelimit_modifier = 0.2
		manpower_recovery_speed = 0.15
		global_autonomy = 0.05
	}
	mechanics = {
		exempt_from_seize_land
	}
	on_granted = {
		add_estate_loyalty = {
			estate = estate_nobles
			loyalty = 5
		}
		hidden_effect = {
			set_country_flag = centralized_tribes_level_1
		}
	}
	ai_will_do = {
		factor = 0
	}
}

estate_nobles_tribe_unification = {
	icon = privilege_unifying
	max_absolutism = -10
	conditional_modifier = { trigger = { has_absolutism_reduction_for_estate_privileges = yes } modifier = { max_absolutism = 2 } }
	influence = 0.05
	loyalty = 0
	is_valid = {
		has_government_attribute = has_internal_tribes
		has_country_flag = centralized_tribes_level_1
	}
	can_select = {
		legitimacy = 90
		NOT = { num_of_rebel_controlled_provinces = 1 }
		NOT = { num_of_rebel_armies = 1 }
		estate_loyalty = {
			estate = estate_nobles
			loyalty = 70
		}
		stability = 2
	}
	modifier_by_land_ownership = {
		nobles_loyalty_modifier = 0.1
		land_forcelimit_modifier = 0.1
		manpower_recovery_speed = 0.075
		global_autonomy = 0.025
	}
	benefits = {
		legitimacy = 0.25
	}
	on_granted = {
		tooltip = {
			add_estate_loyalty = {
				estate = estate_nobles
				loyalty = -40
			}
			add_stability = -1
			remove_estate_privilege = estate_nobles_decentralized_tribe
		}
		hidden_effect = {
			set_country_flag = centralized_tribes_level_2
			# country_event = {
				# id = flavor_jol.100
			# }
		}
	}
	can_revoke = {
		custom_trigger_tooltip = {
			tooltip = estate_nobles_tribe_unification_tt
			has_estate_privilege = estate_nobles_tribe_centralization
		}
	}
	mechanics = {
		exempt_from_seize_land
	}
	ai_will_do = {
		factor = 1000
	}
}

estate_nobles_tribe_centralization = {
	icon = privilege_centralized
	max_absolutism = 0
	influence = 0
	loyalty = 0
	is_valid = {
		has_government_attribute = has_internal_tribes
		has_country_flag = centralized_tribes_level_2
	}
	can_select = {
		legitimacy = 90
		NOT = { num_of_rebel_controlled_provinces = 1 }
		NOT = { num_of_rebel_armies = 1 }
		estate_loyalty = {
			estate = estate_nobles
			loyalty = 80
		}
		stability = 2
	}
	on_granted = {
		tooltip = {
			add_stability = -2
			add_estate_loyalty = {
				estate = estate_nobles
				loyalty = -50
			}
			change_government = monarchy
			change_government_reform_progress = 100
			remove_estate_privilege = estate_nobles_tribe_unification
			remove_estate_privilege = estate_nobles_tribe_centralization
		}
		hidden_effect = {
			clr_country_flag = centralized_tribes_level_1
			clr_country_flag = centralized_tribes_level_2
			set_country_flag = centralized_tribes_level_3
			# country_event = {
				# id = flavor_jol.101
			# }
		}
	}
	ai_will_do = {
		factor = 1000
	}
}

#Norwegian starting privileges
estate_nobles_danish_nobility = {
	icon = privilege_autonomy
	max_absolutism = -25
	conditional_modifier = { trigger = { has_absolutism_reduction_for_estate_privileges = yes } modifier = { max_absolutism = 5 } }
	influence = 0.1
	land_share = 5
	loyalty = 0.05
	is_valid = {
		has_dlc = "Lions of the North"
		has_estate_privilege = estate_nobles_danish_nobility
	}
	can_revoke = {
		stability = 1
		NOT = { num_of_rebel_controlled_provinces = 1 }
		NOT = { num_of_rebel_armies = 1 }
	}
	on_revoked = {
		add_stability = -1
		random_owned_province = {
			spawn_rebels = {
				type = noble_rebels
				size = 2
			}
		}
	}
	penalties = {
		yearly_corruption = 0.03
	}
	modifier_by_land_ownership = {
		global_tax_modifier = -0.25
	}
	mechanics = {
		exempt_from_seize_land
	}
	on_granted = {
	}
	ai_will_do = {
		factor = -300
	}
}

estate_nobles_nobles_instead_of_royal_court = {
	icon = privilege_legitimacy
	max_absolutism = -25
	conditional_modifier = { trigger = { has_absolutism_reduction_for_estate_privileges = yes } modifier = { max_absolutism = 5 } }
	influence = 0.1
	land_share = 5
	loyalty = 0
	is_valid = {
		has_dlc = "Lions of the North"
		has_estate_privilege = estate_nobles_nobles_instead_of_royal_court
	}
	can_revoke = {
		stability = 1
		NOT = { num_of_rebel_controlled_provinces = 1 }
		NOT = { num_of_rebel_armies = 1 }
	}
	on_revoked = {
		add_stability = -1
		random_owned_province = {
			spawn_rebels = {
				type = noble_rebels
				size = 2
			}
		}
	}
	penalties = {
		legitimacy = -0.5
		monthly_heir_claim_increase = -0.33
		stability_cost_modifier = -0.1
	}
	mechanics = {
		exempt_from_seize_land
	}
	ai_will_do = {
		factor = -300
	}
}

#Poland Privileges 

# estate_nobles_sponsor_hussars = {
# 	icon = privilege_make_generous_donation
# 	max_absolutism = -15
# 	conditional_modifier = { trigger = { has_absolutism_reduction_for_estate_privileges = yes } modifier = { max_absolutism = 3 } }
# 	is_valid = {
# 		has_estate_privilege = estate_nobles_sponsor_hussars
# 	}
# 	influence = 0.05
# 	loyalty = -0.05
# 	benefits = { 
# 		amount_of_hussars = 6
# 	}
# 	penalties = {
# 	}
# 	cooldown_years = 50
# 	ai_will_do = {
# 		factor = 1
# 	}
# }

#Mansabdari Privileges
estate_nobles_mansabdari_cav_maintenance = {
	icon = privilege_raise_host
	is_valid = { has_government_attribute = enable_mansabdar_privileges }
	loyalty = 0
	influence = 0.05
	max_absolutism = -5
	conditional_modifier = { trigger = { has_absolutism_reduction_for_estate_privileges = yes } modifier = { max_absolutism = 1 } }
	benefits = {
		cav_to_inf_ratio = 0.25
	}
	loyalty_scaled_conditional_modifier = {
		trigger = {
			always = yes
		}
		modifier = {
			cavalry_cost = -0.5
		}
	}
	ai_will_do = {
		factor = 1
	}
}

estate_nobles_mansabdari_military_service = {
	icon = privilege_yearly_army_tradition
	is_valid = { has_government_attribute = enable_mansabdar_privileges }
	loyalty = 0
	influence = 0.05
	max_absolutism = -5
	conditional_modifier = { trigger = { has_absolutism_reduction_for_estate_privileges = yes } modifier = { max_absolutism = 1 } }
	benefits = {
		leader_land_manuever = 1
	}
	influence_scaled_conditional_modifier = {
		trigger = {
			always = yes
		}
		modifier = {
			army_tradition_decay = -0.01
		}
	}
	ai_will_do = {
		factor = 1
	}
}

estate_nobles_mansabdari_royal_rule = {
	icon = privilege_royal_rule
	is_valid = { has_government_attribute = enable_mansabdar_privileges }
	loyalty = -0.15
	influence = -0.3
	max_absolutism = 10
	penalties = {
		land_maintenance_modifier = 0.1
	}
	mechanics = {  }
	ai_will_do = {
		factor = 1
	}
}

#Boyars Privileges

estate_nobles_rynda = {
	icon = privilege_infantry
	is_valid = { has_government_attribute = unlock_boyars_military_privileges }
	loyalty = 0.05
	influence = 0.05
	max_absolutism = -5
	conditional_modifier = { trigger = { has_absolutism_reduction_for_estate_privileges = yes } modifier = { max_absolutism = 1 } }
	on_granted = {
		custom_tooltip = estate_nobles_rynda_at
		custom_tooltip = SCALES_WITH_LOYALTY_TT
	}
	loyalty_scaled_conditional_modifier = {
		trigger = { is_monarch_leader = yes }
		modifier = { infantry_power = 0.15 }
	}
	loyalty_scaled_conditional_modifier = {
		trigger = { is_monarch_leader = no }
		modifier = { infantry_cost = -0.2 }
	}
	mechanics = {  }
	ai_will_do = {
		factor = 1
	}
}

estate_nobles_landed_army = {
	icon = privilege_raise_host
	is_valid = { has_government_attribute = unlock_boyars_military_privileges }
	loyalty = 0.05
	influence = 0.05
	max_absolutism = -5
	conditional_modifier = { trigger = { has_absolutism_reduction_for_estate_privileges = yes } modifier = { max_absolutism = 1 } }
	benefits = {
		cav_to_inf_ratio = 0.25
		cavalry_cost = -0.1
	}
	on_granted = {
		custom_tooltip = estate_nobles_landed_army_tt
		custom_tooltip = SCALES_WITH_INFLUENCE_TT
	}
	influence_scaled_conditional_modifier = {
		trigger = { always = yes }
		modifier = { cavalry_power = 0.2 }
	}
	mechanics = {  }
	ai_will_do = {
		factor = 1
	}
}

#Russia Privileges
estate_nobles_mestnichestvo = {
	icon = privilege_investigate_corruption
	is_valid = {
		has_estate_privilege = estate_nobles_mestnichestvo
		OR = {
			ai = no
			NOT = { is_year = 1500 }
		}
	}
	loyalty = 0.05
	influence = 0.1
	max_absolutism = -10
	conditional_modifier = { trigger = { has_absolutism_reduction_for_estate_privileges = yes } modifier = { max_absolutism = 2 } }
	penalties = {
		reform_progress_growth = -0.33
	}
	can_revoke = {
		if = {
			limit = { OR = { ai = no was_player = yes } }
			stability = 1
			legitimacy = 90
		}
		else = {
			is_year = 1500
		}
	}
	on_revoked = {
		if = {
			limit = { OR = { ai = no was_player = yes } }
			add_stability = -1
			add_legitimacy = -15
			add_corruption = 2
		}
	}
	conditional_modifier = {
		trigger = {
			has_government_mechanic = russian_modernization_mechanic
		}
		modifier = {
			monthly_russian_modernization = -1
			russian_modernization_gain_modifier = -1
		}
		is_bad = yes
	}
	#modifier_by_land_ownership = {
	#	yearly_corruption = 0.4
	#}
	ai_will_do = {
		factor = -300
	}
}

# estate_nobles_early_serfdom = {
	# icon = privilege_serf
	# loyalty = 0.15
	# influence = 0.05
	# max_absolutism = 0
	# is_valid = {
		# has_dlc = "Domination"
		# OR = {
			# has_reform = principality
			# has_reform = veche_republic
			# has_reform = tsardom
			# has_reform = russian_empire_reform
			# has_reform = great_veche_republic
			# has_reform = great_russian_republic_reform
		# }
		# NOT = { has_country_flag = level_two_serfdom_privileges }
	# }
	# can_select = {
		# NOT = { has_estate_privilege = estate_nobles_increased_peasant_freedom }
	# }
	# can_revoke = {
		# custom_trigger_tooltip = {
			# tooltip = estate_privilege_cannot_be_revoked
			# always = no
		# }
	# }
	# on_granted = {
		# custom_tooltip = estate_privilege_cannot_be_revoked
		# # country_event = {
			# # id = flavor_rus.300
		# # }
		# set_country_flag = rus_enacted_early_serfdom_flag
		# set_country_flag = rus_peasant_fate
		# clr_country_flag = rus_enacted_early_disconnection_flag
	# }
	# on_invalid = {
		# # if = {
			# # limit = { is_revolutionary = yes }
			# # country_event = {
				# # id = flavor_rus.398
			# # }
		# # }
	# }
	# benefits = {
		# nobles_privilege_slots = 1
		# war_taxes_cost_modifier = -0.5
		# global_manpower_modifier = 0.1
		# global_unrest = -1
	# }
	# penalties = {
		# global_institution_spread = -0.2
		# monthly_russian_modernization = -0.5
	# }
	# conditional_modifier = {
		# trigger = { has_country_flag = rus_buffed_serfdom_privileges }
		# modifier = {
			# global_monthly_devastation = -0.05
		# }
	# }
	# ai_will_do = {
		# factor = 1
	# }
# }

# estate_nobles_legalized_serfdom = {
	# icon = privilege_serf
	# loyalty = 0.15
	# influence = 0.1
	# max_absolutism = 0
	# is_valid = {
		# has_dlc = "Domination"
		# OR = {
			# has_reform = principality
			# has_reform = veche_republic
			# has_reform = tsardom
			# has_reform = russian_empire_reform
			# has_reform = great_veche_republic
			# has_reform = great_russian_republic_reform
		# }
		# OR = {
			# has_estate_privilege = estate_nobles_legalized_serfdom
			# has_country_flag = level_two_serfdom_privileges
		# }
	# }
	# can_revoke = {
		# custom_trigger_tooltip = {
			# tooltip = estate_privilege_cannot_be_revoked
			# always = no
		# }
	# }
	# on_granted = {
		# custom_tooltip = estate_privilege_cannot_be_revoked
		# set_country_flag = rus_enacted_early_serfdom_flag
		# clr_country_flag = rus_enacted_early_disconnection_flag
	# }
	# on_invalid = {
		# # if = {
			# # limit = { is_revolutionary = yes }
			# # country_event = {
				# # id = flavor_rus.398
			# # }
		# # }
	# }
	# benefits = {
		# nobles_privilege_slots = 1
		# war_taxes_cost_modifier = -0.5
		# global_manpower_modifier = 0.2
	# }
	# penalties = {
		# global_institution_spread = -0.2
		# technology_cost = 0.05
		# idea_cost = 0.05
		# monthly_russian_modernization = -0.5
	# }
	# conditional_modifier = {
		# trigger = { has_country_flag = rus_buffed_serfdom_privileges }
		# modifier = {
			# global_monthly_devastation = -0.05
		# }
	# }
	# ai_will_do = {
		# factor = 1
	# }
# }

# estate_nobles_total_serfdom = {
	# icon = privilege_serf
	# loyalty = 0.15
	# influence = 0.1
	# max_absolutism = 0
	# is_valid = {
		# has_dlc = "Domination"
		# OR = {
			# has_reform = principality
			# has_reform = veche_republic
			# has_reform = tsardom
			# has_reform = russian_empire_reform
			# has_reform = great_veche_republic
			# has_reform = great_russian_republic_reform
		# }
		# OR = {
			# has_estate_privilege = estate_nobles_total_serfdom
			# has_country_flag = level_three_serfdom_privileges
		# }
	# }
	# can_revoke = {
		# custom_trigger_tooltip = {
			# tooltip = estate_privilege_cannot_be_revoked
			# always = no
		# }
	# }
	# on_granted = {
		# custom_tooltip = estate_privilege_cannot_be_revoked
		# set_country_flag = rus_enacted_early_serfdom_flag
		# clr_country_flag = rus_enacted_early_disconnection_flag
	# }
	# on_revoked = {
		# # if = {
			# # limit = { is_revolutionary = yes }
			# # country_event = {
				# # id = flavor_rus.398
			# # }
		# # }
	# }
	# benefits = {
		# nobles_privilege_slots = 1
		# war_taxes_cost_modifier = -1
		# global_manpower_modifier = 0.25
	# }
	# penalties = {
		# global_institution_spread = -0.2
		# technology_cost = 0.1
		# idea_cost = 0.1
		# monthly_russian_modernization = -1
	# }
	# conditional_modifier = {
		# trigger = { has_country_flag = rus_buffed_serfdom_privileges }
		# modifier = {
			# global_monthly_devastation = -0.05
		# }
	# }
	# ai_will_do = {
		# factor = 1
	# }
# }

# estate_nobles_restricted_serfdom = {
	# icon = privilege_serf
	# loyalty = 0.05
	# influence = 0.1
	# max_absolutism = 0
	# is_valid = {
		# has_dlc = "Domination"
		# OR = {
			# has_reform = principality
			# has_reform = veche_republic
			# has_reform = tsardom
			# has_reform = russian_empire_reform
			# has_reform = great_veche_republic
			# has_reform = great_russian_republic_reform
		# }
		# OR = {
			# has_estate_privilege = estate_nobles_total_serfdom
			# has_country_flag = final_serfdom_privileges
		# }
	# }
	# can_revoke = {
		# custom_trigger_tooltip = {
			# tooltip = estate_privilege_cannot_be_revoked
			# always = no
		# }
	# }
	# on_granted = {
		# custom_tooltip = estate_privilege_cannot_be_revoked
		# set_country_flag = rus_enacted_early_serfdom_flag
		# clr_country_flag = rus_enacted_early_disconnection_flag
	# }
	# on_revoked = {
		# # if = {
			# # limit = { is_revolutionary = yes }
			# # country_event = {
				# # id = flavor_rus.398
			# # }
		# # }
	# }
	# benefits = {
		# nobles_privilege_slots = 1
		# global_unrest = -1
		# global_manpower_modifier = 0.1
	# }
	# penalties = {
		# global_institution_spread = -0.2
		# technology_cost = 0.1
		# idea_cost = 0.1
		# monthly_russian_modernization = -0.25
	# }
	# conditional_modifier = {
		# trigger = { has_country_flag = rus_buffed_serfdom_privileges }
		# modifier = {
			# global_monthly_devastation = -0.05
		# }
	# }
	# ai_will_do = {
		# factor = 1
	# }
# }

# estate_nobles_devastating_serfdom = {
	# icon = privilege_serf
	# loyalty = 0.05
	# influence = 0.15
	# max_absolutism = 0
	# is_valid = {
		# has_dlc = "Domination"
		# OR = {
			# has_reform = principality
			# has_reform = veche_republic
			# has_reform = tsardom
			# has_reform = russian_empire_reform
			# has_reform = great_veche_republic
			# has_reform = great_russian_republic_reform
		# }
		# OR = {
			# has_estate_privilege = estate_nobles_total_serfdom
			# has_country_flag = final_serfdom_privileges
		# }
	# }
	# can_revoke = {
		# custom_trigger_tooltip = {
			# tooltip = estate_privilege_cannot_be_revoked
			# always = no
		# }
	# }
	# on_granted = {
		# custom_tooltip = estate_privilege_cannot_be_revoked
		# set_country_flag = rus_enacted_early_serfdom_flag
		# clr_country_flag = rus_enacted_early_disconnection_flag
	# }
	# on_revoked = {
		# # if = {
			# # limit = { is_revolutionary = yes }
			# # country_event = {
				# # id = flavor_rus.398
			# # }
		# # }
	# }
	# benefits = {
		# nobles_privilege_slots = 1
		# global_unrest = -2
		# global_manpower_modifier = 0.33
	# }
	# penalties = {
		# development_cost = 0.25
		# global_institution_spread = -0.5
		# technology_cost = 0.15
		# idea_cost = 0.15
		# monthly_russian_modernization = -1
	# }
	# conditional_modifier = {
		# trigger = { has_country_flag = rus_buffed_serfdom_privileges }
		# modifier = {
			# global_monthly_devastation = -0.05
		# }
	# }
	# ai_will_do = {
		# factor = 1
	# }
# }

# estate_nobles_increased_peasant_freedom = {
	# icon = privilege_peasant
	# loyalty = -0.1
	# influence = 0
	# max_absolutism = -5
	# conditional_modifier = { trigger = { has_absolutism_reduction_for_estate_privileges = yes } modifier = { max_absolutism = 1 } }
	# is_valid = {
		# has_dlc = "Domination"
		# OR = {
			# has_reform = principality
			# has_reform = veche_republic
			# has_reform = tsardom
			# has_reform = russian_empire_reform
			# has_reform = great_veche_republic
			# has_reform = great_russian_republic_reform
		# }
		# NOT = { has_country_flag = level_two_serfdom_privileges }
	# }
	# can_select = {
		# NOT = { has_estate_privilege = estate_nobles_early_serfdom }
	# }
	# can_revoke = {
		# custom_trigger_tooltip = {
			# tooltip = estate_privilege_cannot_be_revoked
			# always = no
		# }
	# }
	# on_granted = {
		# custom_tooltip = estate_privilege_cannot_be_revoked
		# # country_event = {
			# # id = flavor_rus.303
		# # }
		# set_country_flag = rus_enacted_early_disconnection_flag
		# set_country_flag = rus_peasant_fate
		# clr_country_flag = rus_enacted_early_serfdom_flag
	# }
	# on_invalid = {
		# # if = {
			# # limit = { is_revolutionary = yes }
			# # country_event = {
				# # id = flavor_rus.399
			# # }
		# # }
	# }
	# benefits = {
		# nobles_privilege_slots = 1
		# russian_modernization_gain_modifier = 0.1
		# global_institution_spread = 0.1
		# monthly_russian_modernization = 0.5
	# }
	# penalties = {
		# global_manpower_modifier = -0.2
	# }
	# conditional_modifier = {
		# trigger = { has_country_flag = rus_buffed_free_peasantry_privileges }
		# modifier = {
			# global_trade_power = 0.1
		# }
	# }
	# ai_will_do = {
		# factor = 1
	# }
# }

# estate_nobles_peasant_liberation = {
	# icon = privilege_peasant
	# loyalty = -0.15
	# influence = -0.05
	# max_absolutism = -5
	# conditional_modifier = { trigger = { has_absolutism_reduction_for_estate_privileges = yes } modifier = { max_absolutism = 1 } }
	# is_valid = {
		# has_dlc = "Domination"
		# OR = {
			# has_reform = principality
			# has_reform = veche_republic
			# has_reform = tsardom
			# has_reform = russian_empire_reform
			# has_reform = great_veche_republic
			# has_reform = great_russian_republic_reform
		# }
		# has_country_flag = level_two_serfdom_privileges
	# }
	# can_revoke = {
		# custom_trigger_tooltip = {
			# tooltip = estate_privilege_cannot_be_revoked
			# always = no
		# }
	# }
	# on_granted = {
		# custom_tooltip = estate_privilege_cannot_be_revoked
		# set_country_flag = rus_enacted_early_disconnection_flag
		# clr_country_flag = rus_enacted_early_serfdom_flag
	# }
	# on_invalid = {
		# # if = {
			# # limit = { is_revolutionary = yes }
			# # country_event = {
				# # id = flavor_rus.399
			# # }
		# # }
	# }
	# benefits = {
		# nobles_privilege_slots = 1
		# russian_modernization_gain_modifier = 0.1
		# global_institution_spread = 0.2
		# monthly_russian_modernization = 0.75
	# }
	# penalties = {
		# global_manpower_modifier = -0.2
	# }
	# conditional_modifier = {
		# trigger = { has_country_flag = rus_buffed_free_peasantry_privileges }
		# modifier = {
			# global_trade_power = 0.1
		# }
	# }
	# ai_will_do = {
		# factor = 1
	# }
# }

# estate_nobles_factionalist_nobility = {
	# icon = estate_nobles_factionalist_nobility
	# loyalty = -0.05
	# influence = 0.1
	# max_absolutism = -10
	# conditional_modifier = { trigger = { has_absolutism_reduction_for_estate_privileges = yes } modifier = { max_absolutism = 2 } }
	# is_valid = {
		# has_dlc = "Domination"
		# tag = CAS
	# }
	# can_revoke = {
		# crown_land_share = 50 
	# }
	# on_granted = {
		
	# }
	# on_revoked = {
		
	# }
	# benefits = {
		
	# }
	# penalties = {
		# legitimacy = -0.5
		# global_autonomy = 0.05
		
	# }
	# conditional_modifier = {
		# trigger = { 
			# has_country_flag = cas_royalist_flag
		# }
		# modifier = {
			# global_autonomy = -0.025
			# legitimacy = 0.25
			# nobles_loyalty_modifier = 0.05
		# }
	# }
	# conditional_modifier = {
		# trigger = { 
			# has_country_flag = cas_infantes_flag
		# }
		# modifier = {
			# reform_progress_growth = -0.1
		# }
	# }
	# ai_will_do = {
		# factor = 1
	# }#TODO
# }
estate_nobles_consolidated_noble_contracts = {
	icon = privilege_centralized
	loyalty = 0.05
	influence = 0.1
	max_absolutism = -10
	conditional_modifier = { trigger = { has_absolutism_reduction_for_estate_privileges = yes } modifier = { max_absolutism = 2 } }
	is_valid = {
		has_unlocked_estate_privilege = { estate_privilege = estate_nobles_consolidated_noble_contracts }
		has_dlc = "Domination" 
		NOT = { absolutism = 50 }
	}
	on_granted = {
	}
	on_revoked = {
	}
	benefits = {
		core_creation = -0.1
	}
	penalties = { 
	}
	conditional_modifier = {
		trigger = {
			is_at_war = yes 
		}
		modifier = {
			war_exhaustion = -0.05
			war_taxes_cost_modifier = -0.5
			nobles_influence_modifier = 0.1
		}
	}
	mechanics = {
		exempt_from_seize_land
	}
	ai_will_do = {
		factor = 1
	}
}

#England
# estate_nobles_english_villeinage = {
	# icon = privilege_serf
	# loyalty = 0
	# influence = 0.2
	# max_absolutism = -5
	# conditional_modifier = { trigger = { has_absolutism_reduction_for_estate_privileges = yes } modifier = { max_absolutism = 1 } }
	# is_valid = {
		# has_dlc = "Domination"
		# has_estate_privilege = estate_nobles_english_villeinage
	# }
	# can_revoke = {
		# OR = {
			# crown_land_share = 40
			# AND = {
				# crown_land_share = 30
				# has_estate_privilege = estate_church_religious_state
				# has_estate_privilege = estate_nobles_nobility_primacy
				# has_estate_privilege = estate_burghers_land_of_commerce
			# }
		# }
	# }
	# on_granted = {
	# }
	# on_revoked = {
	# }
	# modifier_by_land_ownership = {
		# global_tax_modifier = -0.5
	# }
	# mechanics = {
		# exempt_from_seize_land
		# no_estate_crownland_loss_from_developing
	# }
	# ai_will_do = {
		# factor = 1
	# }
# }

# estate_nobles_english_copyhold_tenure = {
	# icon = privilege_land_rights
	# loyalty = 0.1
	# influence = 0.1
	# max_absolutism = -5
	# conditional_modifier = { trigger = { has_absolutism_reduction_for_estate_privileges = yes } modifier = { max_absolutism = 1 } }
	# is_valid = {
		# has_dlc = "Domination"
		# has_unlocked_estate_privilege = {
			# estate_privilege = estate_nobles_english_copyhold_tenure
		# }
	# }
	# can_revoke = {
		
	# }
	# on_granted = {
	# }
	# on_revoked = {
	# }
	# benefits = {
		# global_tax_modifier = 0.1
	# }
	# modifier_by_land_ownership = {
		# production_efficiency = 0.2
		# nobles_loyalty_modifier = -0.2
	# }
	# mechanics = {
	# }
	# ai_will_do = {
		# factor = 1
	# }
# }

#Domination generic Estate Privileges
estate_nobles_development_of_castles = {
	icon = privilege_fort
	loyalty = 0.1
	influence = 0.05
	max_absolutism = -5
	conditional_modifier = { trigger = { has_absolutism_reduction_for_estate_privileges = yes } modifier = { max_absolutism = 1 } }
	is_valid = {
		has_dlc = "Domination"
	}
	on_granted = {
		custom_tooltip = estate_nobles_development_of_castles_gt
		tooltip = {
			add_province_modifier = {
				name = estate_nobles_development_of_castles_mod
				duration = -1
			}
		}
		custom_tooltip = estate_nobles_development_of_castles_at
		tooltip = {
			add_province_modifier = {
				name = estate_nobles_development_of_castles_ramparts_mod
				duration = -1
			}
		}
	}
	on_revoked = {
		custom_tooltip = estate_nobles_development_of_castles_rt
	}
	on_granted_province = {
		if = {
			limit = {
				has_fort_building_trigger = yes
			}
			add_province_modifier = {
				name = estate_nobles_development_of_castles_mod
				duration = -1
			}
		}
		if = {
			limit = {
				has_building = ramparts
			}
			add_province_modifier = {
				name = estate_nobles_development_of_castles_ramparts_mod
				duration = -1
			}
		}
	}
	on_invalid_province = {
		if = {
			limit = { has_province_modifier = estate_nobles_development_of_castles_mod }
			remove_province_modifier = estate_nobles_development_of_castles_mod
		}
		if = {
			limit = { has_province_modifier = estate_nobles_development_of_castles_ramparts_mod }
			remove_province_modifier = estate_nobles_development_of_castles_ramparts_mod
		}
	}
	on_revoked_province = {
		if = {
			limit = { has_province_modifier = estate_nobles_development_of_castles_mod }
			remove_province_modifier = estate_nobles_development_of_castles_mod
		}
		if = {
			limit = { has_province_modifier = estate_nobles_development_of_castles_ramparts_mod }
			remove_province_modifier = estate_nobles_development_of_castles_ramparts_mod
		}
	}

	mechanics = {
		no_estate_crownland_loss_from_developing
	}
	conditional_modifier = {
		trigger = { has_government_mechanic = russian_modernization_mechanic }
		modifier = { monthly_russian_modernization = -0.05 }
	}
	#conditional_modifier = {
	#	trigger = { has_government_mechanic = ottoman_decadence_mechanic }
	#	modifier = { monthly_ottoman_decadence = 0.02 }
	#}
	ai_will_do = {
		factor = 0
	}
}
estate_nobles_statesman_servitude = {
	icon = privilege_diplomat
	loyalty = 0.0
	influence = 0.05
	max_absolutism = -5
	conditional_modifier = { trigger = { has_absolutism_reduction_for_estate_privileges = yes } modifier = { max_absolutism = 1 } }
	is_valid = {
		has_dlc = "Domination"
		#anbennar
		NOT = {
			has_country_flag = g27_sus_statesmen
		}
	}
	can_select = {
	}
	on_granted = {
		enable_estate_action = {
			estate_action = RECRUIT_MINISTER_NOBLES
		}
	}
	on_revoked = {
		disable_estate_action = {
			estate_action = RECRUIT_MINISTER_NOBLES
		}
	}
	on_invalid = {
		disable_estate_action = {
			estate_action = RECRUIT_MINISTER_NOBLES
		}
	}
	conditional_modifier = {
		trigger = { has_government_mechanic = russian_modernization_mechanic }
		modifier = { monthly_russian_modernization = -0.05 }
	}
	#conditional_modifier = {
	#	trigger = { has_government_mechanic = ottoman_decadence_mechanic }
	#	modifier = { monthly_ottoman_decadence = 0.02 }
	#}
	ai_will_do = {
		factor = 0
	}
}
estate_nobles_royal_court_tasks = {
	icon = privilege_build_jain_temple
	loyalty = 0.0
	influence = 0.05
	max_absolutism = -5
	conditional_modifier = { trigger = { has_absolutism_reduction_for_estate_privileges = yes } modifier = { max_absolutism = 1 } }
	is_valid = {
		has_dlc = "Domination"
	}
	can_select = {
		if = {
			limit = { has_estate_privilege = estate_rajput_royal_court_tasks }
			NOT = { has_estate_privilege = estate_rajput_royal_court_tasks }
		}
		if = {
			limit = { has_estate_privilege = estate_maratha_royal_court_tasks }
			NOT = { has_estate_privilege = estate_maratha_royal_court_tasks }
		}
	}
	on_granted = {
		scaling_with_influence_privilege_tooltip = {
			estate_privilege = estate_nobles_royal_court_tasks
		}
	}
	on_revoked = {
		scaling_with_influence_privilege_tooltip = {
			estate_privilege = estate_nobles_royal_court_tasks
		}
	}
	influence_scaled_conditional_modifier = {	#Modifier that are applied if the specified conditions are true. At 100% Influence you gain 100% of the modifier.
		trigger = {
			NOT = {
				estate_loyalty = {
					estate = estate_nobles
					loyalty = 30
				}
			}
		}
		modifier = {
			prestige_decay = 0.01
		}
	}
	influence_scaled_conditional_modifier = {	#Modifier that are applied if the specified conditions are true. At 100% Influence you gain 100% of the modifier.
		trigger = {
			estate_loyalty = {
				estate = estate_nobles
				loyalty = 30
			}
			NOT = {
				estate_loyalty = {
					estate = estate_nobles
					loyalty = 60
				}
			}
		}
		modifier = {
			prestige_decay = -0.005
		}
	}
	influence_scaled_conditional_modifier = {	#Modifier that are applied if the specified conditions are true. At 100% Influence you gain 100% of the modifier.
		trigger = {
			estate_loyalty = {
				estate = estate_nobles
				loyalty = 60
			}
		}
		modifier = {
			prestige_decay = -0.01
		}
	}
	conditional_modifier = {
		trigger = { has_government_mechanic = russian_modernization_mechanic }
		modifier = { monthly_russian_modernization = -0.05 }
	}
	#conditional_modifier = {
	#	trigger = { has_government_mechanic = ottoman_decadence_mechanic }
	#	modifier = { monthly_ottoman_decadence = 0.02 }
	#}
	ai_will_do = {
		factor = 0
	}
}
estate_nobles_diet_right = {
	icon = privilege_government
	loyalty = 0.0
	influence = 0.05
	max_absolutism = -5
	conditional_modifier = { trigger = { has_absolutism_reduction_for_estate_privileges = yes } modifier = { max_absolutism = 1 } }
	is_valid = {
		has_dlc = "Domination"
	}
	on_granted = {
		enable_estate_action = {
			estate_action = CALL_DIET_NOBLES
		}
	}
	on_invalid = {
		disable_estate_action = {
			estate_action = CALL_DIET_NOBLES
		}
	}
	on_revoked = {
		disable_estate_action = {
			estate_action = CALL_DIET_NOBLES
		}
	}
	mechanics = {
	}
	conditional_modifier = {
		trigger = { has_government_mechanic = russian_modernization_mechanic }
		modifier = { monthly_russian_modernization = -0.05 }
	}
	#conditional_modifier = {
	#	trigger = { has_government_mechanic = ottoman_decadence_mechanic }
	#	modifier = { monthly_ottoman_decadence = 0.02 }
	#}
	ai_will_do = {
		factor = 10
		modifier = {
			factor = 0.1
			is_absolutism_active = yes
		}
	}
}
estate_nobles_force_conscription = {
	icon = privilege_land_force_limit
	loyalty = 0
	influence = 0.05
	max_absolutism = -5
	conditional_modifier = { trigger = { has_absolutism_reduction_for_estate_privileges = yes } modifier = { max_absolutism = 1 } }
	is_valid = {
		has_dlc = "Domination"
	}
	on_granted = {
		enable_estate_action = {
			estate_action = DEMAND_MORE_TROOPS_NOBLES
		}
	}
	on_revoked = {
		disable_estate_action = {
			estate_action = DEMAND_MORE_TROOPS_NOBLES
		}
	}
	on_invalid = {
		disable_estate_action = {
			estate_action = DEMAND_MORE_TROOPS_NOBLES
		}
	}
	conditional_modifier = {
		trigger = { has_government_mechanic = russian_modernization_mechanic }
		modifier = { monthly_russian_modernization = -0.05 }
	}
	#conditional_modifier = {
	#	trigger = { has_government_mechanic = ottoman_decadence_mechanic }
	#	modifier = { monthly_ottoman_decadence = 0.02 }
	#}
	ai_will_do = {
		factor = 0
	}
}
estate_nobles_noble_officer_right = {
	icon = privilege_army_tradition
	loyalty = 0.0
	influence = 0.1
	max_absolutism = -5
	conditional_modifier = { trigger = { has_absolutism_reduction_for_estate_privileges = yes } modifier = { max_absolutism = 1 } }
	is_valid = {
		has_dlc = "Domination"
	}
	can_select = {
		if = {
			limit = { has_estate = estate_rajput }
			NOT = { has_estate_privilege = estate_rajput_force_conscription }
		}
		if = {
			limit = { has_estate = estate_maratha }
			NOT = { has_estate_privilege = estate_maratha_force_conscription }
		}
	}
	on_granted = {
		enable_estate_action = {
			estate_action = GRANT_GENERALSHIP_NOBLES
		}
	}
	on_invalid = {
		disable_estate_action = {
			estate_action = GRANT_GENERALSHIP_NOBLES
		}
	}
	on_revoked = {
		disable_estate_action = {
			estate_action = GRANT_GENERALSHIP_NOBLES
		}
	}
	conditional_modifier = {
		trigger = { has_government_mechanic = russian_modernization_mechanic }
		modifier = { monthly_russian_modernization = -0.05 }
	}
	#conditional_modifier = {
	#	trigger = { has_government_mechanic = ottoman_decadence_mechanic }
	#	modifier = { monthly_ottoman_decadence = 0.02 }
	#}
	ai_will_do = {
		factor = 0
	}
}
estate_nobles_expedition_rights = {
	icon = privilege_conquistador
	loyalty = 0.0
	influence = 0.05
	max_absolutism = -5
	conditional_modifier = { trigger = { has_absolutism_reduction_for_estate_privileges = yes } modifier = { max_absolutism = 1 } }
	is_valid = {
		has_dlc = "Domination"
		has_any_exploration_idea = yes
	}
	loyalty_scaled_conditional_modifier = {
		trigger = {
			always = yes
		}
		modifier = {
			colony_cost_modifier = -0.5
		}
	}
	
	on_granted = {
		scaling_with_loyalty_privilege_tooltip = {
			estate_privilege = estate_nobles_expedition_rights
		}
		enable_estate_action = {
			estate_action = RECRUIT_CONQUISTADOR_ESTATES_NOBLES
		}
	}
	on_invalid = {
		scaling_with_loyalty_privilege_tooltip = {
			estate_privilege = estate_nobles_expedition_rights
		}
		disable_estate_action = {
			estate_action = RECRUIT_CONQUISTADOR_ESTATES_NOBLES
		}
	}
	on_revoked = {
		scaling_with_loyalty_privilege_tooltip = {
			estate_privilege = estate_nobles_expedition_rights
		}
		disable_estate_action = {
			estate_action = RECRUIT_CONQUISTADOR_ESTATES_NOBLES
		}
	}
	conditional_modifier = {
		trigger = { has_government_mechanic = russian_modernization_mechanic }
		modifier = { monthly_russian_modernization = -0.05 }
	}
	#conditional_modifier = {
	#	trigger = { has_government_mechanic = ottoman_decadence_mechanic }
	#	modifier = { monthly_ottoman_decadence = 0.02 }
	#}
	ai_will_do = {
		factor = 0
	}
}
estate_nobles_xia_last_bastion = {
	icon = privilege_morale_damage
	loyalty = 0.05
	is_valid = {
		has_country_flag = xia_lost_sir_reovlt
		NOT = { total_own_and_non_tributary_subject_development = 400 }
	}
	on_granted = {
		disable_annexation_penalty = yes
	}
	on_revoked = {
		enable_annexation_penalty = yes
	}
	on_invalid = {
		enable_annexation_penalty = yes
	}
	benefits = {
		morale_damage_received = -0.1
		reduced_liberty_desire = 20
		annexation_relations_impact = -1
		diplomatic_annexation_cost = -0.25
		diplomatic_reputation = 3
		monarch_military_power = 1
		mil_tech_cost_modifier = -0.1
	}
	can_revoke = {
		always = no
	}
}