orda_aldresia_1 = {
	slot = 1
	generic = no
	ai = yes
	has_country_shield = yes
	potential = {
		tag = A77
	}

    workshops_of_war = {
		icon = mission_taula_de_canvi
		required_missions = { }
		position = 1
		
		trigger = {
			estate_influence = {
                estate = estate_burghers
                influence = 50
            }
            423 = {
                has_state_edict = edict_advancement_effort
                base_production = 6
            }
		}
		
		effect = {
			423 = {
                add_building_construction = {
                    building = workshop
                    speed = 1
                    cost = 0
                }
                add_permanent_province_modifier = {
                    name = imperial_armory
                    duration = -1
                }
            }
		}
	}

	aldresian_archives = {
		icon = mission_rb_college_of_justice
		required_missions = { redeem_our_name }
		position = 3
		
		trigger = {
			innovativeness = 3
            423 = {
                has_building = temple
            }
			OR = {
				advisor = natural_scientist
				has_adm_advisor_2 = yes
			}
		}
		
		effect = {
			423 = {
                add_permanent_province_modifier = {
                    name = A77_scholars_lounge
                    duration = -1
                }
            }
		}
	}

	guns_magic_and_steel = {
		icon = mission_rb_build_furnaces
		required_missions = { aldresian_archives}
		position = 4
		
		trigger = {
			num_of_owned_provinces_with = {
				value = 3
				trade_goods = iron
				base_production = 5
				has_building = workshop
				
			}
			423 = {
				has_building = mage_tower
			}
			num_of_artillery = 10
		}
		
		effect = {
			add_country_modifier = {
				name = proto_gunblade
				duration = -1
			}
		}
	}

	the_great_vault = {
		icon = mission_jawal_silver_mine
		required_missions = { guns_magic_and_steel }
		position = 5
		
		trigger = {
			estate_loyalty = {
                estate = estate_burghers
                loyalty = 50
            }
            423 = {
                base_production = 12
            }
			innovativeness = 25
		}
		
		effect = {
			423 = {
                change_trade_goods = precursor_relics
            }
			remove_country_modifier = proto_gunblade
			artifice_magic_switch_to_mixed_mode = yes
			set_estate_privilege = artifice_invention_holy_gunblade
		}
	}
}


orda_aldresia_2 = {
	slot = 2
	generic = no
	ai = yes
	has_country_shield = yes
	potential = {
		tag = A77
	}

	youngbloods_of_the_greentide = {
		icon = king_of_poland
		required_missions = { }
		position = 1
		
		trigger = {
			army_size_percentage = 0.90
			has_leaders = {
				value = 1
					type = general
				include_monarch = no
				include_heir = no
			}
		}
		
		effect = {
			country_event = { id = flavor_orda_aldresia.8 }
		}
	}

	surround_the_beast = {
		icon = mission_break_the_tatar_yoke
		required_missions = {redeem_our_name }
		position = 3
		
		trigger = {
			OR = {
				AND = {
					283  = {
					country_or_non_sovereign_subject_holds = ROOT
						OR = {
							has_building = barracks
							has_building = regimental_camp
						}
					}
					285 = {
						country_or_non_sovereign_subject_holds = ROOT
						OR = {
							has_building = barracks
							has_building = regimental_camp
						}
					}
					286 = {
						country_or_non_sovereign_subject_holds = ROOT
						OR = {
							has_building = barracks
							has_building = regimental_camp
						}
					}
					A55 = {
						has_opinion = {
							who = ROOT
							value = 150
						}
					}
				}
				max_manpower = 25
			}
		}
		
		effect = {
			if = { 
				limit = { 569 = {owned_by = ROOT } }
				add_country_modifier = {
					name = enlistment_of_adventurers
					duration = 9125
				}
				
			}
			A55 = {
				country_event = { id = flavor_orda_aldresia.35 }
			}
		}
	}

	the_storming_of_old_tower = {
		icon = mission_conquer_alexandria
		required_missions = { 
			surround_the_beast
			aldresian_archives
			cut_their_purse
		}
		position = 4
		
		trigger = {
			custom_trigger_tooltip = { 
				tooltip = orda_war_variables_tt
			}
			OR = {
				AND = {
					army_size = A85
					emperor = {
						has_opinion = { 
							who = ROOT
							value = 150
						}
					}
					calc_true_if = {
						amount = 2
						all_known_country = {
							is_elector = yes
							owes_favors = { 
								who = ROOT
								value = 30
							}
						}
					}
				}
				check_variable = {
					which = orda_emperor_war
					value = 6
				}	
			}
		}
		
		effect = {
			country_event = { id = flavor_orda_aldresia.14 }
		}
	}

	raid_of_the_magisteriums_vault = {
		icon = mission_rb_inland_india
		required_missions = { 
			guns_magic_and_steel
			the_storming_of_old_tower
		}
		position = 5
		
		trigger = {
			estate_loyalty = {
				estate = estate_nobles
				loyalty = 60
			}
			estate_loyalty = {
				estate = estate_mages
				loyalty = 60
			}
			army_tradition = 40
			331 = {
				has_building = mage_tower
			}
			
		}
		
		effect = {
			country_event = { id = flavor_orda_aldresia.16 }
		}
	}

	aldresias_rotating_castle = {
		icon = defend_the_city
		required_missions = { 
			raid_of_the_magisteriums_vault 
			the_great_vault
		}
		position = 6
		
		trigger = {
			estate_loyalty = {
				estate = estate_burghers
				loyalty = 60
			}
			rotwall_area = {
				has_state_edict = edict_advancement_effort
			}
			423 = {
				 development = 35
			}
			any_owned_province = {
				trade_goods = precursor_relics
				base_production = 20
			}
		}
		
		effect = {
			custom_tooltip = aldresias_rotating_castle_tt
			country_event = { id = flavor_orda_aldresia.19 }
		}
	}

	arrest_of_the_grand_magister = {
		icon = mission_russian_patriarchatee
		required_missions = {aldresias_rotating_castle }
		position = 7
		
		trigger = {
			OR = {
				is_in_war = {
					defender_leader = A85
					attacker_leader = ROOT
					war_score = 90
				}
				AND = {
					NOT = { exists = A85 }
					legitimacy = 100
					prestige = 100
				}
			}
			
		}
		
		effect = {
			country_event = { id = flavor_orda_aldresia.21 }
		}
	}

	adenns_revenge = {
		icon = end_the_habsburgs
		required_missions = {arrest_of_the_grand_magister }
		position = 8
		
		trigger = {
			wesdam_area = {
				type = all
				owned_by = ROOT
			}
			wesdam_area = {
				has_building = soldier_households
			}
			windtower_area = {
				type = all
				owned_by = ROOT
			}
			windtower_area = {
				has_building = soldier_households
			}
		}
		
		effect = {
			windtower_area = {
				add_province_modifier = {
					name = A77_knights_of_skylance
					duration = 9125
				}
			}
			wesdam_area = {
				add_province_modifier = {
					name = A77_knights_of_skylance
					duration = 9125
				}
			}
			add_permanent_power_projection = {
				type = 10_permanent_power_projection
				amount = 10
			}
		}
	}

}

orda_aldresia_3 = {
	slot = 3
	generic = no
	ai = yes
	has_country_shield = yes
	potential = {
		tag = A77
	}

    redeem_our_name = {
		icon = expand_the_swiss_guard
		required_missions = {
			workshops_of_war
			youngbloods_of_the_greentide
			return_to_the_court
			scars_of_the_lilac_wars
		 }
		position = 2
		
		trigger = {
			emperor = {
				has_opinion = {
					who = ROOT
					value = 100
				}
			}
			any_known_country = {
				alliance_with = emperor
				is_part_of_hre = yes
				has_opinion = {
					who = ROOT
					value = 50
				}
			}
			emperor = {
				capital_scope = {
					num_of_units_in_province = {
						who = ROOT
						amount = 10
					}
				}
			}	
		}
		
		effect = {
			custom_tooltip = A77_defending_empire_morale_tt
			country_event = { id = flavor_orda_aldresia.10 }
			menibor_loop_area = {
				add_permanent_claim = ROOT
			}
			ashfields_area = {
				add_permanent_claim = ROOT
			}
			south_ibevar_area = {
				add_permanent_claim = ROOT
			}
			add_country_modifier = {
				name = A77_drawn_blades
				duration = 5475
			}
		}
	}

	cut_their_purse = {
		icon = mission_african_gold
		required_missions = { redeem_our_name }
		position = 3
		
		trigger = {
			custom_trigger_tooltip = {
				tooltip = redeem_our_name_tt
			}
			treasury = 500
			has_estate_privilege = estate_burghers_commercial_board_of_advice
			calc_true_if = {
				amount = 3
				all_known_country = {
					8 = {
						any_trade_node_member_country = {
							has_opinion = {
								who = ROOT
								value = 100
							}
						}
					}
					has_opinion = {
						who = ROOT
						value = 100
					}
				}
			}
		}
		
		effect = {
			add_treasury = -500
			add_country_modifier = {
				name = A77_anbenncost_kickbacks
				duration = -1
			}
			if = {
				limit = { A85 = { ai = yes }}
				set_bankruptcy = A85
			} else = {
				A85 = { country_event = { id = flavor_magisterium.37 }} 
			}
		}
	}

	incident_at_ebrosfield = {
		icon = mission_conquer_kanem_bornu
		required_missions = { 
			cut_their_purse
			an_ancient_purpose
		 }
		position = 4
		
		trigger = {
			OR = {
				advisor = spymaster
				has_dip_advisor_2 = yes
			}
			has_spy_network_in = {
				who = A59
				value = 50
			}
			A59 = {
				any_neighbor_province = { 
					owned_by = A77
					NOT = { is_capital = yes } 
					has_fort_building_trigger = yes
				}
			}
		}
		effect = {
			cursewood_area = {
				add_permanent_claim = ROOT
			}
			whistlevale_area = {
				add_permanent_claim = ROOT
			}
			add_country_modifier = {
				name = A77_renewed_purpose
				duration = 7300
			}
			country_event = { id = flavor_orda_aldresia.15 }
		}
	}
	descent_into_the_cursewood = {
		icon = mission_junnagadh_fort
		required_missions = { 
			incident_at_ebrosfield
		}
		position = 5
		
		trigger = {
			cursewood_area = {
				type = all
				owned_by = ROOT
				has_building = barracks
				NOT = { unrest = 0 }
				base_manpower = 6
			}

			OR = {
				advisor = inquisitor
				monthly_adm = 8
			}
		}
		
		effect = {
			country_event = { id = flavor_orda_aldresia.17 }
		}
	}

	the_hunt_begins = {
		icon = mission_mosque
		required_missions = { 
			descent_into_the_cursewood
		}
		position = 6
		
		trigger = {
			dostanor_region = {
				type = all
				owned_by = ROOT
			}
		}
		
		effect = {
			country_event = { id = flavor_orda_aldresia.20 }
		}
	}

	hearts_and_minds = {
		icon = mission_dominate_persian_gulf
		required_missions = { the_hunt_begins }
		position = 8
		
		trigger = {
			num_of_owned_provinces_with = {
				value = 5
				region = dostanor_region
				OR = {
					trade_goods = livestock
					trade_goods = grain
				}
				base_tax = 6
				base_manpower = 10
			}
			num_of_owned_provinces_with = {
				value = 3
				region = dostanor_region
				base_production = 10
				OR = {
					has_building = weapons
					has_building = textile
					has_building = tradecompany
					has_building = farm_estate
					has_building = mills
					has_building = plantations
					has_building = furnace
				}
			}
		}

		effect = {
			random_owned_province = {
				limit = {
					region = dostanor_region
					OR = {
						trade_goods = livestock
						trade_goods = grain
					}
					base_tax = 6
					base_manpower = 10
				}
				add_province_modifier = {
					name = A77_friendly_populace
					duration = 7300
				}
			}
			random_owned_province = {
				limit = {
					region = dostanor_region
					OR = {
						trade_goods = livestock
						trade_goods = grain
					}
					base_tax = 6
					base_manpower = 10
				}
				add_province_modifier = {
					name = A77_friendly_populace
					duration = 7300
				}
			}
			random_owned_province = {
				limit = {
					region = dostanor_region
					OR = {
						trade_goods = livestock
						trade_goods = grain
					}
					base_tax = 6
					base_manpower = 10
				}
				add_province_modifier = {
					name = A77_friendly_populace
					duration = 7300
				}
			}
			random_owned_province = {
				limit = {
					region = dostanor_region
					OR = {
						trade_goods = livestock
						trade_goods = grain
					}
					base_tax = 6
					base_manpower = 10
				}
				add_province_modifier = {
					name = A77_friendly_populace
					duration = 7300
				}
			}
			random_owned_province = {
				limit = {
					region = dostanor_region
					OR = {
						trade_goods = livestock
						trade_goods = grain
					}
					base_tax = 6
					base_manpower = 10
				}
				add_province_modifier = {
					name = A77_friendly_populace
					duration = 7300
				}
			}
			random_owned_province = {
				limit = {
					region = dostanor_region
					base_production = 10
					OR = {
						has_building = weapons
						has_building = textile
						has_building = tradecompany
						has_building = farm_estate
						has_building = mills
						has_building = plantations
						has_building = furnace
					}
				}
				add_province_modifier = {
					name = A77_revitialized_industry
					duration = 7300
				}
			}
			random_owned_province = {
				limit = {
					region = dostanor_region
					base_production = 10
					OR = {
						has_building = weapons
						has_building = textile
						has_building = tradecompany
						has_building = farm_estate
						has_building = mills
						has_building = plantations
						has_building = furnace
					}
				}
				add_province_modifier = {
					name = A77_revitialized_industry
					duration = 7300
				}
			}
			random_owned_province = {
				limit = {
					region = dostanor_region
					base_production = 10
					OR = {
						has_building = weapons
						has_building = textile
						has_building = tradecompany
						has_building = farm_estate
						has_building = mills
						has_building = plantations
						has_building = furnace
					}
				}
				add_province_modifier = {
					name = A77_revitialized_industry
					duration = 7300
				}
			}
		}
	}
}



orda_aldresia_4 = {
	slot = 4
	generic = no
	ai = yes
	has_country_shield = yes
	potential = {
		tag = A77
	}

    return_to_the_court = {
		icon = mission_rb_trinity_college_dublin
		required_missions = { }
		position = 1
		
		trigger = {
			OR = {
				advisor = statesman
				has_dip_advisor_2 = yes
				dip_power = 100
			}
			any_elector = {
				alliance_with = ROOT
			}
			any_ally = {
				has_reform = free_city
				alliance_with = ROOT
			}
			
		}
		
		effect = {
			country_event = { id = flavor_orda_aldresia.9 }
			if = {
				limit = {
					NOT = {
						advisor = statesman
						has_dip_advisor_2 = yes
					}
				}
				add_dip_power = -100
			} 
		}
	}

	an_ancient_purpose = {
		icon = mission_protect_albania
		required_missions = { redeem_our_name }
		position = 3
		
		trigger = {
			311  = {
				country_or_non_sovereign_subject_holds = ROOT
			}
			320  = {
				country_or_non_sovereign_subject_holds = ROOT
			}
			310  = {
				country_or_non_sovereign_subject_holds = ROOT
			}
		}
		effect = {
			add_manpower = 10
		}
	}

	reign_in_the_knight_errants = {
		icon = mission_rb_unite_the_clans
		required_missions = { an_ancient_purpose }
		position = 4
		
		trigger = {
			NOT = {
				estate_influence = {
					estate = estate_adventurers
					influence = 30
				}
			}
			OR = {
				army_size = Z37
				any_known_country = {
					has_reform = adventurer_reform
					NOT = { army_size = ROOT  }
				}
				any_known_country = {
					has_reform = orcish_kingdom_reform
					NOT = { army_size = ROOT }
				}
			}
			army_professionalism = 0.10
		}
		
		effect = {
			custom_tooltip = hundred_percent_merc_army_professionalism_cost_tt
		}
	}

	guardians_of_the_empire = {
		icon = gory_to_the_black_army
		required_missions = { 
			old_ways_and_the_new
		}
		position = 6
		
		trigger = {
			south_ibevar_area = {
				type = all
				owned_by = ROOT
				has_building = barracks
				base_manpower = 6
			}
			whistlevale_area = {
				type = all
				owned_by = ROOT
				has_building = barracks
				base_manpower = 6
			}
		}
		effect = {
			remove_estate_privilege = estate_mages_archaic_traditions
			north_ibevar_area = {
				add_permanent_claim = ROOT
			}
			add_imperial_influence = 10
		}
	}

	bastions_of_light = {
		icon = alpine_defenses
		required_missions = { the_hunt_begins }
		position = 7
		
		trigger = {
			num_of_owned_provinces_with = {
				value = 4 
				region = dostanor_region
				has_state_edict = edict_defensive_edict 
				has_building = regimental_camp
				has_building = barracks
				has_fort_building_trigger = yes
			}
		}
		
		effect = {
			add_country_modifier = {
				name = A77_indomitable_fortress
				duration = -1
			}
			
		}
	}

	the_umbral_king = {
		icon = mission_the_ascension
		required_missions = {
			adenns_revenge
			hearts_and_minds
			master_of_the_diranbe
			bastions_of_light
		 }
		position = 9
		
		trigger = {
			custom_trigger_tooltip = {
				tooltip = umbral_king_pre_tt
			}
			OR = {
				legitimacy = 100
				devotion = 100
				republican_tradition = 100
			}
			land_forcelimit = 80
			num_of_regiments_at_full_drill = 40
			employed_advisor = {
				category = ADM
			}
			employed_advisor = {
				category = DIP
			}
			employed_advisor = {
				category = MIL
			}
			423 = {
				has_ruler_leader_from = ROOT
			}
		}
		
		effect = {
			custom_tooltip = umbral_king_tt
			country_event = { id = flavor_orda_aldresia.23 }
		}
	}

	a_knightly_night = {
		icon = join_the_reformation
		required_missions = {
			the_umbral_king
			imperfect_perfection
		 }
		position = 10
		
		trigger = {
			any_owned_province = {
				has_province_modifier = ravelian_lodge
			}
			898 = {
				development = 25
			}
			calc_true_if = {
				amount = 2
				all_known_country = {
					any_owned_province = {
						has_province_modifier = ravelian_lodge
					}
					has_opinion = {
						who = ROOT
						value = 100
					}
				}
			}
		}
		
		effect = {
			country_event = { id = flavor_orda_aldresia.22 }
		}
	}

	swords_of_god = {
		icon = mission_teutonic_knights
		required_missions = {
			a_knightly_night
		 }
		position = 11
		
		trigger = {
			custom_trigger_tooltip = { 
				tooltip = orda_war_variables_tt
			}
			OR = {
				check_variable = {
					which = orda_conversion_war
					value = 10
				}
				hre_religion = ravelian
			}
			is_defender_of_faith = yes
			exists = Z97
		}
		
		effect = {
			custom_tooltip = swords_of_god_tt
			country_event = { id = flavor_orda_aldresia.31 }
		}
	}
}


orda_aldresia_5 = {
	slot = 5
	generic = no
	ai = yes
	has_country_shield = yes
	potential = {
		tag = A77
	}

    scars_of_the_lilac_wars = {
		icon = mission_rb_war_of_the_roses
		required_missions = { }
		position = 1
		
		trigger = {
			num_of_provinces_owned_or_owned_by_non_sovereign_subjects_with = {
	            value = 2
	            area = rotwall_area
	            base_manpower = 6
            }
			treasury = 200
			estate_loyalty = {
				estate = estate_nobles
				loyalty = 50
			}
		}
		
		effect = {
			add_treasury = -200
			423 = {
                add_permanent_province_modifier = {
                    name = imperial_barracks
                    duration = -1
                }
            }
		}
	}

	the_empires_second_sons = {
		icon = encroach_on_the_germans
		required_missions = { an_ancient_purpose }
		position = 4
		
		trigger = {
			custom_trigger_tooltip = { 
				tooltip = orda_war_variables_tt
			}
			crown_land_share = 40
			NOT = {
				estate_influence = {
					estate = estate_nobles
					influence = 40
				}
			}
			OR = {
				check_variable = {
					which = orda_emperor_war
					value = 15
				}
				check_variable = {
					which = orda_war_wins
					value = 15
				}
			}
		}
		
		effect = {
			add_legitimacy = 20
			add_adm_power = 100
			add_mil_power = 100
			add_dip_power = 100
			hidden_effect = {
				add_country_modifier = {
					name = A77_second_sons_coup
					duration = -1
				}
			}
		}
	}

	old_ways_and_the_new = {
		icon = mission_have_two_subjects
		required_missions = { 
			the_empires_second_sons
			reign_in_the_knight_errants
		}
		position = 5
		
		trigger = {
			custom_trigger_tooltip = {
				tooltip = old_ways_and_the_new_pre_tt
			}
			average_autonomy = 10
			any_known_country = {
				is_enemy = emperor
				humiliated_by = PREV 
			}
		}
		
		effect = {
			remove_country_modifier = A77_second_sons_coup
			custom_tooltip = old_ways_and_the_new_tt
			country_event = { id = flavor_orda_aldresia.18 }
			remove_country_modifier = A77_second_sons_coup
			remove_estate_privilege = estate_nobles_factionalist_commanders
		}
	}

	forms_eight_to_three = {
		icon = mission_rb_conquer_the_highlands
		required_missions = { 
			old_ways_and_the_new
		}
		position = 6
		
		trigger = {
			custom_trigger_tooltip = { 
				tooltip = orda_war_variables_tt
			}
			OR = {
				check_variable = {
					which = orda_war_wins
					value = 15
				}
				check_variable = {
					which = orda_emperor_war
					value = 10
				}
			}
			check_variable = {
				which = orda_siege_assault
				value = 10
			}
		}
		effect = {
			custom_tooltip = A77_defending_empire_diranbe_tt
			set_estate_privilege = estate_mages_form_iii
		}
	}
	proving_grounds = {
		icon = jageillonian_union
		required_missions = { 
			guardians_of_the_empire
			forms_eight_to_three
		}
		position = 7
		
		trigger = {
			NOT = { num_of_foreign_hre_provinces = 1 }
		}
		
		effect = {
			add_country_modifier = {
				name = A77_battleworn_knights
				duration = -1
			}
			add_treasury = 500
		}
	}

	master_of_the_diranbe = {
		icon = form_the_swiss_guard
		required_missions = { proving_grounds }
		position = 8
		
		trigger = {
			north_ibevar_area = {
				type = all
				owned_by = ROOT
				has_building = temple
				base_tax = 8 
			}
		}
		
		effect = {
			add_country_modifier = {
				name = A77_master_of_the_diranbe
				duration = -1
			}
			add_imperial_influence = 10
		}
	}

	imperfect_perfection = {
		icon = form_the_swiss_guard
		required_missions = { master_of_the_diranbe }
		position = 9
		
		trigger = {
			num_of_regiments_at_full_drill = 50
			army_tradition = 80
			army_professionalism = 0.80
		}
		
		effect = {
			remove_estate_privilege = estate_mages_form_iii
			set_estate_privilege = estate_mages_form_i

			
		}
	}

}