
namespace = khet_civil_war


#starting event for Kheterata
country_event = {
	id = khet_civil_war.1
	title = khet_civil_war.1.t
	desc = khet_civil_war.1.d
	picture = DEATH_OF_HEIR_eventPicture
	
	fire_only_once = yes

	is_triggered_only = yes

	trigger = {
		tag = U01
		has_country_flag = in_khet_civil_war
		NOT = { is_year = 1445 }
	}

	
	immediate = {
		hidden_effect = {
			# 475 = {
			# 	infantry = ROOT
			# 	infantry = ROOT
			# }
			if = {
				limit = { ai = yes }
				add_treasury = 150
				add_manpower = 10
				467 = {
					infantry = ROOT
					infantry = ROOT
					infantry = ROOT
				}
			}
			else = {
				add_treasury = 25
				add_manpower = 5
			}

			#this is to get around a hardcoded error
			set_global_flag = eoc_vassalize_tributaries
			clr_global_flag = eoc_vassalize_tributaries
		}
	}

	option = {
		name = khet_civil_war.1.a
		custom_tooltip = khet_civil_war.1.tooltip
		define_ruler_to_general = {
			fire = 1
			shock = 3
			manuever = 3
			siege = 2
			trait = hardy_warrior_personality
		}
		hidden_effect = { U10 = { country_event = { id = khet_civil_war.3 days = 60 } } }
	}
}

#starting event nirat
country_event = {
	id = khet_civil_war.2
	title = khet_civil_war.2.t
	desc = khet_civil_war.2.d
	picture = DEATH_OF_HEIR_eventPicture
	
	fire_only_once = yes

	is_triggered_only = yes

	immediate = {
		hidden_effect = {
			if = {
				limit = { ai = yes }
				add_treasury = 150
				add_manpower = 8
			}
			else = {
				add_treasury = 25
				add_manpower = 5
			}
		}
	}

	trigger = {
		tag = U02
		has_country_flag = in_khet_civil_war
		NOT = { is_year = 1445 }
	}

	option = {
		name = khet_civil_war.2.a
		custom_tooltip = khet_civil_war.2.tooltip
		define_general = {
			name = "Dajasht 'the Dashing'"
			fire = 2
			shock = 2
			manuever = 5
			siege = 3
			trait = inspirational_leader_general_personality
		}
	}
}


#brrtekuh joins
country_event = {
	id = khet_civil_war.3
	title = khet_civil_war.3.t
	desc = khet_civil_war.3.d
	picture = DEATH_OF_HEIR_eventPicture
	
	fire_only_once = yes

	is_triggered_only = yes

	trigger = { tag = U10 }

	#ask viakkoc for help
	option = {
		name = khet_civil_war.3.a
		ohitsopot_area = { add_permanent_claim = ROOT }
		coast_of_tears_area = { limit = { NOT = { owned_by = U05 } } add_permanent_claim = ROOT }
		hidden_effect = { grant_independence = yes }
		declare_war_with_cb = { casus_belli = cb_monster_vs_civ who = U01 }
		custom_tooltip = khet_civil_war.3.tooltip
		U07 = { country_event = { id = khet_civil_war.4 days = 3 } }
		custom_tooltip = khet_civil_war.3.tooltip2
		ai_chance = { factor = 100 }
	}

	#attack alone
	option = {
		name = khet_civil_war.3.b
		ohitsopot_area = { add_permanent_claim = ROOT }
		coast_of_tears_area = { add_permanent_claim = ROOT }
		hidden_effect = { grant_independence = yes }
		declare_war_with_cb = { casus_belli = cb_monster_vs_civ who = U01 }
		custom_tooltip = khet_civil_war.3.tooltip
		ai_chance = { factor = 0 }
	}

	after = { U01 = { country_event = { id = khet_civil_war.5 } } }
}


#viakkoc joins?
country_event = {
	id = khet_civil_war.4
	title = khet_civil_war.4.t
	desc = khet_civil_war.4.d
	picture = DEATH_OF_HEIR_eventPicture
	
	fire_only_once = yes

	is_triggered_only = yes

	trigger = { tag = U07 }

	#join
	option = {
		name = khet_civil_war.4.a
		custom_tooltip = khet_civil_war.4.tooltip
		join_all_offensive_wars_of = U10
		hidden_effect = { U10 = { set_country_flag = viakkoc_joins_civil_war } }
		ai_chance = { factor = 100 }
	}

	#lol no
	option = {
		name = khet_civil_war.4.b
		reverse_add_opinion = { who = U10 modifier = dishonoured_alliance }
		ai_chance = { factor = 0 }
	}
}


#tell kheterata that they're gonna die
country_event = {
	id = khet_civil_war.5
	title = khet_civil_war.5.t
	desc = khet_civil_war.5.d
	picture = DEATH_OF_HEIR_eventPicture
	
	fire_only_once = yes

	is_triggered_only = yes

	trigger = { tag = U01 }

	#join
	option = {
		name = khet_civil_war.5.a
		custom_tooltip = khet_civil_war.5.tooltip
	}
}



#Victory of the Crodamos
country_event = {
	id = khet_civil_war.6
	title = khet_civil_war.6.t
	desc = khet_civil_war.6.d
	picture = DEATH_OF_HEIR_eventPicture
	
	fire_only_once = yes

	mean_time_to_happen = {
		days = 1
	}

	trigger = {
		tag = U01
		has_country_flag = in_khet_civil_war
		OR = {
			controls = 473
			is_year = 1450
		}
		war_score_against = { who = U02 value = 75 }
	}

	option = {
		name = khet_civil_war.6.a
		clr_country_flag = in_khet_civil_war
		hidden_effect = { U02 = { clr_country_flag = in_khet_civil_war } }
		inherit = U02
		add_mandate = 20
		add_stability_or_adm_power = yes
		hidden_effect = {
			kheterat_proper_area = { remove_core = U02 }
			upper_sorrow_area = { remove_core = U02 }
		}
		#get cores if Brrtekuh is still fighting you
		if = {
			limit = { war_with = U10 }
			custom_tooltip = khet_civil_war.6.tooltip
			hidden_effect = { 
				U10 = {
					clr_country_flag = in_khet_civil_war 
					every_owned_province = { add_core = ROOT } 
				}
			}
		}
		if = {
			limit = { ai = yes }
			add_treasury = 100
			add_manpower = 10
			random_owned_province = {
				limit = { NOT = { religion = elikhetist } }
				change_religion = elikhetist
			}
			random_owned_province = {
				limit = { NOT = { religion = elikhetist } }
				change_religion = elikhetist
			}
			random_owned_province = {
				limit = { NOT = { religion = elikhetist } }
				change_religion = elikhetist
			}
			random_owned_province = {
				limit = { NOT = { religion = elikhetist } }
				change_religion = elikhetist
			}
			set_ai_personality = { personality = ai_militarist locked = no }
			463 = { add_core = ROOT }
			479 = { add_core = ROOT }
			5481 = { add_core = ROOT }
			add_country_modifier = { name = mandate_ai_civil_war_victor duration = 9125 }
		}
	}
}




#Victory of the High Priest
country_event = {
	id = khet_civil_war.7
	title = khet_civil_war.7.t
	desc = khet_civil_war.7.d
	picture = DEATH_OF_HEIR_eventPicture
	
	fire_only_once = yes

	mean_time_to_happen = {
		days = 1
	}

	trigger = {
		tag = U02
		has_country_flag = in_khet_civil_war
		OR = {
			controls = 475
			is_year = 1450
		}
		war_score_against = { who = U01 value = 50 }
	}

	option = {
		name = khet_civil_war.7.a
		add_government_reform = nirat_priesthood_reform
		set_emperor_of_china = ROOT
		kheterat_proper_area = { cede_province = ROOT }
		upper_sorrow_area = { cede_province = ROOT }
		mothers_delta_area = {
			limit = { NOT = { owned_by = ROOT } }
			cede_province = ROOT
		}
		override_country_name = KHETERATA
		if = {
			limit = { U01 = { exists = yes } }
			U01 = { override_country_name = NEFASET }
			hidden_effect = { white_peace = U01 }
		}
		hidden_effect = { U01 = { clr_country_flag = in_khet_civil_war } }
		add_mandate = 20 
		set_meritocracy = 50
		set_government_rank = 2
		ai_chance = { factor = 100 }
	}

	#keep nirat name
	option = {
		name = khet_civil_war.7.b
		add_government_reform = nirat_priesthood_reform
		set_emperor_of_china = ROOT
		kheterat_proper_area = { cede_province = ROOT }
		upper_sorrow_area = { cede_province = ROOT }
		mothers_delta_area = {
			limit = { NOT = { owned_by = ROOT } }
			cede_province = ROOT
		}
		if = {
			limit = { U01 = { exists = yes } }
			U01 = { override_country_name = NEFASET }
			hidden_effect = { white_peace = U01 }
		}
		hidden_effect = { U01 = { clr_country_flag = in_khet_civil_war } }
		add_mandate = 20 
		set_meritocracy = 50
		set_government_rank = 2
		ai_chance = { factor = 0 }
	}

	after = { 
		hidden_effect = {
			475 = { change_religion = nirakhetist }
			random_owned_province = {
				limit = { NOT = { religion = nirakhetist } }
				change_religion = nirakhetist
			}
			clr_country_flag = in_khet_civil_war #in after otherwise reform breaks
			U10 = { clr_country_flag = in_khet_civil_war }
			if = {
				limit = { ai = yes }
				add_treasury = 200
				add_manpower = 10
				add_adm_power = 100
				add_dip_power = 50
				add_mil_power = 50
				add_stability_or_adm_power = yes
				set_ai_personality = { personality = ai_militarist locked = no }
				add_mandate = 10
				remove_country_modifier = mandate_new_steward #this is added to the next AI specific modifier
				add_country_modifier = { name = mandate_ai_civil_war_victor duration = 9125 }
			}
			gol_region = { remove_core = U01 }
		}
	}
}



#Brrtekuh victory
country_event = {
	id = khet_civil_war.10
	title = khet_civil_war.10.t
	desc = khet_civil_war.10.d
	picture = DEATH_OF_HEIR_eventPicture

	
	
	fire_only_once = yes

	mean_time_to_happen = {
		days = 1
	}

	trigger = {
		tag = U10
		has_country_flag = in_khet_civil_war
		ohitsopot_area = { 
			type = all 
			OR = {
				controlled_by = ROOT 
				controlled_by = U07 #viakkoc
				controlled_by = U02 #nirat
			}
		}
		462 = {
			OR = {
				controlled_by = ROOT 
				controlled_by = U07 #viakkoc
				controlled_by = U02 #nirat
			}
		}
		503 = {
			OR = {
				controlled_by = ROOT 
				controlled_by = U07 #viakkoc
				controlled_by = U02 #nirat
			}
		}
	}
	option = {
		name = khet_civil_war.10.a
		clr_country_flag = in_khet_civil_war
		ohitsopot_area = {
			limit = { NOT = { province_id = 454 } }
			add_core = ROOT
			cede_province = ROOT
		}
		462 = { add_core = ROOT cede_province = ROOT }
		503 = { add_core = ROOT cede_province = ROOT }
		add_church_power = 100
		hidden_effect = {
			if = {
				limit = { exists = U01 }
				white_peace = U01
			}
		}
		if = {
			limit = { has_country_flag = viakkoc_joins_civil_war }
			custom_tooltip = khet_civil_war.10.tooltip
			clr_country_flag = viakkoc_joins_civil_war
			ohitsopot_area = {
				limit = { NOT = { province_id = 454 } }
				add_base_tax = -1
				add_base_manpower = -1
				add_devastation = 25
			}
			462 = { add_base_tax = -1 add_base_manpower = -1 add_devastation = 25 }
			503 = { add_base_tax = -1 add_base_manpower = -1 add_devastation = 25 }
			hidden_effect = { U07 = { country_event = { id = khet_civil_war.11 days = 3 } } }
		}
	}
}

#Viakkoc's payment
country_event = {
	id = khet_civil_war.11
	title = khet_civil_war.11.t
	desc = khet_civil_war.11.d
	picture = DEATH_OF_HEIR_eventPicture
	
	fire_only_once = yes
	is_triggered_only = yes

	trigger = { tag = U07 }

	option = {
		name = khet_civil_war.11.a
		add_treasury = 50
		add_patriarch_authority = 0.25
		385 = { 
			galley = ROOT
			galley = ROOT
			galley = ROOT
		}
	}
}