# All global modifiers are here. They are applied from certain game-features.
#
# Effects are fully scriptable here.

# These names can NOT be removed or changes, as the code uses them....

# Anbennar Changes
# Added adv_faction influence to stuff

################
null_modifier = {
}
################

##########################################################################
# Handicap Modifiers for human player
##########################################################################

difficulty_very_easy_player = {
	global_manpower_modifier = 0.5
	manpower_recovery_speed = 0.50
	land_forcelimit_modifier = 0.5
	naval_forcelimit_modifier = 0.5
	production_efficiency = 0.5
	global_tax_income = 60
	global_regiment_cost = -0.33
	global_ship_cost = -0.33
	inflation_reduction = 0.05
	global_unrest = -5
	war_exhaustion = -0.05
	core_creation = -0.25
	advisor_pool = 1
	diplomatic_upkeep = 1
	free_leader_pool = 1
	diplomatic_reputation = 2
	interest = -2
	improve_relation_modifier = 0.10
	ae_impact = -0.33
	yearly_corruption = -1.0
}

difficulty_easy_player = {
	manpower_recovery_speed = 0.50
	global_unrest = -5
	interest = -2
	ae_impact = -0.33
	yearly_corruption = -1.0
}

difficulty_normal_player = {
}

difficulty_hard_player = {
}

difficulty_very_hard_player = {
}

##########################################################################
# Handicap Modifiers for AI
##########################################################################

difficulty_very_easy_ai = {
}

difficulty_easy_ai = {
}

difficulty_normal_ai = {
}

difficulty_hard_ai = {
	manpower_recovery_speed = 0.50
	global_unrest = -1
	war_exhaustion = -0.05
	interest = -1
	ae_impact = -0.33
	missionary_maintenance_cost = -0.15

}

difficulty_very_hard_ai = {
	manpower_recovery_speed = 0.50
	global_manpower_modifier = 0.5
	land_forcelimit_modifier = 0.5
	naval_forcelimit_modifier = 0.5
	global_regiment_cost = -0.33
	global_ship_cost = -0.33
	inflation_reduction = 0.05
	global_unrest = -2
	war_exhaustion = -0.05
	core_creation = -0.25
	idea_cost = -0.25
	interest = -1
	improve_relation_modifier = 0.5
	development_cost = -0.2
	build_cost = -0.25
	ae_impact = -0.33
	missionary_maintenance_cost = -0.3
}


##########################################################################
# Provincial Static Modifiers
##########################################################################

city = {
	local_tax_modifier = 0.25
	allowed_num_of_buildings = 2
	local_sailors_modifier = 0.25
	garrison_growth = 0.05
	allowed_num_of_manufactories = 1
}

port = {
	local_institution_spread = 0.10
	#Anbennar
	#local_has_geobukseon = yes #1.35
	local_has_voc_indiamen = yes #1.35
}

in_state = {
	local_institution_spread = 0.10
}

in_capital_state = {
	local_institution_spread = 0.05
	local_state_maintenance_modifier = -0.5
	local_governing_cost = -1.0
	local_has_qizilbash = yes
}

coastal = {
	supply_limit_modifier = 0.5
	province_trade_power_modifier = 0.25
}

seat_in_parliament = {
	local_manpower_modifier = 0.1
	local_sailors_modifier = 0.1 #1.35
	local_tax_modifier = 0.15 #1.35
	local_production_efficiency = 0.1
}

non_coastal = {
}

coastal_sea = {
	local_naval_engagement_modifier = -0.20
}

tropical = {
	local_colonial_growth = -10
	supply_limit_modifier = -0.3
	local_hostile_attrition = 2

	local_development_cost = 0.05 #1.35

	picture = "climate_tropical"
}

arctic = {
	local_colonial_growth = -10
	supply_limit_modifier = -0.4
	local_hostile_attrition = 1

	allowed_num_of_buildings = -1
	local_development_cost = 0.5

	picture = "climate_arctic"
}

arid = {
	local_colonial_growth = -10
	supply_limit_modifier = -0.2
	local_hostile_attrition = 1

	local_development_cost = 0.1

	picture = "climate_arid"
}

sea_zone = {
	max_attrition = 5						#Maximum Attrition is 5
}

land_province = {
	max_attrition = 5						#Maximum Attrition is 5
	local_manpower_modifier = 0.25			#25% of manpower.
	local_has_musketeers = yes #1.35
	local_has_streltsy = yes #1.35
	local_has_mamluks = yes
}

mild_winter = {
	local_hostile_attrition = 1
	supply_limit_modifier = -0.1

	picture = "winter_mild"
}

normal_winter = {
	local_hostile_attrition = 2
	supply_limit_modifier = -0.2
	migration_cost = 0.1

	picture = "winter_normal"
}

severe_winter = {
	local_hostile_attrition = 3
	supply_limit_modifier = -0.3
	migration_cost = 0.2

	picture = "winter_severe"
}

mild_monsoon = {
	local_hostile_attrition = 0.5
	local_hostile_movement_speed = -0.20
	local_friendly_movement_speed = -0.20

	picture = "monsoon_mild"
}

normal_monsoon = {
	local_hostile_attrition = 1
	local_hostile_movement_speed = -0.25
	local_friendly_movement_speed = -0.25

	picture = "monsoon_normal"
}

severe_monsoon = {
	local_hostile_attrition = 1.5
	local_hostile_movement_speed = -0.50
	local_friendly_movement_speed = -0.50

	picture = "monsoon_severe"
}

blockaded = {
	regiment_recruit_speed = 0.2
	ship_recruit_speed = 0.2
	local_monthly_devastation = 0.25
	province_trade_power_modifier = -1 #1.35
}

no_adjacent_controlled = {
	local_colonial_growth = -5
}

provincial_tax_income = {
	regiment_recruit_speed = -0.02 #1.35
	local_great_project_upgrade_time = -0.01 #1.35
	local_build_time = -0.01 #1.35
	local_institution_spread = 0.02 #1.35
}

provincial_production_size = {
	trade_goods_size = 0.2
	ship_recruit_speed = -0.01
}

knowledge_sharing = {
	institution_growth = 12
	monthly_russian_modernization = 0.06 #1.35
}

cardinals_spread_institution = {
	institution_growth = 20
}

manpower = {
	garrison_growth = 0.01					#1% increase from manpower.
}

province_razed = {
	picture = "province_razed"
}

development = {
	allowed_num_of_buildings = 0.1
	supply_limit_modifier = 0.02
	local_missionary_strength = -0.001
	land_forcelimit	= 0.1			# special case, affected by autonomy
	naval_forcelimit = 0.1			# special case, affected by autonomy & set to 0 by code if not port
	local_sailors = 60			# special case, affected by autonomy & set to 0 by code if not port
	province_trade_power_value = 0.2
	local_amount_of_banners = 0.066
	local_amount_of_cawa = 0.125
	local_amount_of_hussars = 0.01
}

development_scaled = {
	local_development_cost = 0.03
}

capital_city = {
	fort_level = 1
}

#Anbennar - all patriarch
patriarch_state = {
	local_unrest = -2
	local_tax_modifier = 0.15
}

# Multiplied in provinces of same religion.
patriarch_authority_local = {

}

#for the country
patriarch_authority_global = {
	shock_damage = 0.2
	tolerance_heathen = -3
	raze_power_gain = 0.25
	technology_cost = 0.1
	yearly_patriarch_authority = -0.04
}

pasha_state = {
	local_state_maintenance_modifier = -0.5
	local_unrest = -2
	local_build_cost = 0.2
	local_regiment_cost = 0.2
}

colony_level = {
	local_colonist_placement_chance = -0.01
	local_tax_modifier = 0.02
	
	#Anbennar
	adv_pioneers_influence = 0.05
}

native_assimilation = {
	trade_goods_size = 0.05
}

native_aggressiveness = {
	#local_colonist_placement_chance = -0.005
}

core = {
	local_tax_modifier = 0.75				#90% more in a core
	local_manpower_modifier = 0.75			#75% more in a core
	local_sailors_modifier = 0.75
}

non_core = {
	local_missionary_strength = -0.02
}

colonial_core = {
	local_tax_modifier = 0.75				#90% more in a core
	local_manpower_modifier = 0.75			#75% more in a core
	local_sailors_modifier = 0.75
	local_missionary_strength = -0.02
	min_local_autonomy = 50
	local_governing_cost = -0.5
}

territory_core = {
	local_tax_modifier = 0.75				#90% more in a core
	local_manpower_modifier = 0.75			#75% more in a core
	local_sailors_modifier = 0.75
	local_missionary_strength = -0.02
	min_local_autonomy = 90
	local_governing_cost = -0.75
}

territory_non_core = {
	local_missionary_strength = -0.02
	min_local_autonomy = 90
	local_governing_cost = -0.75
}

march_bonus = {
	global_manpower_modifier = 0.25
	land_forcelimit_modifier = 0.30
	naval_forcelimit_modifier = 0.30
	defensiveness = 0.2
	fort_maintenance_modifier = -0.20
	manpower_recovery_speed = 0.20
	land_maintenance_modifier = -0.20
	naval_maintenance_modifier = -0.20
}

pu_subject_bonus = {
	global_manpower_modifier = 0.25
	land_forcelimit_modifier = 0.30
	naval_forcelimit_modifier = 0.30
	defensiveness = 0.2
	fort_maintenance_modifier = -0.20
	manpower_recovery_speed = 0.20
	land_maintenance_modifier = -0.20
	naval_maintenance_modifier = -0.20
}

pu_overlord_bonus = {
	global_manpower = 4
	global_sailors = 2000
	global_manpower_modifier = 0.05
	global_sailors_modifier = 0.05
}

# gbr_emperor_of_india_subject_bonus = {
# 	global_trade_goods_size_modifier = 0.15
# }

# gbr_emperor_of_india_overlord_bonus = {
# 	trade_efficiency = 0.1
# 	reduced_trade_penalty_on_non_main_tradenode = 0.25
# }

same_culture_group = {
	local_tax_modifier = -0.15				#10% penalty if same culture group but nothing else. Not applied if the controller is the Union Tag of the culture group, or has culture_group_union set.
	local_manpower_modifier = -0.15
	local_sailors_modifier = -0.1
}

non_accepted_culture = {
	# monthly_persian_influence = -0.01
	local_tax_modifier = -0.33
	local_missionary_strength = -0.02
	local_manpower_modifier = -0.33
	local_sailors_modifier = -0.2
	local_unrest = 2					#1% revolt risk!
}

accepted_culture_demoted = {
	local_unrest = 5
}

# Special modifier to the above, for non-tribal republics
non_accepted_culture_republic = {
	local_tax_modifier = 0.1
	local_manpower_modifier = 0.1
	local_sailors_modifier = 0.05
	local_unrest = -0.5
}

occupied = {
	local_tax_modifier = -0.5
	trade_goods_size_modifier = -0.5
	province_trade_power_modifier = -0.5
	local_manpower_modifier = -0.5
	local_sailors_modifier = -0.5
	local_institution_spread = -0.1

	local_monthly_devastation = 0.2
}

under_siege = {
	trade_goods_size_modifier = -0.25
	province_trade_power_modifier = -0.25
	local_institution_spread = -0.1

	local_monthly_devastation = 0.1
}


devastation = { #1.35
	trade_goods_size_modifier = -2
	supply_limit_modifier = -0.5
	local_institution_spread = -2.0
	local_development_cost = 0.2
	local_manpower_modifier = -2.0
	local_sailors_modifier = -2.0
	local_hostile_movement_speed = -0.25
	local_friendly_movement_speed = -0.25
}

prosperity = {
	local_development_cost = -0.1
	trade_goods_size_modifier = 0.25
	local_autonomy = -0.05

	#ANBENNAR
	beso_kheinbhen_influence = 0.001
}

slaves_raided = {
	picture = "raided_for_slaves"
}


# Multiplied with positive religious tolerance
tolerance = {
	local_unrest = -1
}

# Multiplied with negative religious tolerance
intolerance = {
	local_unrest = -1.25
	local_tax_modifier = 0.1
	trade_goods_size_modifier = 0.10
}

unrest = {
	regiment_recruit_speed = 0.1			#10% longer time to build troops for each rr
	ship_recruit_speed = 0.1
	local_tax_modifier = -0.02 #1.35
}

nationalism = {
	local_unrest = 0.5					#for each year revolt risk!
}

harsh_treatment = {
	local_unrest = -10
}

local_autonomy_multiplicative = {
	local_manpower_modifier = -1.0
	local_sailors_modifier = -1.0
	local_tax_modifier = -1.0
	local_production_efficiency = -1.0
	province_trade_power_modifier = -0.5
	land_forcelimit_modifier = -1.0 # Misleading, only used to avoid errors when applying effect of Estates in code.
	naval_forcelimit_modifier = -1.0 # Misleading, only used to avoid errors when applying effect of Estates in code.
}

local_autonomy = {
}

local_autonomy_trade_company_multiplicative = {
	local_manpower_modifier = -1.0
	local_sailors_modifier = -1.0
	local_tax_modifier = -1.0
	local_production_efficiency = -0.5
	land_forcelimit_modifier = -1.0
}

local_autonomy_trade_company = {
}

recent_uprising = {
	local_unrest = -100
	picture = "recent_uprising"
}


friendly_regiments = {
	local_unrest = -1.0				#-1% for each friendly regiment in the province.
}

active_missionary = {
	local_unrest = 6					# 6% revolt risk!
	local_institution_spread = -0.10
}

# Core province of the owner's culture group, while fighting a defensive war
national_defense = {
	local_unrest = -5
}


# penalty when migrant have been there recently.
resource_depleted = {
	# Not used anymore, however if you add it, will be applied again. Kept it for modders
}

in_trade_company = {
	province_trade_power_modifier = 1
	naval_forcelimit = 0.5
	local_missionary_strength = -0.2 #1.35
	local_institution_spread = 0.10
	local_governing_cost = 0.25
}

left_trade_company = {
	trade_goods_size_modifier = -2.0
}


scorched_earth = {
	local_hostile_movement_speed = -0.50
	local_monthly_devastation = 0.25
}

##########################################################################
# Global Static Modifiers
##########################################################################

base_values = {
	max_absolutism = 65
	merchants = 2							#Start with 2 merchants
	diplomats = 2							#Start with 2 diplomats..
	missionaries = 1						#1 missionary
	army_tradition_decay = 0.05				#lose 5% yearly
	navy_tradition_decay = 0.05				#lose 5% yearly
	prestige_decay = 0.05					#lose 5% prestige each year
	tolerance_own = 3
	diplomatic_upkeep = 4
	tolerance_heathen = -3
	tolerance_heretic = -2
	global_missionary_strength = 0.02
	global_manpower = 10.0
	advisor_pool = 3
	colonist_placement_chance = 0.1
	free_leader_pool = 1
	republican_tradition = 1
	monthly_fervor_increase = 1
	vassal_income = 0.10
	horde_unity = -2
	devotion = -0.5
	meritocracy = -1
	governing_capacity = 200
	num_accepted_cultures = 2
	monthly_splendor = 1
	artillery_levels_available_vs_fort = 5
	cav_to_inf_ratio = 0.5
	merc_maintenance_modifier = 0.1 #1.35
	monthly_heir_claim_increase = 0.208
	tolerance_of_heretics_capacity = 3
	tolerance_of_heathens_capacity = 3
	max_flagships = 1 #1.35
	num_of_parliament_issues = 10 #1.35
	has_marines = yes
}

# AI 'cheats' that compensate for flaws in its long-term decision making, removing these may severely cripple the AI
ai_nation = {
	diplomats = 1 							# ai has to reserve a diplomat for short term action so it gets an extra to put it on equal footing with player
	free_leader_pool = 1					# ai needs to have enough pool for 1 general & 1 admiral
	sailors_recovery_speed = 0.25
}



war_taxes = {
	land_maintenance_modifier = -0.15
	naval_maintenance_modifier = -0.15
	merc_maintenance_modifier = -0.05
}

stability = {
	global_trade_power = 0.01			#1% chance each step.
	global_spy_defence = 0.05				#-15 to +15% modifier
}

positive_stability = {
	global_unrest = -1					#-1% revolt risk each step
	global_tax_modifier = 0.05
	global_missionary_strength = 0.005
	temples_influence = 0.02
	mr_aristocrats_influence = 0.03
	rr_jacobins_influence = 0.03
	stability_cost_modifier = 0.50
	monthly_fervor_increase = 1
	devotion = 0.5
	yearly_corruption = -0.02
	global_institution_spread = 0.05
	yearly_harmony = 0.25
	monthly_ottoman_decadence = -0.05
 
	#Anbennar
	adv_pioneers_influence = 0.03
	nl_cooperatists_influence = 0.05
	mages_loyalty_modifier = 0.02
	pen_harmaceuticals_influence = 0.02
	monthly_allclan_pandemonium_power = -0.05
	monthly_argordstun_luster_power = 0.05
	monthly_argordstun_roughness_power = -0.02
	monthly_caravan_preparation = 0.08
	monthly_gronstunad_authority_power = 0.25
}

privateering = {
	pr_captains_influence = 0.1
}

negative_stability = {
	global_unrest = -2					#-1% EXTRA revolt risk each step
	legitimacy = 1
	interest = -1
	migration_cost = 0.1
	devotion = 1
	caravan_power = 0.05
	yearly_harmony = 0.25
	monthly_russian_modernization = 0.03
	monthly_ottoman_decadence = -0.15

	#Anbennar
	monthly_adventurer_unity = 0.05
	mages_loyalty_modifier = 0.02
	pen_clodhoppers_influence = 0.003
	monthly_allclan_pandemonium_power = 0.05
	monthly_argordstun_luster_power = 0.05
	monthly_argordstun_roughness_power = -0.02
	monthly_caravan_preparation = -0.08
	tec_brilliance_influence = -0.066
	monthly_gronstunad_authority_power = -1.0

	yearly_authority = 1
}
#Anbennar
positive_mandate = {	# 100% strength at 100 mandate, 0% at 50 mandate
	global_unrest = -2
	ahati_loyalty_modifier = 0.1
	stability_cost_modifier = -0.2
}
#Anbennar
negative_mandate = { # By default, starts at 50 mandate, 100% strength at 0 mandate
	global_unrest = 5	
	ahati_loyalty_modifier = -0.2
	land_morale = -0.1
	global_tax_modifier = -0.3
	production_efficiency = -0.3
	reduced_liberty_desire = -25 
	meritocracy = -0.5
}
#Anbennar
lost_mandate_of_heaven = {
	land_morale = -0.1
	stability_cost_modifier = 0.5
	global_unrest = 5
	reduced_liberty_desire = -50
	legitimacy = -1
}

cancelled_loan = {
	#no effects
}

bank_loan = {
	#no effects
}

inflation = { #1.35
	build_cost = 0.01									#1% for each inflation step.
	infantry_cost = 0.01								#1% for each inflation step
	cavalry_cost = 0.01									#1% for each inflation step
	artillery_cost = 0.01								#1% for each inflation step
	heavy_ship_cost = 0.01								#1% for each inflation step
	light_ship_cost = 0.01								#1% for each inflation step
	galley_cost = 0.01									#1% for each inflation step
	transport_cost = 0.01								#1% for each inflation step
	flagship_cost = 0.01								#1% for each inflation step
	advisor_cost = 0.01									#1% for each inflation step
	mercenary_cost = 0.01								#1% for each inflation step
	fort_maintenance_modifier = 0.01					#1% for each inflation step
	missionary_maintenance_cost = 0.01					#1% for each inflation step
	colony_cost_modifier = 0.01							#1% for each inflation step
	great_project_upgrade_cost = 0.01					#1% for each inflation step
	embracement_cost = 0.01								#1% for each inflation step
	colonial_subject_type_upgrade_cost_modifier = 0.01	#1% for each inflation step
	colonial_type_change_cost_modifier = 0.01			#1% for each inflation step
	center_of_trade_upgrade_cost = 0.01					#1% for each inflation step
	trade_company_investment_cost = 0.01				#1% for each inflation step
	state_maintenance_modifier = 0.01					#1% for each inflation step
	monthly_russian_modernization = -0.01

	#Anbennar
	tec_mechanists_influence = -0.002
}

bankruptcy = {
	interest = 5
	land_morale = -0.5
	naval_morale = -0.5
	reinforce_speed = -0.25					#Slower reinforce
	bureaucrats_influence = 0.25
	mr_guilds_influence = 0.25
	manpower_recovery_speed = -1.0
	sailors_recovery_speed = -1.0
	advisor_cost = 0.5
	monthly_fervor_increase = -1
	global_autonomy = 0.05
	global_institution_spread = -0.50
	monthly_adventurer_unity = -0.5
	monthly_prussian_militarized_society_1 = 0.02
	monthly_prussian_militarized_society_2 = 0.05
	monthly_prussian_militarized_society_3 = 0.075
	yearly_absolutism = -2.0
	technology_cost = 0.5
	idea_cost = 0.5
	imperial_mandate = -0.1
	great_project_upgrade_cost = 0.5
	monthly_russian_modernization = -1

	#Anbennar
	adv_fortune_seekers_influence = 0.25
	pen_erectors_influence = -0.25
}


war = {
	monthly_adventurer_unity = 0.1
	rr_girondists_influence = 0.15
	
	#Anbennar
	adv_marchers_influence = 0.1
	nl_old_guard_influence = 0.15
	pen_cloak_and_swagger_influence = 0.1
	monthly_drakonshan_authority_power = -0.3
	beso_dhorbhen_influence = 0.5
}

peace = {
	war_exhaustion = -0.1
	monthly_fervor_increase = 1
	global_autonomy = -0.1
	global_institution_spread = 0.1
	rr_girondists_influence = -0.1
	pr_smugglers_influence = 0.1
	monthly_adventurer_unity = -0.1
	monthly_ottoman_decadence = 0.1
	# monthly_asha_vahishta = 0.25

	#Anbennar
	adv_pioneers_influence = 0.1
	pen_erectors_influence = 0.05
	pen_harmaceuticals_influence = 0.05
	monthly_caravan_preparation = 0.33
}

unconditional_surrender = {
	war_exhaustion = -0.1
	global_autonomy = -0.1
	global_institution_spread = 0.1
}

call_for_peace = {
	war_exhaustion = 0.005 #1.35
}

war_exhaustion = {
	global_unrest = 1
	global_regiment_recruit_speed = 0.02
	global_ship_recruit_speed = 0.02
	core_creation = 0.03
	temples_influence = -0.05
	mr_aristocrats_influence = -0.05
	rr_girondists_influence = -0.05
	rr_royalists_influence = 0.05
	manpower_recovery_speed = -0.01
	sailors_recovery_speed = -0.01
	siege_ability = -0.01
	global_trade_goods_size_modifier = -0.02
	monthly_adventurer_unity = -0.05

	#Anbennar
	adv_marchers_influence = 0.05
	tec_brilliance_influence = -0.1
	pen_cloak_and_swagger_influence = -0.05
}

doom = {
	technology_cost = 0.5
	idea_cost = 0.2
	ae_impact = -1
}

authority = {
	stability_cost_modifier = -0.1
	global_unrest = -2
	church_influence_modifier = 0.15
}

regency_council = {
	stability_cost_modifier = 0.25
}

trade_efficiency = {
	allowed_voc_indiamen_fraction = 0.25	#At 100% Trade Efficiency you get 25% available Sunchasers
}

production_efficiency = {
	colonist_placement_chance = 0.2			#0.2 for each 1% of PE (ie, if 100% PE, 20% bonus added.)
}

trade_refusal = {
	trade_efficiency = -0.05
}

mercantilism = {
	global_prov_trade_power_modifier = 2.0
	embargo_efficiency = 1 #1.35
	burghers_loyalty_modifier = 0.1
	#vaisyas_loyalty_modifier = 0.1

	#Anbennar
	adv_fortune_seekers_influence = 0.2

	nl_trade_barons_influence = 0.1 # Does this make sense for the free trade dudes lol?
	beso_nautabhen_influence = 0.1
}

army_tradition = {
	recover_army_morale_speed = 0.1
	land_morale = 0.25
	manpower_recovery_speed = 0.1
	siege_ability = 0.05
	temples_influence = 0.1
	mr_aristocrats_influence = 0.1
	rr_girondists_influence = 0.1
	#monthly_adventurer_unity = 0.025	#Anbennar removed
	nobles_loyalty_modifier = 0.05
	#maratha_loyalty_modifier = 0.05
	#rajput_loyalty_modifier = 0.05
	#janissaries_loyalty_modifier = 0.05 #1.35
	# #qizilbash_loyalty_modifier = 0.05
	# #ghulams_loyalty_modifier = 0.05
	allowed_tercio_fraction = 0.1 #1.35
	allowed_samurai_fraction = 0.1 #1.35

	#Anbennar
	adv_marchers_influence = 0.1
	nl_old_guard_influence = 0.1
	pen_cloak_and_swagger_influence = 0.1
	tec_technomancy_influence = 0.4
}

navy_tradition = {
	recover_navy_morale_speed = 0.1
	naval_morale = 0.25
	trade_steering = 1.0
	privateer_efficiency = 0.25
	enuchs_influence = 0.1
	mr_traders_influence = 0.1
	blockade_efficiency = 1
	sailors_recovery_speed = 0.2
	burghers_loyalty_modifier = 0.05
	#vaisyas_loyalty_modifier = 0.05
	#Anbennar
	#allowed_geobukseon_fraction = 0.5 #1.35
	allowed_galleass_fraction = 0.5 #1.35

	#Anbennar
	pen_discombobulatorium_influence = 0.1
}

positive_piety = { #Anbennar - Used by High Philosophy - Pichka
	global_missionary_strength = 0.02
	culture_conversion_cost = -0.20
	province_warscore_cost = -0.10
	global_regiment_cost = -0.20
}

#For convenience, its multiplied by negative piety in code.
negative_piety = { #Anbennar - Used by High Philosophy - Dekhana
	war_exhaustion = -0.05
	yearly_corruption = -0.2
	reform_progress_growth = 0.2
	state_maintenance_modifier = -0.25
}

defender_of_faith = {
	land_morale = 0.05
	naval_morale = 0.05
	technology_cost = 0.05
	war_exhaustion = -0.025					#quicker recovery
	papal_influence = 1
	church_power_modifier = 0.1
	monthly_fervor_increase = 1
	prestige = 1							#1% extra prestige yearly
	missionaries = 1
	devotion = 0.5
	# monthly_asha_vahishta = 0.25
}

defender_of_faith_refused_cta = {
	diplomatic_reputation = -1
	# monthly_asha_vahishta = -2
}

emperor = {
	spy_offence = 0.1					#minor bonus on spies.
	advisor_pool = 1
	diplomatic_upkeep = 1
	free_leader_pool = 1
	prestige = 1
}

states_in_hre = {							#bonuses for each non-free city with capital in HRE.. as emperor
	land_forcelimit	= 0.5					#each state increases forcelimit by 0.5
	global_manpower = 0.5					#each gives 0.5 MP to the emperor.
}

free_cities_in_hre = {							#bonuses for each free city in the HRE.. as emperor
	global_tax_income = 2
	global_manpower = 1
	land_forcelimit	= 0.5
}

free_city_in_hre = {
	global_tax_income = 3
	diplomatic_reputation = 1
}

member_in_hre = {
	diplomatic_reputation = 1
}

#for each non-core if in the empire, and also a prince.
occupied_imperial = {
	prestige = -1
	legitimacy = -0.5
}

emperor_revoked_reform =  {
	diplomatic_reputation = -3
}

num_of_marriages = {
	legitimacy = 0.10
	heir_chance = 0.05
	improve_relation_modifier = 0.01
}

num_of_provinces = {
	
	#Anbennar
	monthly_adventurer_unity = -0.02
	adv_fortune_seekers_influence = 0.01
	pen_clodhoppers_influence = 0.0005
}

# Multiplied by the amount of papal influence
papal_influence = {
}

# Multiplied by the amount of Church Power
church_power = {
}

# Multiplied by the amount of Fervor
fervor = {
	build_cost = -0.001
	global_trade_power = 0.001
	years_of_nationalism = -0.05
}

# Multiplied by the amount of Karma
karma = {
}

# Multiplied by the amount of positive karma
positive_karma = {
}

# Multiplied by the amount of negative karma
negative_karma = {
}

# Multiplied by Development/COUNTRY_DEVELOPMENT_SCALE
country_development = {
	horde_unity = -3
	#Anbennar
	monthly_adventurer_unity = -0.001
}

# Multiplied by Tribal Allegiance / 100
tribal_allegiance = {
	manpower_recovery_speed = 0.33
	global_unrest = -3
}

# Multiplied by current Legitimacy - 50
legitimacy = {
	global_unrest = -4
	tolerance_own = 2
	tolerance_heathen = 2
	tolerance_heretic = 2
	diplomatic_reputation = 2
	vassal_income = 0.1
	#monthly_adventurer_unity = 0.05
	max_absolutism = 20
	nobles_loyalty_modifier = 0.1
	yearly_authority = 0.5
	#anbennar
	monthly_drakonshan_authority_power = 0.30
}

#Multiplied by current Horde Unity - 50
horde_unity = {
	global_unrest = -4
	discipline = 0.10
	#nomadic_tribes_loyalty_modifier = 0.05	#New Change
}


# Multiplied by current Devotion - 50
devotion = {
	papal_influence = 2
	monthly_fervor_increase = 2
	church_power_modifier = 0.5
	harmonization_speed = 0.5
	monthly_piety_accelerator = 0.01
	yearly_authority = 0.5
	yearly_patriarch_authority = 0.01
	yearly_doom_reduction = 0.5
	yearly_karma_decay = 0.1
	prestige = 2
	global_tax_modifier = 0.50
	church_loyalty_modifier = 0.1
	#brahmins_hindu_loyalty_modifier = 0.1
	reform_progress_growth = 0.5
	
	#Anbennar
	mages_loyalty_modifier = 0.05
}

#Anbennar
# Multiplied by current meritocracy - 50 #auirus translation: half these numbers is what you get at 100 meritocracy 
meritocracy = {
	diplomatic_reputation = 4
	advisor_pool = 6
	administrative_efficiency = 0.1
	monarch_lifespan = 0.5
}
#Anbennar
# Multiplied by 50 - meritocracy #auirus translation: half these numbers is what you get at 0 meritocracy, in addition to the modifiers above
low_meritocracy = {
}

# Scaled, multiplied by current corruption / 100
corruption = {
	global_spy_defence = -0.25
	spy_offence = -0.50
	all_power_cost = 1.0
	min_autonomy = 50
	global_unrest = -20
	imperial_mandate = -1
	#brahmins_hindu_loyalty_modifier = 0.1
	#brahmins_muslim_loyalty_modifier = 0.1
	#brahmins_other_loyalty_modifier = 0.1
	church_loyalty_modifier = 0.1
	#maratha_loyalty_modifier = 0.1
	nobles_loyalty_modifier = 0.1
	burghers_loyalty_modifier = 0.1
	#vaisyas_loyalty_modifier = 0.1
	cossacks_loyalty_modifier = 0.1
	nomadic_tribes_loyalty_modifier = 0.1
	#dhimmi_loyalty_modifier = 0.1
	#jains_loyalty_modifier = 0.1
	#rajput_loyalty_modifier = 0.1
	#eunuchs_loyalty_modifier = 0.1 #1.35
	#janissaries_loyalty_modifier = 0.1 #1.35
	# #qizilbash_loyalty_modifier = 0.1
	# #ghulams_loyalty_modifier = 0.1
	monthly_heir_claim_increase = 0.025
	monthly_russian_modernization = -1
	monthly_ottoman_decadence = 10

	#Anbennar
	adv_fortune_seekers_influence = 0.05
	nl_trade_barons_influence = 0.05
	pen_harmaceuticals_influence = 0.05
	tec_mechanists_influence = -0.2
	
	vampires_loyalty_modifier = 0.1
	mages_loyalty_modifier = 0.01
	artificers_loyalty_modifier = 0.1
	adventurers_loyalty_modifier = 0.1
	monstrous_tribes_loyalty_modifier = 0.1
	uppercastes_loyalty_modifier = 0.1
    middlecastes_loyalty_modifier = 0.1
    lowercastes_loyalty_modifier = 0.1
    middlecastes_loyalty_modifier = 0.1
    raj_ministries_loyalty_modifier = 0.1
    eunuchs_anb_loyalty_modifier = 0.1
    daulophs_loyalty_modifier = 0.1
    shinukhorchi_loyalty_modifier = 0.1
    chumijemoya_loyalty_modifier = 0.1
    ajgriijarul_loyalty_modifier = 0.1
    kabiurgarko_loyalty_modifier = 0.1
    khelorvalshi_loyalty_modifier = 0.1    
    castonath_patricians_loyalty_modifier = 0.1
    gerunanin_loyalty_modifier = 0.1
    wolf_command_loyalty_modifier = 0.1
    boar_command_loyalty_modifier = 0.1
    lion_command_loyalty_modifier = 0.1
    tiger_command_loyalty_modifier = 0.1
    elephant_command_loyalty_modifier = 0.1
    dragon_command_loyalty_modifier = 0.1
    acolytes_loyalty_modifier = 0.1
	yearly_authority = -50
}

root_out_corruption = {
	yearly_corruption = -1.0
	
	#Anbennar
	adv_fortune_seekers_influence = -0.05
}

recovery_motivation = {
	global_tax_modifier = 0.5
	defensiveness = 0.25
	manpower_recovery_speed = 0.5
	army_tradition = 1
	navy_tradition = 1
	global_unrest = -5
	interest = -1
	horde_unity = 10
	
	#Anbennar
}


luck = {
	#core
	global_missionary_strength = 0.01
	stability_cost_modifier = -0.10
	global_institution_spread = 0.1
	monthly_splendor = 1

	#economy
	mercenary_cost = -0.2
	embracement_cost = -0.2
	interest = -1
	missionary_maintenance_cost = -0.1

	#military
	manpower_recovery_speed = 0.25
	defensiveness = 0.1
	siege_ability = 0.05

	#diplomacy
	spy_offence = 0.1
	improve_relation_modifier = 0.25

	#government
	global_unrest = -1
	republican_tradition = 0.5
	legitimacy = 1
	ae_impact = -0.25
	governing_capacity_modifier = 0.25

}

over_extension = {
	global_foreign_trade_power = -1.0
	stability_cost_modifier = 0.5
	mercenary_cost = 0.5
	diplomatic_reputation = -2
	improve_relation_modifier = -0.5
	global_unrest = 5
	bureaucrats_influence = 0.5
	mr_guilds_influence = 0.5
	yearly_corruption = 0.5
	ottoman_decadence_gain_modifier = 0.25

	#Anbennar
	adv_fortune_seekers_influence = 0.5			
	monthly_adventurer_unity = -0.05
	pen_cloak_and_swagger_influence = 0.05
}

prestige = {
	global_trade_power = 0.15			#+15/-15 total bonus from prestige.
	land_morale = 0.1
	naval_morale = 0.1
	global_spy_defence = 0.1				#+10/-10
	legitimacy = 1.0
	improve_relation_modifier = 0.5
	monthly_fervor_increase = 1
	ae_impact = -0.10
	embracement_cost = -0.1
	monthly_heir_claim_increase = 0.05

	# monthly_persian_influence = 0.25

	#brahmins_hindu_loyalty_modifier = 0.05
	#brahmins_muslim_loyalty_modifier = 0.05
	#brahmins_other_loyalty_modifier = 0.05
	church_loyalty_modifier = 0.05
	#maratha_loyalty_modifier = 0.05
	nobles_loyalty_modifier = 0.05
	burghers_loyalty_modifier = 0.05
	#vaisyas_loyalty_modifier = 0.05
	cossacks_loyalty_modifier = 0.05
	nomadic_tribes_loyalty_modifier = 0.05
	#dhimmi_loyalty_modifier = 0.05
	#jains_loyalty_modifier = 0.05
	#rajput_loyalty_modifier = 0.05
	#janissaries_loyalty_modifier = 0.05
	#eunuchs_loyalty_modifier = 0.05
	# #qizilbash_loyalty_modifier = 0.05
	# #ghulams_loyalty_modifier = 0.05

	#Anbennar
	adv_marchers_influence = 0.2
	monthly_adventurer_unity = 0.25
	nl_trade_barons_influence = 0.15
	vampires_loyalty_modifier = 0.05
	pen_discombobulatorium_influence = 0.025
	monthly_kalsyto_influence = 0.25 #Anbennar
	beso_caribhen_influence = 0.05
	
	mages_loyalty_modifier = 0.05
	artificers_loyalty_modifier = 0.05
	adventurers_loyalty_modifier = 0.05
	monstrous_tribes_loyalty_modifier = 0.05
	raj_ministries_loyalty_modifier = 0.05
	castonath_patricians_loyalty_modifier = 0.05
	yearly_authority = 0.5
}

no_debate_in_parliament = {
	yearly_corruption = 0.1
}


republican_tradition = {
	global_unrest = -2
	rr_jacobins_influence = 0.1
	reform_progress_growth = 1.0
	burghers_loyalty_modifier = 0.05
	#vaisyas_loyalty_modifier = 0.05
	
	#Anbennar
	nl_cooperatists_influence = 0.1
	pen_discombobulatorium_influence = 0.05
}

inverse_republican_tradition = {
	stability_cost_modifier = 2.0
	rr_jacobins_influence = -0.1
	tec_technomancy_influence = -0.2
	
	#Anbennar
}

########################################
# Curia-related modifiers
########################################

curia_controller = {
	diplomats = 1							#1 extra diplomat as curia controller
	prestige = 1							#1% extra prestige yearly
	stability_cost_modifier = -0.1			#10% cheaper stability
	advisor_pool = 2
	advisor_cost = -0.2
	free_leader_pool = 1
	ae_impact = -0.2
	technology_cost = -0.05
	church_loyalty_modifier = 0.1
	diplomatic_reputation = 1 #1.35
	diplomatic_annexation_cost = -0.1 #1.35

	#Anbennar
}

bought_indulgence = {
	papal_influence = 1
}

religious_unity = {
	monthly_fervor_increase = 1
	max_absolutism = 5
	church_loyalty_modifier = 0.05
	#brahmins_hindu_loyalty_modifier = 0.05
	yearly_harmony = 1

	#Anbennar
	pen_clodhoppers_influence = 0.05
	beso_kheinbhen_influence = 0.05
}

inverse_religious_unity = {
	stability_cost_modifier = 1.0		#more expensive to recover stability
	global_unrest = 3
	church_power_modifier = -1
	devotion = -1
	yearly_corruption = 0.1
	monthly_kalsyto_influence = -0.5 #Anbennar
	tec_technomancy_influence = -0.2
}

total_occupation = {
	war_exhaustion = 0.005					#increases exhaustion.
}

total_blockaded = {
	war_exhaustion = 0.10					#increases exhaustion.
	global_trade_power = -0.75
	trade_steering = -0.75
}

uncontested_cores = {
	prestige = -0.1
}


num_objectives_fullfilled = {
	monthly_splendor = 2
}

production_leader = {
	trade_goods_size_modifier = 0.10
}


trade_company_bonus = {
	trade_goods_size_modifier = 1.0
}

bonus_from_merchant_republics = {
	trade_goods_size_modifier = 0.5
}

bonus_from_merchant_republics_for_trade_league_member = {
	trade_goods_size_modifier = 1
}

merchant_republic_mechanics_modifier = {
	state_governing_cost = 0.25
	trade_company_governing_cost = -0.25
}

federation_leader = {
	diplomatic_reputation = 1
	land_morale = 0.1
}

pronoia_base_overlord_modifiers = {
	# land_forcelimit = -5
	# pronoia_amount_check_influence = 1 #used for exporting, invisible by default
}

pronoia_base_modifiers = {
	core_creation = 1
	overextension_impact_modifier = 1
	administrative_efficiency = -0.2
	global_manpower = 5
	global_manpower_modifier = 0.5 
	global_regiment_cost = -0.5
}

BYZ_pronoia_buff_army_tradition_modifier = {
	army_tradition = 0.2
}

BYZ_pronoia_land_forcelimit_penalty = {
	land_forcelimit = -5
}

BYZ_extra_forcelimit_for_pronoiars = {
	land_forcelimit = 5
}

BYZ_army_trad = {
	army_tradition = 3
}

BYZ_discipline = {
	discipline = 0.05
}

tributary_state_behind_overlord_tech_adm = {
	adm_tech_cost_modifier = -0.05
}

tributary_state_behind_overlord_tech_dip = {
	dip_tech_cost_modifier = -0.05
}

tributary_state_behind_overlord_tech_mil = {
	mil_tech_cost_modifier = -0.05
}

trade_protectorate_subject_modifier = { #1.35
	global_institution_spread = 0.25
	production_efficiency = 0.2
	diplomatic_upkeep = -1
}

trade_protectorate_low_development_subject_modifier = { #1.35
	technology_cost = -0.2
}

trade_protectorate_overlord_modifier = { #1.35
	global_trade_power = 0.05
	global_trade_goods_size_modifier = 0.02
}

liberty_desire = { #1.35
	#extra diplo slot when at least 80% LD so that they can ask for support
	diplomatic_upkeep = 1.25
}

is_great_power = {						#Only works with Rights of Man DLC enabled
	prestige_decay = -0.01
	embracement_cost = -0.1
	max_absolutism = 5
	
	#Anbennar
	monthly_adventurer_unity = -10
}

in_golden_era = {
	all_power_cost = -0.1
	global_trade_goods_size_modifier = 0.1
	land_morale = 0.1
	naval_morale = 0.1
	max_absolutism = 5
	max_revolutionary_zeal = 10
}

absolutism = {
	administrative_efficiency = 0.3
	discipline = 0.05
	core_decay_on_your_own = -0.5
	monthly_ottoman_decadence = -0.5

	#Anbennar
	monthly_drakonshan_authority_power = 0.30
}

low_army_professionalism = {
	mercenary_cost = -0.15
	mercenary_manpower = 0.15
}

high_army_professionalism = {
	fire_damage = 0.1
	shock_damage = 0.1
	siege_ability = 0.2
	drill_decay_modifier = -0.5
	allowed_samurai_fraction = 0.1 #1.35
	tec_mechanists_influence = 0.4
}

streltsy_modifier = { #1.35
}

cossacks_modifier = { #1.35
}

tercio_modifier = { #1.35
}

musketeers_modifier = { #1.35
}

samurai_modifier = { #1.35
}

qizilbash_modifier = {
}

mamluks_modifier = {
}

geobukseon_modifier = { #1.35
}

man_of_war_modifier = { #1.35
}

galleon_modifier = { #1.35
}

galleass_modifier = { #1.35
}

caravel_modifier = { #1.35
}

voc_indiamen_modifier = { #1.35
}

power_projection = {
	defensiveness = 0.1
	global_trade_power = 0.2
	prestige = 0.5
	land_morale = 0.1
	naval_morale = 0.1
	legitimacy = 0.5
	devotion = 0.5
	horde_unity = 0.5
	republican_tradition = 0.2
}

power_projection_25 = {
	free_leader_pool = 1
}

#100 Land Forcelimit = 1
land_forcelimit = {
    free_land_leader_pool = 1.25 #80 Army forcelimit -> +1 free leader
	num_of_pronoiars = 1
}

#100 Naval Forcelimit = 1
naval_forcelimit = {
    free_navy_leader_pool = 1.25 #80 Naval Forcelimit -> +1 Free Leader
	#ANBENNAR
	beso_nautabhen_influence = 0.05
}

trade_company_strong = {
	merchants = 1
}

large_colonial_nation = {
	merchants = 1
	global_trade_power = 0.05
	naval_forcelimit = 10
	land_forcelimit = 5
}

new_world_exploitation_modifier = {
	global_trade_goods_size_modifier = 0.1
}

gbr_colonial_investment = { #1.35
	production_efficiency = 0.5
	trade_efficiency = 0.5
}

crown_colony_overlord = {
	merchants = 1
	global_trade_power = 0.05
}

private_enterprise_overlord = {
	merchants = 1
	global_trade_power = 0.05
	global_tariffs = -0.05
}

self_governing_colony_overlord = {
	merchants = 1
	global_trade_power = 0.05
	global_tariffs = -0.10
}

crown_colony_subject = {
	global_autonomy = -0.1
	global_colonial_growth = 10
}

private_enterprise_subject = {
	global_ship_trade_power = 0.2
	global_trade_goods_size_modifier = 0.2
	naval_tradition_from_trade = 0.1
	ship_power_propagation = 0.1
}

self_governing_colony_subject = {
	colonists = 1
	development_cost = -0.15
	liberty_desire = 25
}

imperial_bodyguard_subject = {
	global_manpower_modifier = 0.20
	land_forcelimit_modifier = 0.25
	defensiveness = 0.15
	fort_maintenance_modifier = -0.15
	manpower_recovery_speed = 0.15
	land_maintenance_modifier = -0.15
}

march_subject = {
	land_forcelimit = 1
}

vassal_subject = {
	land_forcelimit = 1

	#ANBENNAR
	beso_skighubhen_influence = 0.05
}

daimyo_subject = {
}

appanage_subject = {
}

appanage_overlord = {
	nobles_loyalty_modifier = 0.02
}

union_subject = {
	#Anbennar
	monthly_gronstunad_authority_power = -0.5
}

amlharaz_subject = {
	land_forcelimit = 3
}

all_nations = {
	global_tax_income = 12
	land_forcelimit	= 6
	naval_forcelimit = 12
}

subject_nation = {
	global_tax_income = -6
	land_forcelimit	= -3
	naval_forcelimit = -6
}

vassal_nation = {
	development_cost = 0.5
}

kruman_nation = {
	development_cost = -0.10
	global_manpower_modifier = -0.20
	global_prosperity_growth = 0.1
	production_efficiency = 0.05
	stability_cost_modifier = -0.25
}

kruman_subject = {
	land_forcelimit = 1
}

ynnic_iosahar_subject = {
	land_forcelimit	= 6
}

primitive_nation = {
	development_cost = 0.5
}

pirate_subject = {
	global_manpower = 4
	global_sailors = 2000
	global_sailors_modifier = 0.1
	global_manpower_modifier = 0.05
	navy_tradition = 0.25
	naval_forcelimit = 2
}

subject_tax_modifier = {
	global_tax_modifier = 0.25
}

same_religion_subject_bonus_mod = { #1.35
	manpower_in_true_faith_provinces = 0.25
	global_sailors_modifier = 0.25
	production_efficiency = 0.15
}

#scales to amount of up-to-date forts compared to total development
maintained_forts = {
	army_tradition = 1
}

gov_rank_1 = {
}

gov_rank_2 = {
}

gov_rank_3 = {
}

# for mod support...
gov_rank_4 = {
}

gov_rank_5 = {
}

gov_rank_6 = {
}

gov_rank_7 = {
}

gov_rank_8 = {
}

gov_rank_9 = {
}

gov_rank_10 = {
}


# For autonomy mechanics
autonomy_increased = {
	local_unrest = -10
	
	picture="autonomy_increased"
}

autonomy_decreased = {
	local_unrest = 10
}

revolution_target = {
	global_manpower_modifier = 0.10
	land_morale = 0.10
	naval_morale = 0.1
	war_exhaustion = -0.15
	unjustified_demands = -0.5
	land_maintenance_modifier = -0.15
	naval_maintenance_modifier = -0.15
	manpower_recovery_speed = 0.25
	sailors_recovery_speed = 0.25
}

dishonoured_alliance =  {
	diplomatic_reputation = -1

	#Anbennar
	monthly_drakonshan_authority_power = -0.5
}

drilling_armies = { # Multiplied by percentage of forcelimit currently drilling
	yearly_army_professionalism = 0.01
}

##################################################################################################
# Scripted and used from Diplomatic System
##################################################################################################
recruitment_sabotaged = {
	manpower_recovery_speed = -0.2
	sailors_recovery_speed = -0.2
}

merchants_slandered = {
	global_trade_power = -0.1
}

discontent_sowed = {
	global_unrest = 2
	legitimacy = -1
	republican_tradition = -0.2
	devotion = -1
	horde_unity = -1
	#meritocracy = -0.5
}

reputation_sabotaged = {
	diplomatic_reputation = -3
}

corrupt_officials = {
	yearly_corruption = 0.1
}

scaled_trade_league_leader = { #scaled by number of members #1.35
	trade_steering = 0.05
	naval_forcelimit = 2
	global_sailors = 1000
	land_forcelimit = 1
	global_manpower = 1
}

in_trade_league = {
	global_ship_trade_power = 0.2
	diplomatic_upkeep = -1
}

##################################################
# Tutorial only
##################################################

tutorial_colonial_range = {
	range = 0.1
}

########################################
# Nation Designer
########################################

custom_setup = {
	colonists = 1
	global_tax_income = 20
}

########################################
# Subject Interactions (the on/off ones)
########################################

embargo_rivals = {
}

scutage = {
}

subsidize_armies = {
}

support_loyalists = {
}

send_officers = {
	discipline = 0.05
	land_morale = 0.2
}

divert_trade = {
}

########################################
# Karma
########################################

karma_just_right =
{
	#trade_efficiency = 0.1
	#diplomatic_reputation = 1
	#free_mil_policy = 1

	#New Ones -> You're a true Paragon of Corin
	#You have emulated Corin's ways as a chivalrous god of war. Warring against those who are unjust and protecting those under your banner without being complacent and corrupt.
	#Witch Kings will develop a cult of personality and allow themselves to trend down to this really well, to show how they've pretty much subverted and corrupted the system to be infalliable

	war_exhaustion = -0.03
	yearly_corruption = -0.1
	discipline = 0.035
	ae_impact = -0.1
}

karma_too_high =
{
	#global_unrest = -2
	#yearly_absolutism = 1
	#army_tradition_decay = 0.01

	#New Ones -> You focus too much on protecc. 
	#You as a ruler have become complacent and have become to attached to protecting your own. You become to not care about the greater world and you forsake your duty to end evil and are simply content with bringing evil at bay... much like those in the Regent Court

	yearly_corruption = -0.1
	fort_maintenance_modifier = -0.2
	reform_progress_growth = 0.2
}

karma_too_low =
{
	#shock_damage = 0.15
	#manpower_in_true_faith_provinces = 0.15
	#discipline = -0.025

	#New Ones -> You focus too much on atacc (a la Agrados).
	#You as a ruler have become blinded by zeal, and see everyone that is against you as unjust and evil. The people see this too and have become a crusading rabble of pitchforks against any who opposite them, they are ready to take arms for the smallest injustice

	war_exhaustion = -0.03
	global_missionary_strength = 0.01
	warscore_cost_vs_other_religion = -0.15
}

########################################
# Bear
########################################

invasion_nation = {
	discipline = 0.25
	manpower_recovery_speed = 1
	sailors_recovery_speed = 1
	global_tax_income = 600
	land_forcelimit	= 100
	naval_forcelimit = 100
	global_manpower = 100.0
	global_sailors = 10000
	core_creation = -0.75
	global_unrest = -10
	land_attrition = -0.5
	yearly_corruption = -1
}


########################################
# Native policy
########################################

native_policy_coexist = {
	native_uprising_chance = -1.0
}

native_policy_trade = {
	native_assimilation = 0.5
	native_uprising_chance = -0.5
}

native_policy_hostile = {
	global_colonial_growth = 20
}

########################################
# Harmony
########################################

high_harmony = {
	tolerance_own = 3
	development_cost = -0.1
	#meritocracy = 1 #Anbennar
	legitimacy = 0.5
	devotion = 1
	harmonization_speed = 0.5
	yearly_corruption = -0.5
}

low_harmony = {
	yearly_corruption = 1
	stability_cost_modifier = 0.2
	legitimacy = -1
	devotion = -2
	#meritocracy = -2 #Anbennar
}

########################################
# Shogun Interactions
########################################

#The three below are active if gives_daimyo_bonuses = yes, used by One Xia:
overlord_daimyo_at_peace = {
	stability_cost_modifier = -0.02
	legitimacy = 0.1
}

overlord_daimyo_at_peace_max = {
	legitimacy = 1
}

overlord_daimyo_at_peace_min = {
	stability_cost_modifier = -0.2
}

overlord_daimyo_same_isolationism = {
	prestige = 0.1
}

overlord_daimyo_different_isolationism = { # This one gets merged into overlord_daimyo_same_isolationism in the code.
	prestige = -0.05
}

overlord_daimyo_isolationism_max = {
	prestige = 1
}

overlord_daimyo_isolationism_min = {
	prestige = -1
}

overlord_sankin_kotai = {
	diplomatic_reputation = 3
}

subject_sankin_kotai = {
	global_autonomy = 0.25
}

overlord_expel_ronin = {
	global_unrest = -1
}

subject_expel_ronin = {
	liberty_desire = -5
}

overlord_sword_hunt = { # Unlike the others, this one counts per subject
	global_regiment_cost = -0.15
}

subject_sword_hunt = {
	manpower_recovery_speed = -0.1
}

supply_depot_area = {
	supply_limit_modifier = 0.5
}

########################################
# Government Interacions
########################################

efficient_tax_farming_modifier = {
	global_tax_modifier = 0.15
}

land_acquisition_modifier = {
	core_creation = -0.05
}

lenient_taxation_modifier = {
	reduced_liberty_desire = 15
	diplomatic_reputation = 1
}

train_horsemanship_modifier = {
	cavalry_power = 0.15
}

promote_culture_in_government_modifier = {
	all_power_cost = -0.05
}

seize_clerical_holdings_modifier = {
	build_cost = -0.15
}

invite_minorities_modifier = {
	local_development_cost = -0.2
}

royal_council_meeting_mod = { #1.35
	country_admin_power = 1
}

state_council_meeting_mod = { #1.35
	country_diplomatic_power = 1
}

war_council_meeting_mod = { #1.35
	country_military_power = 1
}

equipped_streltsy_modifier_weaker = { #1.35
	infantry_power = 0.05
	is_streltsy_modifier = yes
}

equipped_streltsy_modifier = { #1.35
	infantry_power = 0.1
	is_streltsy_modifier = yes
}

prepared_streltsy_modifier = { #1.35
	reinforce_speed = 0.2
	reinforce_cost_modifier = -0.1
	is_streltsy_modifier = yes
}

new_order_regiment_mobilized_modifier = { #1.35
	infantry_power = 0.15
}

inward_focus_modifier = { #1.35
	core_creation = 0.33
	province_warscore_cost = 1
	stability_cost_to_declare_war = 1
	ae_impact = 0.33
	development_cost_modifier = -0.05
	defensiveness = 0.15
	fort_maintenance_modifier = -0.2
	build_cost = -0.05
	global_unrest = -2
	all_estate_loyalty_equilibrium = 0.05
}

outward_focus_modifier = { #1.35
	ae_impact = 0.15
	land_forcelimit_modifier = -0.1
	trade_efficiency = 0.1
	diplomatic_reputation = 1
	global_colonial_growth = 20
	range = 0.25
	burghers_loyalty_modifier = 0.05
	harmonization_speed = 0.25
}

expansion_focus_modifier = { #1.35
	development_cost_modifier = 0.1
	all_estate_loyalty_equilibrium = -0.1
	global_unrest = 2
	diplomatic_reputation = -1
	core_creation = -0.1
	land_morale = 0.05
	naval_morale = 0.05
	manpower_recovery_speed = 0.1
	ae_impact = -0.1
}

########################################
# Religious Schools
########################################
hanafi_scholar_modifier = {
	religion_sub_modifier = yes # Will make icon placed next to religion modifier
	religion = yes
	is_scholar_modifier = yes # Tells the AI and will only show the alert if country has none
	expire_message_type = "RELIGIOUS_SCHOLAR_EXPIRY"
	adm_tech_cost_modifier = -0.05
}

hanbali_scholar_modifier = {
	religion_sub_modifier = yes # Will make icon placed next to religion modifier
	religion = yes
	is_scholar_modifier = yes # Tells the AI and will only show the alert if country has none
	expire_message_type = "RELIGIOUS_SCHOLAR_EXPIRY"
	ae_impact = -0.1
}

maliki_scholar_modifier = {
	religion_sub_modifier = yes # Will make icon placed next to religion modifier
	religion = yes
	is_scholar_modifier = yes # Tells the AI and will only show the alert if country has none
	expire_message_type = "RELIGIOUS_SCHOLAR_EXPIRY"
	development_cost = -0.1
}

shafii_scholar_modifier = {
	religion_sub_modifier = yes # Will make icon placed next to religion modifier
	religion = yes
	is_scholar_modifier = yes # Tells the AI and will only show the alert if country has none
	expire_message_type = "RELIGIOUS_SCHOLAR_EXPIRY"
	merchants = 1
}

ismaili_scholar_modifier = {
	religion_sub_modifier = yes # Will make icon placed next to religion modifier
	religion = yes
	is_scholar_modifier = yes # Tells the AI and will only show the alert if country has none
	expire_message_type = "RELIGIOUS_SCHOLAR_EXPIRY"
	horde_unity = 1
	legitimacy = 1
	republican_tradition = 0.5
	devotion = 1
}

jafari_scholar_modifier = {
	religion_sub_modifier = yes # Will make icon placed next to religion modifier
	religion = yes
	is_scholar_modifier = yes # Tells the AI and will only show the alert if country has none
	expire_message_type = "RELIGIOUS_SCHOLAR_EXPIRY"
	shock_damage = 0.1
}

zaidi_scholar_modifier = {
	religion_sub_modifier = yes # Will make icon placed next to religion modifier
	religion = yes
	is_scholar_modifier = yes # Tells the AI and will only show the alert if country has none
	expire_message_type = "RELIGIOUS_SCHOLAR_EXPIRY"
	shock_damage_received = -0.1
}

#High Philosophy schools
starry_eye_scholar_modifier = {
	religion_sub_modifier = yes # Will make icon placed next to religion modifier
	religion = yes
	is_scholar_modifier = yes # Tells the AI and will only show the alert if country has none
	expire_message_type = "RELIGIOUS_SCHOLAR_EXPIRY"
	idea_cost = -0.1
	advisor_cost = -0.1
	monthly_piety = -0.001
}
radiant_sun_scholar_modifier = {
	religion_sub_modifier = yes # Will make icon placed next to religion modifier
	religion = yes
	is_scholar_modifier = yes # Tells the AI and will only show the alert if country has none
	expire_message_type = "RELIGIOUS_SCHOLAR_EXPIRY"
	global_manpower_modifier = 0.1
	development_cost = -0.1
	monthly_piety = -0.001
}
orange_sash_scholar_modifier = {
	religion_sub_modifier = yes # Will make icon placed next to religion modifier
	religion = yes
	is_scholar_modifier = yes # Tells the AI and will only show the alert if country has none
	expire_message_type = "RELIGIOUS_SCHOLAR_EXPIRY"
	yearly_corruption = -0.1
	legitimacy = 1
	devotion = 0.5
	republican_tradition = 0.2
	monthly_piety_accelerator = 0.001
}
golden_palace_scholar_modifier = {
	religion_sub_modifier = yes # Will make icon placed next to religion modifier
	religion = yes
	is_scholar_modifier = yes # Tells the AI and will only show the alert if country has none
	expire_message_type = "RELIGIOUS_SCHOLAR_EXPIRY"
	global_unrest  = -2
	global_tax_modifier = 0.1
	monthly_piety_accelerator = 0.001
}
unbroken_claw_scholar_modifier = {
	religion_sub_modifier = yes # Will make icon placed next to religion modifier
	religion = yes
	is_scholar_modifier = yes # Tells the AI and will only show the alert if country has none
	expire_message_type = "RELIGIOUS_SCHOLAR_EXPIRY"
	shock_damage = 0.10
	war_exhaustion = -0.02
	monthly_piety = 0.001
}
silk_turban_scholar_modifier = {
	religion_sub_modifier = yes # Will make icon placed next to religion modifier
	religion = yes
	is_scholar_modifier = yes # Tells the AI and will only show the alert if country has none
	expire_message_type = "RELIGIOUS_SCHOLAR_EXPIRY"
	trade_efficiency = 0.1
	merchants = 1
	monthly_piety = 0.001
}
ascendant_soul_scholar_modifier = {
	religion_sub_modifier = yes # Will make icon placed next to religion modifier
	religion = yes
	is_scholar_modifier = yes # Tells the AI and will only show the alert if country has none
	expire_message_type = "RELIGIOUS_SCHOLAR_EXPIRY"
	country_admin_power = 1
	army_tradition = 0.5
	monthly_piety_accelerator = 0.001
}
synthetic_truth_scholar_modifier = {
	religion_sub_modifier = yes # Will make icon placed next to religion modifier
	religion = yes
	is_scholar_modifier = yes # Tells the AI and will only show the alert if country has none
	expire_message_type = "RELIGIOUS_SCHOLAR_EXPIRY"
	prestige = 1
	technology_cost = -0.05
	monthly_piety = -0.001
}
final_paradigm_scholar_modifier = {
	religion_sub_modifier = yes # Will make icon placed next to religion modifier
	religion = yes
	is_scholar_modifier = yes # Tells the AI and will only show the alert if country has none
	expire_message_type = "RELIGIOUS_SCHOLAR_EXPIRY"
	warscore_cost_vs_other_religion = -0.1
	autonomy_change_time = -0.25
	monthly_piety = 0.001
}
piercing_fang_scholar_modifier = {
	religion_sub_modifier = yes # Will make icon placed next to religion modifier
	religion = yes
	is_scholar_modifier = yes # Tells the AI and will only show the alert if country has none
	expire_message_type = "RELIGIOUS_SCHOLAR_EXPIRY"
	morale_damage_received = -0.1
	movement_speed = 0.1
	monthly_piety = 0.001
}

#Irdaeos Worship Schools
filustkhuga_scholar_modifier = {
	religion_sub_modifier = yes # Will make icon placed next to religion modifier
	religion = yes
	is_scholar_modifier = yes # Tells the AI and will only show the alert if country has none
	expire_message_type = "RELIGIOUS_SCHOLAR_EXPIRY"
	global_manpower_modifier = 0.05
}

irdukhuga_scholar_modifier = {
	religion_sub_modifier = yes # Will make icon placed next to religion modifier
	religion = yes
	is_scholar_modifier = yes # Tells the AI and will only show the alert if country has none
	expire_message_type = "RELIGIOUS_SCHOLAR_EXPIRY"
	merchants = 1
}

maslekhuga_scholar_modifier = {
	religion_sub_modifier = yes # Will make icon placed next to religion modifier
	religion = yes
	is_scholar_modifier = yes # Tells the AI and will only show the alert if country has none
	expire_message_type = "RELIGIOUS_SCHOLAR_EXPIRY"
	reinforce_speed = 0.05
}

malukhuga_scholar_modifier = {
	religion_sub_modifier = yes # Will make icon placed next to religion modifier
	religion = yes
	is_scholar_modifier = yes # Tells the AI and will only show the alert if country has none
	expire_message_type = "RELIGIOUS_SCHOLAR_EXPIRY"
	shock_damage_received = -0.05
}

#Lizard Schools
fate_sculptors_scholar_modifier = {
	religion_sub_modifier = yes # Will make icon placed next to religion modifier
	religion = yes
	is_scholar_modifier = yes # Tells the AI and will only show the alert if country has none
	expire_message_type = "RELIGIOUS_SCHOLAR_EXPIRY"
	idea_cost = -0.075
}

being_sculptors_scholar_modifier = {
	religion_sub_modifier = yes # Will make icon placed next to religion modifier
	religion = yes
	is_scholar_modifier = yes # Tells the AI and will only show the alert if country has none
	expire_message_type = "RELIGIOUS_SCHOLAR_EXPIRY"
	land_morale = 0.075
}

blade_and_needle_scholar_modifier = {
	religion_sub_modifier = yes # Will make icon placed next to religion modifier
	religion = yes
	is_scholar_modifier = yes # Tells the AI and will only show the alert if country has none
	expire_message_type = "RELIGIOUS_SCHOLAR_EXPIRY"
	manpower_recovery_speed = 0.1
}

great_cycle_scholar_modifier = {
	religion_sub_modifier = yes # Will make icon placed next to religion modifier
	religion = yes
	is_scholar_modifier = yes # Tells the AI and will only show the alert if country has none
	expire_message_type = "RELIGIOUS_SCHOLAR_EXPIRY"
	build_cost = -0.1
}

humble_zeal_scholar_modifier = {
	religion_sub_modifier = yes # Will make icon placed next to religion modifier
	religion = yes
	is_scholar_modifier = yes # Tells the AI and will only show the alert if country has none
	expire_message_type = "RELIGIOUS_SCHOLAR_EXPIRY"
	production_efficiency = 0.1
}

soul_song_scholar_modifier = {
	religion_sub_modifier = yes # Will make icon placed next to religion modifier
	religion = yes
	is_scholar_modifier = yes # Tells the AI and will only show the alert if country has none
	expire_message_type = "RELIGIOUS_SCHOLAR_EXPIRY"
	stability_cost_modifier = -0.15
}

#Gnollish Religion Schools
demons_of_the_sorrow_tradition_modifier = {
	religion_sub_modifier = yes # Will make icon placed next to religion modifier
	religion = yes
	is_scholar_modifier = yes # Tells the AI and will only show the alert if country has none
	expire_message_type = "RELIGIOUS_SCHOLAR_EXPIRY"
	ae_impact = -0.1
}

monstrous_pedigrees_tradition_modifier = {
	religion_sub_modifier = yes # Will make icon placed next to religion modifier
	religion = yes
	is_scholar_modifier = yes # Tells the AI and will only show the alert if country has none
	expire_message_type = "RELIGIOUS_SCHOLAR_EXPIRY"
	prestige = 1
}

children_of_goxma_tradition_modifier = {
	religion_sub_modifier = yes # Will make icon placed next to religion modifier
	religion = yes
	is_scholar_modifier = yes # Tells the AI and will only show the alert if country has none
	expire_message_type = "RELIGIOUS_SCHOLAR_EXPIRY"
	num_accepted_cultures = 2
}

kult_of_the_packmother_tradition_modifier = {
	religion_sub_modifier = yes # Will make icon placed next to religion modifier
	religion = yes
	is_scholar_modifier = yes # Tells the AI and will only show the alert if country has none
	expire_message_type = "RELIGIOUS_SCHOLAR_EXPIRY"
	yearly_corruption = -0.1
}

demonic_shamans_tradition_modifier = {
	religion_sub_modifier = yes # Will make icon placed next to religion modifier
	religion = yes
	is_scholar_modifier = yes # Tells the AI and will only show the alert if country has none
	expire_message_type = "RELIGIOUS_SCHOLAR_EXPIRY"
	yearly_patriarch_authority = 0.005
}

umbral_bargains_tradition_modifier = {
	religion_sub_modifier = yes # Will make icon placed next to religion modifier
	religion = yes
	is_scholar_modifier = yes # Tells the AI and will only show the alert if country has none
	expire_message_type = "RELIGIOUS_SCHOLAR_EXPIRY"
	advisor_cost = -0.1
}

way_of_iron_tradition_modifier = {
	religion_sub_modifier = yes # Will make icon placed next to religion modifier
	religion = yes
	is_scholar_modifier = yes # Tells the AI and will only show the alert if country has none
	expire_message_type = "RELIGIOUS_SCHOLAR_EXPIRY"
	production_efficiency = 0.1
}

way_of_bones_tradition_modifier = {
	religion_sub_modifier = yes # Will make icon placed next to religion modifier
	religion = yes
	is_scholar_modifier = yes # Tells the AI and will only show the alert if country has none
	expire_message_type = "RELIGIOUS_SCHOLAR_EXPIRY"
	army_tradition = 0.5
}

########################################
# Regiment Types Modifiers
########################################
regiment_drill_modifier = { # Used by individual regiments
	shock_damage = 0.1
	fire_damage = 0.1
	fire_damage_received = -0.25
	shock_damage_received = -0.25
}

army_drill_modifier = { # Used by an entire army, is the average of all subunits drill
	movement_speed = 0.2
}

#Anbennar
janissary_regiment = {
	morale_damage_received = -0.1
	shock_damage = 0.15
	reinforce_cost_modifier = 0.5
	land_maintenance_modifier = 0.25
}

cawa_regiment = {
	shock_damage_received = -0.05
	land_attrition = -0.5
	reinforce_speed = 0.5
}

#Anbennar
hussars_regiment = {
}

marine_regiment = {
    shock_damage_received = 0.1
    regiment_disembark_speed = 2
}

banner_regiment = {
	discipline = 0.05
	land_maintenance_modifier = -0.5
	reinforce_speed = -0.5
	regiment_manpower_usage = -0.75
}

streltsy_regiment = { #1.35
	fire_damage = 0.1
	fire_damage_received = -0.1
}

tercio_regiment = { #1.35
	shock_damage_received = -0.3
}

musketeer_regiment = { #1.35
	fire_damage = 0.15
}

samurai_regiment = { #1.35
	discipline = 0.05
	morale_damage_received = -0.1
	reinforce_cost_modifier = 0.5
}

qizilbash_regiment = {
	fire_damage_received = -0.05
	land_maintenance_modifier = -0.25
}

mamluks_regiment = {
	drill_gain_modifier = 1
	morale_damage = 0.1
	reinforce_speed = 0.33 
}

geobukseon_ship = { #1.35
	engagement_cost = 1
	number_of_cannons_modifier = 1
	hull_size_modifier = 1
	naval_maintenance_modifier = 2.5
	#Anbennar - engagement_cost works in game
	#ship_durability = 0.1
	#galley_power = 0.1
}

man_of_war_ship = { #1.35
	#engagement_cost = -1
	#naval_maintenance_modifier = 0.5
	naval_morale_damage = 0.15
}

galleon_ship = { #1.35
	hull_size_modifier = 0.1
	heavy_ship_power = 0.1
}

galleass_ship = { #1.35
	galley_power = 0.2
}

caravel_ship = { #1.35
	movement_speed_in_fleet_modifier = 1 
	naval_attrition = -0.25
	global_ship_trade_power = 0.33
}

voc_indiamen_ship = { #1.35
	number_of_cannons_modifier = 0.33
	ship_trade_power_modifier = 0.2
	can_transport_units = yes
}


cossacks_regiment = {
     	shock_damage_received = -0.10
}

carolean_regiment = {
	morale_damage = 0.05
	fire_damage_received = -0.15
	shock_damage_received = -0.10
	reinforce_speed = -0.5
	land_maintenance_modifier = 0.75
	regiment_manpower_usage = -0.25
}

revolutionary_guard_regiment = {
	fire_damage_received = -0.1
	shock_damage_received = -0.1
	drill_gain_modifier = 1.0
	drill_decay_modifier = -0.5
}

innovativeness = {
	all_power_cost	= -0.1
	army_tradition_decay = -0.01
	navy_tradition_decay = -0.01

	#Anbennar
	tec_brilliance_influence = 0.4
	pen_discombobulatorium_influence = 0.025
	beso_caribhen_influence = 0.05
}

rajput_regiment = {
	#drill_decay_modifier = -0.25
	#land_morale = 0.05
	#reinforce_cost_modifier = 1
	#No PDX aren't going to fix this, it's controlled through defines
	drill_gain_modifier = -0.5 #this works hallelujah
	infantry_fire = 0.15
}

raiding_parties_modifier = {
	hostile_attrition = 1
	movement_speed = 0.1
}

serfs_recieved_by_cossacks = {
	global_tax_modifier = -0.1
}

cultural_revolution = { #1.35
	all_estate_influence_modifier = -0.1
	global_tax_modifier = 0.2
	idea_cost = -0.05
}

mobilized_new_order_regiments = { #1.35
	infantry_power = 0.1
	reinforce_speed = 0.2
}

########################################
# Government/Reform modfiers
########################################

expand_administation_modifier = {
	expand_administration_cost = 0.20
	governing_capacity = 20
}

# At 100% over capacity, this modifier will be fully used
over_governing_capacity_modifier = {
	stability_cost_modifier = 1.0
	ae_impact = 0.5
	improve_relation_modifier = -0.5
	advisor_cost = 1.0
	monthly_adventurer_unity = -1
	monthly_prussian_militarized_society_1 = -1
	monthly_prussian_militarized_society_2 = -1
	monthly_prussian_militarized_society_3 = -1
	administrative_efficiency = -0.5
	monthly_ottoman_decadence = 2
}

#Scales with used capacity, being at full capacity means 100% of the modifier
under_governing_capacity_modifier = {
}
#Scales with unused capacity, eing at full capacity means 0% of the modifier
reverse_under_governing_capacity_modifier = {
}


lost_hegemony = {
	all_power_cost	= 0.10
}

at_peace_revolutionary = { # Applied if at peace while reactionaries are bordering you
	yearly_revolutionary_zeal = -4
}

expanded_infrastructure = {
	allowed_num_of_buildings = 1
	allowed_num_of_manufactories = 1
	regiment_recruit_speed = -0.15
	ship_recruit_speed = -0.15
	local_defensiveness = 0.05
	garrison_growth = 0.05
	local_development_cost = -0.15
	local_production_efficiency = 0.05
	local_tax_modifier = 0.1
	local_manpower_modifier = 0.05
	local_sailors_modifier = 0.05
	local_ship_repair = 0.05
	local_autonomy = -0.005
	local_build_cost = -0.05
	local_build_time = -0.05
	province_trade_power_modifier = 0.05
	trade_goods_size_modifier = 0.05
	local_governing_cost_increase = 15
	local_governing_cost = 0.1
	local_great_project_upgrade_cost = -0.05
	local_amount_of_carolean = 1.5
}

centralize_state = {
	statewide_governing_cost = -0.2
	local_prosperity_growth = 0.25
	local_state_maintenance_modifier = -0.2
	picture = "centralize_state"
}

# Applied once for each guru teaching
#Anbennar disabled
guru_teaching = {
	#global_missionary_strength = -0.01
}

diplomatic_reputation = {
}

tolerance_own = {
}

tolerance_heretic = {
}

tolerance_heathen = {
}

num_accepted_cultures = {
}

ruler_adm = {
	monthly_council_consensus = 0.1
	meritocracy = 0.05  #Anbennar
}

ruler_dip = {
	monthly_council_consensus = 0.1
	meritocracy = 0.05 #Anbennar
}

ruler_mil = {
	monthly_council_consensus = 0.1
	meritocracy = 0.025 #Anbennar, khet don't care much about mil
}

heir_adm = {
}

heir_dip = {
}

heir_mil = {
}

consort_adm = {
}

consort_dip = {
}

consort_mil = {
}

mandate = { #1.35

}

imperial_authority_emperor = { #1.35

}

imperial_authority_member = { #1.35

}

positive_imperial_authority_emperor = { #1.35
	
}

positive_imperial_authority_member = { #1.35
	
}

negative_imperial_authority_emperor = { #1.35
	
}

negative_imperial_authority_member = { #1.35
	
}

slackening_modifier = { #1.35
    yearly_army_professionalism = -0.05
    manpower_recovery_speed = 2
}

royal_council_meeting_mod = { #1.35
	country_admin_power = 1
}

state_council_meeting_mod = { #1.35
	country_diplomatic_power = 1
}

war_council_meeting_mod = { #1.35
	country_military_power = 1
}

average_overseas_subject_liberty_desire = { #only counts subjects with capitals on different continents than yours, 100% LD => 100% modifier #1.35

}

reverse_average_overseas_subject_liberty_desire = { #only counts subjects with capitals on different continents than yours, 100% LD => 0% modifier #1.35
	monthly_council_consensus = 0.2
}

average_subject_liberty_desire = { #100% LD => 100% modifier #1.35
	monthly_ottoman_decadence = 0.125
}

reverse_average_subject_liberty_desire = { #100% LD => 0% modifier #1.35

}

average_global_autonomy = { #100% autonomy => 100% modifier #1.35
	monthly_ottoman_decadence = 0.25
}

reverse_average_global_autonomy = { #100% autonomy => 0% modifier #1.35
	monthly_council_consensus = 0.2

	#ANBENNAR
	beso_skighubhen_influence = 0.1
}

adur_burzhen_mihr_mod = {
	country_diplomatic_power = 1
	development_cost = -0.1
	# monthly_asha_vahishta = -0.5
	religion = yes
}

adur_farnbag_mod = {
	country_admin_power = 1
	reform_progress_growth = 0.1
	# monthly_asha_vahishta = -0.5
	religion = yes
}

adur_gushnasp_mod = {
	country_military_power = 1
	own_territory_dice_roll_bonus = 1
	# monthly_asha_vahishta = -0.5
	religion = yes
}

culturally_influencing_countries = {
	influence_to_vassal_elevation_cost = 20
	# monthly_persian_influence = -0.2
}

culturally_influencing_countries_same_culture = {
	influence_to_vassal_elevation_cost = 20
}

culturally_influenced_country = {
	relation_with_same_religion = 10
	reverse_relation_with_same_religion = 10
}

#Anbennar, Kalsyto
democratically_influencing_countries = {
	monthly_kalsyto_influence = -0.02
}
democratically_influenced_country = {
	relation_with_same_religion = 10
	reverse_relation_with_same_religion = 10
	yearly_harmony = 1
}
J33_workers_of_the_world_CDS_mod = {
	production_efficiency = 0.1
	build_cost = -0.1
}
J33_tactical_readiness_CDS_mod = {
	global_manpower_modifier = 0.10
	land_forcelimit_modifier = 0.10
}
J33_global_trade_CDS_mod = {
	merchants = 1
	trade_efficiency = 0.1
}
J33_make_them_equal_CDS_mod = {
	leader_land_fire = 1
	fire_damage = 0.1
}
J33_one_family_CDS_mod = {
	yearly_corruption = -0.1
	development_cost = -0.1
}
J33_crescent_upon_halann_CDS_mod = {
	infantry_power = 0.1
	heavy_ship_power = 0.1
}

manpower_percentage = {

}

reverse_manpower_percentage = {

}

sailors_percentage = {

}

reverse_sailors_percentage = {

}